{
    "TV_Data": {
        "Channel_List": {
            "is_channel_list": true,
            "is_override": true,
            "thumb_width": 150,
            "all_Channels_Tab_Name": "",
            "main": {
                "id": 1,
                "name": "El Salvador Channels",
                "sub_name": "Channels",
                "thumbnail_url": "https://flagpedia.net//data/flags/h80/sv.png",
                "sub": {
                    "sub_1": {
                        "id": 1,
                        "mode": "video",
                        "name_original": "Agrotendencia TV",
                        "name": "Channel 1",
                        "sub_name": "",
                        "stream_video_url": "https://5fc584f3f19c9.streamlock.net/agrotendencia/videoagrotendencia_hls1/playlist.m3u8",
                        "thumbnail_url": "https://raw.githubusercontent.com/tvgram-inc/tvgram-inc.github.io/master/images/logo.png",
                        "thumbnail_url_original": "https://i.imgur.com/frd60hR.png"
                    },
                    "sub_2": {
                        "id": 2,
                        "mode": "video",
                        "name_original": "BabyTV",
                        "name": "Channel 2",
                        "sub_name": "",
                        "stream_video_url": "http://194.163.179.246/slovenci/djeciji/babytv.m3u8",
                        "thumbnail_url": "https://raw.githubusercontent.com/tvgram-inc/tvgram-inc.github.io/master/images/logo.png",
                        "thumbnail_url_original": "https://upload.wikimedia.org/wikipedia/en/4/45/BabyTV.png"
                    },
                    "sub_3": {
                        "id": 3,
                        "mode": "website",
                        "name_original": "",
                        "name": "Adult Free IPTV",
                        "sub_name": "Free Hot X IPTV Playlist (Ad)",
                        "website_url": "https://play.google.com/store/apps/details?id=com.adult.iptv.hot.playlist",
                        "is_system_browser": true,
                        "thumbnail_url": "https://play-lh.googleusercontent.com/DFrL4OmwEWMQnRjs9tBcekNn6DYrlehENI0aAD5XphVvenROVKOon7sfLf84YhmyM08=w240-h480-rw",
                        "thumbnail_url_original": ""
                    },
                    "sub_4": {
                        "id": 4,
                        "mode": "video",
                        "name_original": "Bahrain International",
                        "name": "Channel 4",
                        "sub_name": "",
                        "stream_video_url": "https://5c7b683162943.streamlock.net/live/ngrp:bahraininternational_all/playlist.m3u8",
                        "thumbnail_url": "https://raw.githubusercontent.com/tvgram-inc/tvgram-inc.github.io/master/images/logo.png",
                        "thumbnail_url_original": "https://www.lyngsat.com/logo/tv/bb/bahrain_tv_international.png"
                    },
                    "sub_5": {
                        "id": 5,
                        "mode": "video",
                        "name_original": "BBC News HD",
                        "name": "Channel 5",
                        "sub_name": "",
                        "stream_video_url": "https://cdnuk001.broadcastcdn.net/KUK-BBCNEWSHD/index.m3u8",
                        "thumbnail_url": "https://raw.githubusercontent.com/tvgram-inc/tvgram-inc.github.io/master/images/logo.png",
                        "thumbnail_url_original": "https://i.imgur.com/rPzH88J.png"
                    },
                    "sub_6": {
                        "id": 6,
                        "mode": "website",
                        "name_original": "",
                        "name": "USA Live TV",
                        "sub_name": "Free Live TV Channels (Ad)",
                        "website_url": "https://play.google.com/store/apps/details?id=com.tvgram.usalivetv",
                        "is_system_browser": true,
                        "thumbnail_url": "https://play-lh.googleusercontent.com/6VtBPY8-Yq-DmTW_rEfKbxVC_6EY-bZx7QXTetHmqMM2tNvL7TXITbfjkGPMXIGaNbI=w240-h480-rw",
                        "thumbnail_url_original": ""
                    },
                    "sub_7": {
                        "id": 7,
                        "mode": "video",
                        "name_original": "BeritaSatu World",
                        "name": "Channel 7",
                        "sub_name": "",
                        "stream_video_url": "https://b1world.beritasatumedia.com/Beritasatu/B1World_manifest.m3u8",
                        "thumbnail_url": "https://raw.githubusercontent.com/tvgram-inc/tvgram-inc.github.io/master/images/logo.png",
                        "thumbnail_url_original": "https://upload.wikimedia.org/wikipedia/commons/thumb/f/f1/BeritaSatuWorld.png/512px-BeritaSatuWorld.png"
                    },
                    "sub_8": {
                        "id": 8,
                        "mode": "video",
                        "name_original": "Canal 10",
                        "name": "Channel 8",
                        "sub_name": "",
                        "stream_video_url": "http://streamingcws20.com:1935/tves/tves.smil/playlist.m3u8",
                        "thumbnail_url": "https://raw.githubusercontent.com/tvgram-inc/tvgram-inc.github.io/master/images/logo.png",
                        "thumbnail_url_original": "https://i.imgur.com/Iy5jUjV.png"
                    },
                    "sub_9": {
                        "id": 9,
                        "mode": "website",
                        "name_original": "",
                        "name": "World m3u List",
                        "sub_name": "World Free Live TV Channels (Ad)",
                        "website_url": "https://play.google.com/store/apps/details?id=com.iptv.m3u.playlists",
                        "is_system_browser": true,
                        "thumbnail_url": "https://play-lh.googleusercontent.com/8mPNKodK65zCjQHS8aqF4o0cX9YlKZYN-3qYCd9oMlcTkGaAf_3AxB0vnE9Kud6bPw=w240-h480-rw",
                        "thumbnail_url_original": ""
                    },
                    "sub_10": {
                        "id": 10,
                        "mode": "video",
                        "name_original": "Canal 12",
                        "name": "Channel 10",
                        "sub_name": "",
                        "stream_video_url": "https://d3kk75blondskv.cloudfront.net/hls/canal12.m3u8",
                        "thumbnail_url": "https://raw.githubusercontent.com/tvgram-inc/tvgram-inc.github.io/master/images/logo.png",
                        "thumbnail_url_original": "https://i.imgur.com/UGDbp3O.png"
                    },
                    "sub_11": {
                        "id": 11,
                        "mode": "video",
                        "name_original": "Canal 26",
                        "name": "Channel 11",
                        "sub_name": "",
                        "stream_video_url": "http://200.115.193.177/live/26hd-720/playlist.m3u8",
                        "thumbnail_url": "https://raw.githubusercontent.com/tvgram-inc/tvgram-inc.github.io/master/images/logo.png",
                        "thumbnail_url_original": "https://upload.wikimedia.org/wikipedia/commons/thumb/c/c5/Canal_26_logo_%282022%29.svg/512px-Canal_26_logo_%282022%29.svg.png"
                    },
                    "sub_12": {
                        "id": 12,
                        "mode": "website",
                        "name_original": "",
                        "name": "YoYo Video calls",
                        "sub_name": "Free Live TV Channels (Ad)",
                        "website_url": "https://play.google.com/store/apps/details?id=com.yoyolive.llc",
                        "is_system_browser": true,
                        "thumbnail_url": "https://play-lh.googleusercontent.com/33_mPNzvE6WRV6czGRm8EhSrSh0G9wnRQRfMXfcqQLU8j3z4UYu7nrgw5SmaP9UFf0U=s48-rw",
                        "thumbnail_url_original": ""
                    },
                    "sub_13": {
                        "id": 13,
                        "mode": "video",
                        "name_original": "Canal 33",
                        "name": "Channel 13",
                        "sub_name": "",
                        "stream_video_url": "https://5ca9af4645e15.streamlock.net/canal33/smil:canal33.smil/playlist.m3u8",
                        "thumbnail_url": "https://raw.githubusercontent.com/tvgram-inc/tvgram-inc.github.io/master/images/logo.png",
                        "thumbnail_url_original": "https://canal33.tv/home/wp-content/uploads/2019/08/200.png"
                    },
                    "sub_14": {
                        "id": 14,
                        "mode": "video",
                        "name_original": "Canal Iberoamericano",
                        "name": "Channel 14",
                        "sub_name": "",
                        "stream_video_url": "https://icsbaldeastd.aldeasolutions.mx/EVLiveCan18ABR/_definst_/mp4:7NBH6B8L/playlist.m3u8",
                        "thumbnail_url": "https://raw.githubusercontent.com/tvgram-inc/tvgram-inc.github.io/master/images/logo.png",
                        "thumbnail_url_original": "https://www.ilce.edu.mx/images/home/ci.png"
                    },
                    "sub_15": {
                        "id": 15,
                        "mode": "website",
                        "name_original": "",
                        "name": "Pocket IPTV",
                        "sub_name": "Free Live TV Channels (Ad)",
                        "website_url": "https://play.google.com/store/apps/details?id=com.pocketiptv",
                        "is_system_browser": true,
                        "thumbnail_url": "https://play-lh.googleusercontent.com/DviEA28-3k_q7mb1mbF8ZMRdYNRmqEGYMzQ3SJnSdEo5hRkFmxgpr2uKb1z8wnsCpcU=w240-h480-rw",
                        "thumbnail_url_original": ""
                    },
                    "sub_16": {
                        "id": 16,
                        "mode": "video",
                        "name_original": "CGTN",
                        "name": "Channel 16",
                        "sub_name": "",
                        "stream_video_url": "https://news.cgtn.com/resource/live/english/cgtn-news.m3u8",
                        "thumbnail_url": "https://raw.githubusercontent.com/tvgram-inc/tvgram-inc.github.io/master/images/logo.png",
                        "thumbnail_url_original": "https://upload.wikimedia.org/wikipedia/commons/thumb/8/81/CGTN.svg/512px-CGTN.svg.png"
                    },
                    "sub_17": {
                        "id": 17,
                        "mode": "video",
                        "name_original": "CGTN Documentary",
                        "name": "Channel 17",
                        "sub_name": "",
                        "stream_video_url": "http://39.135.138.59:18890/PLTV/88888910/224/3221225645/index.m3u8",
                        "thumbnail_url": "https://raw.githubusercontent.com/tvgram-inc/tvgram-inc.github.io/master/images/logo.png",
                        "thumbnail_url_original": "https://upload.wikimedia.org/wikipedia/commons/d/d6/CGTN_Documentary_logo.png"
                    },
                    "sub_18": {
                        "id": 18,
                        "mode": "website",
                        "name_original": "",
                        "name": "France Live Tv",
                        "sub_name": "Free Live TV Channels (Ad)",
                        "website_url": "https://play.google.com/store/apps/details?id=com.tvgram.francelivetv",
                        "is_system_browser": true,
                        "thumbnail_url": "https://play-lh.googleusercontent.com/WoPxNu1ZO7bHJvi32q-CNLVZyVXqqMBtTBqY8Dh71icnw6xJAG8ZYfwzli26KyjN5W9_=w240-h480-rw",
                        "thumbnail_url_original": ""
                    },
                    "sub_19": {
                        "id": 19,
                        "mode": "video",
                        "name_original": "CGTN Espa\u00f1ol",
                        "name": "Channel 19",
                        "sub_name": "",
                        "stream_video_url": "https://news.cgtn.com/resource/live/espanol/cgtn-e.m3u8",
                        "thumbnail_url": "https://raw.githubusercontent.com/tvgram-inc/tvgram-inc.github.io/master/images/logo.png",
                        "thumbnail_url_original": "https://upload.wikimedia.org/wikipedia/commons/thumb/9/9c/CGTN_Espanol.png/512px-CGTN_Espanol.png"
                    },
                    "sub_20": {
                        "id": 20,
                        "mode": "video",
                        "name_original": "Classic Arts Showcase",
                        "name": "Channel 20",
                        "sub_name": "",
                        "stream_video_url": "https://classicarts.akamaized.net/hls/live/1024257/CAS/master.m3u8",
                        "thumbnail_url": "https://raw.githubusercontent.com/tvgram-inc/tvgram-inc.github.io/master/images/logo.png",
                        "thumbnail_url_original": "https://i.imgur.com/M6FFkc3.png"
                    },
                    "sub_21": {
                        "id": 21,
                        "mode": "website",
                        "name_original": "",
                        "name": "India Live TV",
                        "sub_name": "Free Live TV Channels (Ad)",
                        "website_url": "https://play.google.com/store/apps/details?id=com.tvgram.brazillivetv",
                        "is_system_browser": true,
                        "thumbnail_url": "https://play-lh.googleusercontent.com/bDQlYcVEfFfB5uDSRYWYeLiXpb68C5xJ_bko-Fhdvmu7Ooet80_J6yCfntLE8uVMMQ=w240-h480-rw",
                        "thumbnail_url_original": ""
                    },
                    "sub_22": {
                        "id": 22,
                        "mode": "video",
                        "name_original": "CNA International",
                        "name": "Channel 22",
                        "sub_name": "",
                        "stream_video_url": "https://d2e1asnsl7br7b.cloudfront.net/7782e205e72f43aeb4a48ec97f66ebbe/index.m3u8",
                        "thumbnail_url": "https://raw.githubusercontent.com/tvgram-inc/tvgram-inc.github.io/master/images/logo.png",
                        "thumbnail_url_original": "https://upload.wikimedia.org/wikipedia/commons/thumb/8/83/CNA_new_logo.svg/512px-CNA_new_logo.svg.png"
                    },
                    "sub_23": {
                        "id": 23,
                        "mode": "video",
                        "name_original": "Dreamforce Btl",
                        "name": "Channel 23",
                        "sub_name": "",
                        "stream_video_url": "https://srv.panelcast.net/dreamforcebtl/dreamforcebtl/playlist.m3u8",
                        "thumbnail_url": "https://raw.githubusercontent.com/tvgram-inc/tvgram-inc.github.io/master/images/logo.png",
                        "thumbnail_url_original": "https://dreamforcebtl.online/wp-content/uploads/2021/07/dreamforce-radio-logo-final-e1625783518759-332x191.png"
                    },
                    "sub_24": {
                        "id": 24,
                        "mode": "website",
                        "name_original": "",
                        "name": "Canada IPTV LIST",
                        "sub_name": "Canada Free Channel Playlist (Ad)",
                        "website_url": "https://play.google.com/store/apps/details?id=com.bitlinks.canada.iptv.m3ulist",
                        "is_system_browser": true,
                        "thumbnail_url": "https://play-lh.googleusercontent.com/kwcO0pT77BLdDvudr9SJnWi5TCAcPnbKrCnCH3dp6mHpGtlChWZVOxfvFEp1zA_DW90=w240-h480-rw",
                        "thumbnail_url_original": ""
                    },
                    "sub_25": {
                        "id": 25,
                        "mode": "video",
                        "name_original": "DW English",
                        "name": "Channel 25",
                        "sub_name": "",
                        "stream_video_url": "https://dwamdstream102.akamaized.net/hls/live/2015525/dwstream102/index.m3u8",
                        "thumbnail_url": "https://raw.githubusercontent.com/tvgram-inc/tvgram-inc.github.io/master/images/logo.png",
                        "thumbnail_url_original": "https://i.imgur.com/A1xzjOI.png"
                    },
                    "sub_26": {
                        "id": 26,
                        "mode": "video",
                        "name_original": "DW Espa\u00f1ol",
                        "name": "Channel 26",
                        "sub_name": "",
                        "stream_video_url": "https://dwamdstream104.akamaized.net/hls/live/2015530/dwstream104/index.m3u8",
                        "thumbnail_url": "https://raw.githubusercontent.com/tvgram-inc/tvgram-inc.github.io/master/images/logo.png",
                        "thumbnail_url_original": "https://i.imgur.com/A1xzjOI.png"
                    },
                    "sub_27": {
                        "id": 27,
                        "mode": "website",
                        "name_original": "",
                        "name": "India IPTV LIST",
                        "sub_name": "Indian Free Channel Playlist (Ad)",
                        "website_url": "https://play.google.com/store/apps/details?id=com.bitlinks.india.iptv.m3ulist",
                        "is_system_browser": true,
                        "thumbnail_url": "https://play-lh.googleusercontent.com/l3rJ2qzJtRFzqUzr55ano_WEhcDx5YznwIpd7uRVxooEbOW5444QY8HeeZbiZhd4Ayc=w240-h480-rw",
                        "thumbnail_url_original": ""
                    },
                    "sub_28": {
                        "id": 28,
                        "mode": "video",
                        "name_original": "El Garage TV",
                        "name": "Channel 28",
                        "sub_name": "",
                        "stream_video_url": "http://186.0.233.76:1935/Garage/smil:garage.smil/playlist.m3u8",
                        "thumbnail_url": "https://raw.githubusercontent.com/tvgram-inc/tvgram-inc.github.io/master/images/logo.png",
                        "thumbnail_url_original": "https://i.imgur.com/cd0hP5e.png"
                    },
                    "sub_29": {
                        "id": 29,
                        "mode": "video",
                        "name_original": "Elim TV",
                        "name": "Channel 29",
                        "sub_name": "",
                        "stream_video_url": "https://dacastmmd.mmdlive.lldns.net/dacastmmd/7e84ed301b194b7b81e86f85bb2c3a33/playlist.m3u8",
                        "thumbnail_url": "https://raw.githubusercontent.com/tvgram-inc/tvgram-inc.github.io/master/images/logo.png",
                        "thumbnail_url_original": "https://i.imgur.com/AonXAXu.png"
                    },
                    "sub_30": {
                        "id": 30,
                        "mode": "website",
                        "name_original": "",
                        "name": "Cash Counter",
                        "sub_name": "Easy Money Count (Ad)",
                        "website_url": "https://play.google.com/store/apps/details?id=com.money_count_save",
                        "is_system_browser": true,
                        "thumbnail_url": "https://play-lh.googleusercontent.com/kB7MXSAbO8vKrfbnM8QrzIcNbNm2tWH8rImp5xsIZY1lwKqK3FkNkEFRQpyskJliEbQ=w240-h480-rw",
                        "thumbnail_url_original": ""
                    },
                    "sub_31": {
                        "id": 31,
                        "mode": "video",
                        "name_original": "EnerGeek Fanpop",
                        "name": "Channel 31",
                        "sub_name": "",
                        "stream_video_url": "https://stream.wifispeed.cl:3247/live/energeek2live.m3u8",
                        "thumbnail_url": "https://raw.githubusercontent.com/tvgram-inc/tvgram-inc.github.io/master/images/logo.png",
                        "thumbnail_url_original": "https://i.imgur.com/AdsItgE.png"
                    },
                    "sub_32": {
                        "id": 32,
                        "mode": "video",
                        "name_original": "EnerGeek Radio",
                        "name": "Channel 32",
                        "sub_name": "",
                        "stream_video_url": "https://streamtest.energeek.cl/hls/stream.m3u8",
                        "thumbnail_url": "https://raw.githubusercontent.com/tvgram-inc/tvgram-inc.github.io/master/images/logo.png",
                        "thumbnail_url_original": "https://i2.paste.pics/cb6d3df7e55e32e5c786962a1fa742cd.png"
                    },
                    "sub_33": {
                        "id": 33,
                        "mode": "website",
                        "name_original": "",
                        "name": "mirende Random Video calls",
                        "sub_name": "Chinese Random Video calling app (Ad)",
                        "website_url": "https://play.google.com/store/apps/details?id=com.minichat.mirende.shipin",
                        "is_system_browser": true,
                        "thumbnail_url": "https://play-lh.googleusercontent.com/pE3eAvKn9TiXM_3-2YTKAmDStyipNhXAwNMrx1D9S6rAXT6PT5y8JxRZnKOaJhHy9Uc=w240-h480-rw",
                        "thumbnail_url_original": ""
                    },
                    "sub_34": {
                        "id": 34,
                        "mode": "video",
                        "name_original": "EnerGeek Se\u00f1al 1",
                        "name": "Channel 34",
                        "sub_name": "",
                        "stream_video_url": "https://stream.wifispeed.cl:3103/live/energeek1live.m3u8",
                        "thumbnail_url": "https://raw.githubusercontent.com/tvgram-inc/tvgram-inc.github.io/master/images/logo.png",
                        "thumbnail_url_original": "https://i.imgur.com/sFYhUs5.png"
                    },
                    "sub_35": {
                        "id": 35,
                        "mode": "video",
                        "name_original": "EnerGeek Se\u00f1al 3",
                        "name": "Channel 35",
                        "sub_name": "",
                        "stream_video_url": "https://stream.wifispeed.cl:3852/live/energeeklive.m3u8",
                        "thumbnail_url": "https://raw.githubusercontent.com/tvgram-inc/tvgram-inc.github.io/master/images/logo.png",
                        "thumbnail_url_original": "https://i2.paste.pics/2bf75a344d4cf7c2530247f14e101d84.png"
                    },
                    "sub_36": {
                        "id": 36,
                        "mode": "website",
                        "name_original": "",
                        "name": "Free Adult Vids",
                        "sub_name": "Adult  FREE IPTV Playlist (Ad)",
                        "website_url": "https://play.google.com/store/apps/details?id=com.x.iptv.hot.playlist",
                        "is_system_browser": true,
                        "thumbnail_url": "https://play-lh.googleusercontent.com/C13Fw3kBZ6jU-AX6PFlyGMdDZFT9VnmPVUJZrJqqm71Rg9ky5sg5bsifgZvuEefFUw=w240-h480-rw",
                        "thumbnail_url_original": ""
                    },
                    "sub_37": {
                        "id": 37,
                        "mode": "video",
                        "name_original": "ERT World",
                        "name": "Channel 37",
                        "sub_name": "",
                        "stream_video_url": "http://wpso.com:1936/hls/wzra.m3u8",
                        "thumbnail_url": "https://raw.githubusercontent.com/tvgram-inc/tvgram-inc.github.io/master/images/logo.png",
                        "thumbnail_url_original": "https://upload.wikimedia.org/wikipedia/commons/thumb/b/bc/ChannelLogo-ERTWORLD1.png/512px-ChannelLogo-ERTWORLD1.png"
                    },
                    "sub_38": {
                        "id": 38,
                        "mode": "video",
                        "name_original": "Esports Max [Not 24/7]",
                        "name": "Channel 38",
                        "sub_name": "",
                        "stream_video_url": "http://vcpar.myplaytv.com/esportsmax/live/playlist.m3u8",
                        "thumbnail_url": "https://raw.githubusercontent.com/tvgram-inc/tvgram-inc.github.io/master/images/logo.png",
                        "thumbnail_url_original": "https://i.imgur.com/mvNLE8f.png"
                    },
                    "sub_39": {
                        "id": 39,
                        "mode": "website",
                        "name_original": "",
                        "name": "Turkish IPTV LIST",
                        "sub_name": "Turkish Free Channel Playlist (Ad)",
                        "website_url": "https://play.google.com/store/apps/details?id=com.bitlinks.turkish.iptv.m3ulist",
                        "is_system_browser": true,
                        "thumbnail_url": "https://play-lh.googleusercontent.com/VKeeYL7nYUv-5qnVweTU2onTurMhO6XZj-w2wjfkVd4trGgD6IWpM__Ta2YlSyxgsPQ=w240-h480-rw",
                        "thumbnail_url_original": ""
                    },
                    "sub_40": {
                        "id": 40,
                        "mode": "video",
                        "name_original": "ETB Basque",
                        "name": "Channel 40",
                        "sub_name": "",
                        "stream_video_url": "https://multimedia.eitb.eus/live-content/eitbbasque-hls/master.m3u8",
                        "thumbnail_url": "https://raw.githubusercontent.com/tvgram-inc/tvgram-inc.github.io/master/images/logo.png",
                        "thumbnail_url_original": "https://upload.wikimedia.org/wikipedia/commons/thumb/c/ca/ETB_Basque_2022_logo.svg/512px-ETB_Basque_2022_logo.svg.png"
                    },
                    "sub_41": {
                        "id": 41,
                        "mode": "video",
                        "name_original": "Euro Indie Music Chart TV",
                        "name": "Channel 41",
                        "sub_name": "",
                        "stream_video_url": "http://178.33.224.197:1935/euroindiemusic/euroindiemusic/playlist.m3u8",
                        "thumbnail_url": "https://raw.githubusercontent.com/tvgram-inc/tvgram-inc.github.io/master/images/logo.png",
                        "thumbnail_url_original": "https://i.imgur.com/UDFBYpN.png"
                    },
                    "sub_42": {
                        "id": 42,
                        "mode": "website",
                        "name_original": "",
                        "name": "lyubimiy Random Video calls",
                        "sub_name": "Ukraine Random Video calling app (Ad)",
                        "website_url": "https://play.google.com/store/apps/details?id=com.minichat.lyubimiy.videochat",
                        "is_system_browser": true,
                        "thumbnail_url": "https://play-lh.googleusercontent.com/R93sG4-ovSRJaDNIVx6PaMkfZGATne9MN0S8Ihp7uSgKxaC2qmdXYpYP3GAslVtP5_5f=w240-h480-rw",
                        "thumbnail_url_original": ""
                    },
                    "sub_43": {
                        "id": 43,
                        "mode": "video",
                        "name_original": "Euronews German",
                        "name": "Channel 43",
                        "sub_name": "",
                        "stream_video_url": "https://euronews.alteox.app/hls/de_stream.m3u8",
                        "thumbnail_url": "https://raw.githubusercontent.com/tvgram-inc/tvgram-inc.github.io/master/images/logo.png",
                        "thumbnail_url_original": "https://i.imgur.com/8t9mdg9.png"
                    },
                    "sub_44": {
                        "id": 44,
                        "mode": "video",
                        "name_original": "Euronews Italian",
                        "name": "Channel 44",
                        "sub_name": "",
                        "stream_video_url": "https://euronews.alteox.app/hls/it_stream.m3u8",
                        "thumbnail_url": "https://raw.githubusercontent.com/tvgram-inc/tvgram-inc.github.io/master/images/logo.png",
                        "thumbnail_url_original": "https://i.imgur.com/8t9mdg9.png"
                    },
                    "sub_45": {
                        "id": 45,
                        "mode": "website",
                        "name_original": "",
                        "name": "Arabic IPTV LIST",
                        "sub_name": "Arabian Free Channel Playlists (Ad)",
                        "website_url": "https://play.google.com/store/apps/details?id=com.bitlinks.arebic.iptv.m3ulist",
                        "is_system_browser": true,
                        "thumbnail_url": "https://play-lh.googleusercontent.com/sGSMoSuytTPbNuMjKFU0omN7y814nhnqYxEHDtwSPNkrAiqCLuH_asc06xb52U5tAoo=w240-h480-rw",
                        "thumbnail_url_original": ""
                    },
                    "sub_46": {
                        "id": 46,
                        "mode": "video",
                        "name_original": "Euronews Portuguese",
                        "name": "Channel 46",
                        "sub_name": "",
                        "stream_video_url": "https://euronews.alteox.app/hls/pt_stream.m3u8",
                        "thumbnail_url": "https://raw.githubusercontent.com/tvgram-inc/tvgram-inc.github.io/master/images/logo.png",
                        "thumbnail_url_original": "https://i.imgur.com/8t9mdg9.png"
                    },
                    "sub_47": {
                        "id": 47,
                        "mode": "video",
                        "name_original": "EWTN el Canal Cat\u00f3lico",
                        "name": "Channel 47",
                        "sub_name": "",
                        "stream_video_url": "https://cdn3.wowza.com/1/SmVrQmZCUXZhVDgz/b3J3MFJv/hls/live/playlist.m3u8",
                        "thumbnail_url": "https://raw.githubusercontent.com/tvgram-inc/tvgram-inc.github.io/master/images/logo.png",
                        "thumbnail_url_original": "https://comteco.com.bo/img/upload/canales/YRTcBp.png"
                    },
                    "sub_48": {
                        "id": 48,
                        "mode": "website",
                        "name_original": "",
                        "name": "Line Video Player",
                        "sub_name": "Best Video Player (Ad)",
                        "website_url": "https://play.google.com/store/apps/details?id=com.line.hdplayer",
                        "is_system_browser": true,
                        "thumbnail_url": "https://play-lh.googleusercontent.com/IPqZNMTj7o1agUs1LkuQ0OJU4Ue_udMnOwxENKdKTaTEL_6GyH1YjS4lfq8hUGCVxGA=w240-h480-rw",
                        "thumbnail_url_original": ""
                    },
                    "sub_49": {
                        "id": 49,
                        "mode": "video",
                        "name_original": "Frecuencia Musical TV",
                        "name": "Channel 49",
                        "sub_name": "",
                        "stream_video_url": "https://cloud2.streaminglivehd.com:1936/8018/8018/playlist.m3u8",
                        "thumbnail_url": "https://raw.githubusercontent.com/tvgram-inc/tvgram-inc.github.io/master/images/logo.png",
                        "thumbnail_url_original": "https://www.frecuenciamusicaltv.com/wp-content/uploads/2020/06/logo_fmtvmundo_blanco.png"
                    },
                    "sub_50": {
                        "id": 50,
                        "mode": "video",
                        "name_original": "Galicia TV Am\u00e9rica",
                        "name": "Channel 50",
                        "sub_name": "",
                        "stream_video_url": "http://america-crtvg.flumotion.com/playlist.m3u8",
                        "thumbnail_url": "https://raw.githubusercontent.com/tvgram-inc/tvgram-inc.github.io/master/images/logo.png",
                        "thumbnail_url_original": "https://cdn.mitvstatic.com/channels/ar_galicia-tv_m.png"
                    },
                    "sub_51": {
                        "id": 51,
                        "mode": "website",
                        "name_original": "",
                        "name": "Love Shayari App",
                        "sub_name": "Shayari app for your love ones (Ad)",
                        "website_url": "https://play.google.com/store/apps/details?id=com.real.love.shayari",
                        "is_system_browser": true,
                        "thumbnail_url": "https://play-lh.googleusercontent.com/rs3Xfx9cvLwS1cuq5Hac-Y8c9QACQDDxEKXGBaG5W05EO1c9j8BFkj6GBRwe7u3-PYg=w240-h480-rw",
                        "thumbnail_url_original": ""
                    },
                    "sub_52": {
                        "id": 52,
                        "mode": "video",
                        "name_original": "Golden TV",
                        "name": "Channel 52",
                        "sub_name": "",
                        "stream_video_url": "https://rpn1.bozztv.com/36bay2/gusa-goldentv/mono.m3u8",
                        "thumbnail_url": "https://raw.githubusercontent.com/tvgram-inc/tvgram-inc.github.io/master/images/logo.png",
                        "thumbnail_url_original": "https://upload.wikimedia.org/wikipedia/commons/thumb/2/22/Canal_Golden_logo.svg/512px-Canal_Golden_logo.svg.png"
                    },
                    "sub_53": {
                        "id": 53,
                        "mode": "video",
                        "name_original": "Hiperconectados Televisi\u00f3n",
                        "name": "Channel 53",
                        "sub_name": "",
                        "stream_video_url": "https://mediacpstreamchile.com:1936/hiperconectados/hiperconectados/playlist.m3u8",
                        "thumbnail_url": "https://raw.githubusercontent.com/tvgram-inc/tvgram-inc.github.io/master/images/logo.png",
                        "thumbnail_url_original": "https://i.imgur.com/EiGdG9p.png"
                    },
                    "sub_54": {
                        "id": 54,
                        "mode": "website",
                        "name_original": "",
                        "name": "Live Cricket",
                        "sub_name": "Watch Live Cricket Score (Ad)",
                        "website_url": "https://play.google.com/store/apps/details?id=com.bitmedia.ipl2k22",
                        "is_system_browser": true,
                        "thumbnail_url": "https://play-lh.googleusercontent.com/yAiVkEdk1YbKEvZf6SLujni0dQgA9U2_B86aqt0_k-b2_ASEWjnqdeL-UyNq-GWx1Jc=w240-h480-rw",
                        "thumbnail_url_original": ""
                    },
                    "sub_55": {
                        "id": 55,
                        "mode": "video",
                        "name_original": "HispanTV",
                        "name": "Channel 55",
                        "sub_name": "",
                        "stream_video_url": "https://live1.presstv.ir/live/hispan.m3u8",
                        "thumbnail_url": "https://raw.githubusercontent.com/tvgram-inc/tvgram-inc.github.io/master/images/logo.png",
                        "thumbnail_url_original": "https://upload.wikimedia.org/wikipedia/commons/thumb/a/ad/HispanTv_logo.svg/512px-HispanTv_logo.svg.png"
                    },
                    "sub_56": {
                        "id": 56,
                        "mode": "video",
                        "name_original": "Insight TV",
                        "name": "Channel 56",
                        "sub_name": "",
                        "stream_video_url": "https://insighttv-vizio.amagi.tv/playlist.m3u8",
                        "thumbnail_url": "https://raw.githubusercontent.com/tvgram-inc/tvgram-inc.github.io/master/images/logo.png",
                        "thumbnail_url_original": "https://i.imgur.com/7xmaoL0.png"
                    },
                    "sub_57": {
                        "id": 57,
                        "mode": "website",
                        "name_original": "",
                        "name": "German Live Tv",
                        "sub_name": "Free Live TV Channels (Ad)",
                        "website_url": "https://play.google.com/store/apps/details?id=com.tvgram.germanlivetv",
                        "is_system_browser": true,
                        "thumbnail_url": "https://play-lh.googleusercontent.com/R56Rq08GnY1LDkWF-kK_ys4FkVokh5qXhBdnIwoO1xe4-b9VQlxlBhIEuygrLCzt5UU=w240-h480-rw",
                        "thumbnail_url_original": ""
                    },
                    "sub_58": {
                        "id": 58,
                        "mode": "video",
                        "name_original": "Kanade TV",
                        "name": "Channel 58",
                        "sub_name": "",
                        "stream_video_url": "http://64.20.57.7:8080/hls/enfoque.m3u8",
                        "thumbnail_url": "https://raw.githubusercontent.com/tvgram-inc/tvgram-inc.github.io/master/images/logo.png",
                        "thumbnail_url_original": "https://i2.paste.pics/5a7804b203e6167e010d4de31ae9390d.png"
                    },
                    "sub_59": {
                        "id": 59,
                        "mode": "video",
                        "name_original": "KBS World",
                        "name": "Channel 59",
                        "sub_name": "",
                        "stream_video_url": "https://kbsworld-ott.akamaized.net/hls/live/2002341/kbsworld/master.m3u8",
                        "thumbnail_url": "https://raw.githubusercontent.com/tvgram-inc/tvgram-inc.github.io/master/images/logo.png",
                        "thumbnail_url_original": "https://upload.wikimedia.org/wikipedia/commons/thumb/1/1b/KBS_World_%282009%29.svg/512px-KBS_World_%282009%29.svg.png"
                    },
                    "sub_60": {
                        "id": 60,
                        "mode": "website",
                        "name_original": "",
                        "name": "English IPTV LIST",
                        "sub_name": "English Free Channel Playlist (Ad)",
                        "website_url": "https://play.google.com/store/apps/details?id=com.bitlinks.english.iptv.m3ulist",
                        "is_system_browser": true,
                        "thumbnail_url": "https://play-lh.googleusercontent.com/xb5LxBYljW-fpj4QcmfpauEPrGIKFw1w8glR4sJYNnGF6KVfJZEw9IzRu9NzlUEVrh4=w240-h480-rw",
                        "thumbnail_url_original": ""
                    },
                    "sub_61": {
                        "id": 61,
                        "mode": "video",
                        "name_original": "LatinoKids",
                        "name": "Channel 61",
                        "sub_name": "",
                        "stream_video_url": "https://videostreaming.cloudserverlatam.com/8062/8062/playlist.m3u8",
                        "thumbnail_url": "https://raw.githubusercontent.com/tvgram-inc/tvgram-inc.github.io/master/images/logo.png",
                        "thumbnail_url_original": "https://i.imgur.com/CBUf3K1.png"
                    },
                    "sub_62": {
                        "id": 62,
                        "mode": "video",
                        "name_original": "Legislative Assembly of El Salvador",
                        "name": "Channel 62",
                        "sub_name": "",
                        "stream_video_url": "https://streaming.asamblea.gob.sv/hls/plenariahd.m3u8",
                        "thumbnail_url": "https://raw.githubusercontent.com/tvgram-inc/tvgram-inc.github.io/master/images/logo.png",
                        "thumbnail_url_original": "https://upload.wikimedia.org/wikipedia/commons/thumb/e/e7/Logo_Asamblea_Legislativa_de_El_Salvador_%282021%29.svg/512px-Logo_Asamblea_Legislativa_de_El_Salvador_%282021%29.svg.png"
                    },
                    "sub_63": {
                        "id": 63,
                        "mode": "website",
                        "name_original": "",
                        "name": "belo Random Video calls",
                        "sub_name": "Portuguese Random Video calling app (Ad)",
                        "website_url": "https://play.google.com/store/apps/details?id=com.minichat.belo.chatde.video",
                        "is_system_browser": true,
                        "thumbnail_url": "https://play-lh.googleusercontent.com/AS5qW9nP6-CGtPNDA59DR6-fg3MhH924N45ScDNSmacthqzrbDb04C4ripDrxpq2Jw=w240-h480-rw",
                        "thumbnail_url_original": ""
                    },
                    "sub_64": {
                        "id": 64,
                        "mode": "video",
                        "name_original": "Memorias TV",
                        "name": "Channel 64",
                        "sub_name": "",
                        "stream_video_url": "https://stmv2.zcastbr.com/memoriastv/memoriastv/playlist.m3u8",
                        "thumbnail_url": "https://raw.githubusercontent.com/tvgram-inc/tvgram-inc.github.io/master/images/logo.png",
                        "thumbnail_url_original": "https://memorias.tv/wp-content/uploads/2022/03/cropped-logo-MEMORIAS-TV-png-1.png"
                    },
                    "sub_65": {
                        "id": 65,
                        "mode": "video",
                        "name_original": "Metro Globe Network",
                        "name": "Channel 65",
                        "sub_name": "",
                        "stream_video_url": "https://edge.medcom.id/live-edge/smil:mgnch.smil/playlist.m3u8",
                        "thumbnail_url": "https://raw.githubusercontent.com/tvgram-inc/tvgram-inc.github.io/master/images/logo.png",
                        "thumbnail_url_original": "https://i.imgur.com/NTCI3lf.png"
                    },
                    "sub_66": {
                        "id": 66,
                        "mode": "website",
                        "name_original": "",
                        "name": "Status Savaer",
                        "sub_name": "Status Saver for Whatsapp (Ad)",
                        "website_url": "https://play.google.com/store/apps/details?id=com.appclub.whats.status.saver",
                        "is_system_browser": true,
                        "thumbnail_url": "https://play-lh.googleusercontent.com/K76-feE-GOTDz9SoEWVKtom1ngUVTIPEsQ_damw8lCyaoh77awQifmc4A5wXdSyx84M=w240-h480-rw",
                        "thumbnail_url_original": ""
                    },
                    "sub_67": {
                        "id": 67,
                        "mode": "video",
                        "name_original": "MNB world",
                        "name": "Channel 67",
                        "sub_name": "",
                        "stream_video_url": "https://live.mnb.mn/live/mnb_world.stream/playlist.m3u8",
                        "thumbnail_url": "https://raw.githubusercontent.com/tvgram-inc/tvgram-inc.github.io/master/images/logo.png",
                        "thumbnail_url_original": "https://www.lyngsat.com/logo/tv/mm/mnb-world-mn.png"
                    },
                    "sub_68": {
                        "id": 68,
                        "mode": "video",
                        "name_original": "Myanmar International TV",
                        "name": "Channel 68",
                        "sub_name": "",
                        "stream_video_url": "https://5a13fe32ef748.streamlock.net/mmplay/mitv/playlist.m3u8",
                        "thumbnail_url": "https://raw.githubusercontent.com/tvgram-inc/tvgram-inc.github.io/master/images/logo.png",
                        "thumbnail_url_original": "https://www.lyngsat.com/logo/tv/mm/myanmar-international-tv-mm.png"
                    },
                    "sub_69": {
                        "id": 69,
                        "mode": "website",
                        "name_original": "",
                        "name": "France IPTV LIST",
                        "sub_name": "France Free Channel Playlist (Ad)",
                        "website_url": "https://play.google.com/store/apps/details?id=com.bitlinks.france.iptv.m3ulist",
                        "is_system_browser": true,
                        "thumbnail_url": "https://play-lh.googleusercontent.com/3JLB6nhz-nLEmVec31uJO-s8dmAjQYRI7qcHM12471zQI9bHXbQR6ggmhGpdnNFIJg=w240-h480-rw",
                        "thumbnail_url_original": ""
                    },
                    "sub_70": {
                        "id": 70,
                        "mode": "video",
                        "name_original": "NASA TV",
                        "name": "Channel 70",
                        "sub_name": "",
                        "stream_video_url": "https://uplynkcontent.sinclairstoryline.com/channel/ddd76fdc1c0a456ba537e4f48e827d3e.m3u8",
                        "thumbnail_url": "https://raw.githubusercontent.com/tvgram-inc/tvgram-inc.github.io/master/images/logo.png",
                        "thumbnail_url_original": "https://upload.wikimedia.org/wikipedia/commons/thumb/b/b4/NASA_TV.svg/512px-NASA_TV.svg.png"
                    },
                    "sub_71": {
                        "id": 71,
                        "mode": "video",
                        "name_original": "NBT World",
                        "name": "Channel 71",
                        "sub_name": "",
                        "stream_video_url": "https://thainews.prd.go.th/lv/live/ch1_L_L.sdp/playlist.m3u8",
                        "thumbnail_url": "https://raw.githubusercontent.com/tvgram-inc/tvgram-inc.github.io/master/images/logo.png",
                        "thumbnail_url_original": "https://i.imgur.com/GCcmL8E.png"
                    },
                    "sub_72": {
                        "id": 72,
                        "mode": "website",
                        "name_original": "",
                        "name": "bello Random Video calls",
                        "sub_name": "Italian  Random Video calling app (Ad)",
                        "website_url": "https://play.google.com/store/apps/details?id=com.minichat.bello.random.videochat",
                        "is_system_browser": true,
                        "thumbnail_url": "https://play-lh.googleusercontent.com/3bOkAvBhWTFLLuwMRriodrXyEk67Dp6NQibo4UZyPOyahMbI6iisNCqQX5OcmMl9VQ=w240-h480-rw",
                        "thumbnail_url_original": ""
                    },
                    "sub_73": {
                        "id": 73,
                        "mode": "video",
                        "name_original": "NHK World Japan",
                        "name": "Channel 73",
                        "sub_name": "",
                        "stream_video_url": "https://nhkwlive-ojp.akamaized.net/hls/live/2003459/nhkwlive-ojp-en/index.m3u8",
                        "thumbnail_url": "https://raw.githubusercontent.com/tvgram-inc/tvgram-inc.github.io/master/images/logo.png",
                        "thumbnail_url_original": "https://upload.wikimedia.org/wikipedia/commons/thumb/8/8d/NHK_World-Japan_TV.svg/512px-NHK_World-Japan_TV.svg.png"
                    },
                    "sub_74": {
                        "id": 74,
                        "mode": "video",
                        "name_original": "Novel\u00edsima [Not 24/7]",
                        "name": "Channel 74",
                        "sub_name": "",
                        "stream_video_url": "https://novelisima.akamaized.net/hls/live/2031534/novelisimaABR/master.m3u8",
                        "thumbnail_url": "https://raw.githubusercontent.com/tvgram-inc/tvgram-inc.github.io/master/images/logo.png",
                        "thumbnail_url_original": "https://www.novelisima.com/assets/images/logo.png"
                    },
                    "sub_75": {
                        "id": 75,
                        "mode": "website",
                        "name_original": "",
                        "name": "USA IPTV LIST",
                        "sub_name": "USA Free Channel Playlist (Ad)",
                        "website_url": "https://play.google.com/store/apps/details?id=com.bitlinks.usa.iptv.m3ulist",
                        "is_system_browser": true,
                        "thumbnail_url": "https://play-lh.googleusercontent.com/aLcopJQaN0OngNZvAnfUbpBB3RNhb-48sleyghMNXVSKePiGZqmhb375p_5VRz1uhxs=w240-h480-rw",
                        "thumbnail_url_original": ""
                    },
                    "sub_76": {
                        "id": 76,
                        "mode": "video",
                        "name_original": "Nuevo Tiempo",
                        "name": "Channel 76",
                        "sub_name": "",
                        "stream_video_url": "https://stream.live.novotempo.com/tv/smil:tvnuevotiempo.smil/playlist.m3u8",
                        "thumbnail_url": "https://raw.githubusercontent.com/tvgram-inc/tvgram-inc.github.io/master/images/logo.png",
                        "thumbnail_url_original": "https://i.imgur.com/exdDHml.png"
                    },
                    "sub_77": {
                        "id": 77,
                        "mode": "video",
                        "name_original": "\u00d3rbita TV Canal 25",
                        "name": "Channel 77",
                        "sub_name": "",
                        "stream_video_url": "https://5dcabf026b188.streamlock.net/orbitatv/livestream/playlist.m3u8",
                        "thumbnail_url": "https://raw.githubusercontent.com/tvgram-inc/tvgram-inc.github.io/master/images/logo.png",
                        "thumbnail_url_original": "https://3.bp.blogspot.com/-T6GUy9Xq7dk/XHqhBG7oE1I/AAAAAAAAHcI/JthcJF6_nZ8VDmiy0QGGXaVKrsgDsBvogCLcBGAs/s1600/%25C3%2593rbita%2BTV%2BCanal%2B25%2Bhd.png"
                    },
                    "sub_78": {
                        "id": 78,
                        "mode": "website",
                        "name_original": "",
                        "name": "Sound Prank",
                        "sub_name": "Funny Sound Pranks (Ad)",
                        "website_url": "https://play.google.com/store/apps/details?id=com.airhorn.sounds.pranks",
                        "is_system_browser": true,
                        "thumbnail_url": "https://play-lh.googleusercontent.com/CPgsxnjr_o73B1-GW-mCeFQ47BOaY_sKFSO85JYurcs68DYz0tYQ0HqHRKIv22EDmKab=w240-h480-rw",
                        "thumbnail_url_original": ""
                    },
                    "sub_79": {
                        "id": 79,
                        "mode": "video",
                        "name_original": "Platzi TV",
                        "name": "Channel 79",
                        "sub_name": "",
                        "stream_video_url": "https://mdstrm.com/live-stream-playlist/629a63ae8df27c082901f78b.m3u8",
                        "thumbnail_url": "https://raw.githubusercontent.com/tvgram-inc/tvgram-inc.github.io/master/images/logo.png",
                        "thumbnail_url_original": "https://platform-static.cdn.mdstrm.com/player/logo/s-live-5b9076d18ef7b22560354649.png?184"
                    },
                    "sub_80": {
                        "id": 80,
                        "mode": "video",
                        "name_original": "Pymes TeVe",
                        "name": "Channel 80",
                        "sub_name": "",
                        "stream_video_url": "https://vse2-sa-all62.secdn.net/tvstartup6-channel/live/pymestv/playlist.m3u8",
                        "thumbnail_url": "https://raw.githubusercontent.com/tvgram-inc/tvgram-inc.github.io/master/images/logo.png",
                        "thumbnail_url_original": "https://cdn.colombia.com/canales/pymes-teve-5713.jpg"
                    },
                    "sub_81": {
                        "id": 81,
                        "mode": "website",
                        "name_original": "",
                        "name": "Maxico IPTV LIST",
                        "sub_name": "Mexican Free Channel Playlist (Ad)",
                        "website_url": "https://play.google.com/store/apps/details?id=com.bitlinks.maxico.iptv.m3ulist",
                        "is_system_browser": true,
                        "thumbnail_url": "https://play-lh.googleusercontent.com/zppwv1My0OZGZBIJSWcgvxjDpJDNWYnPZlJTZKErpbraj9X1jUqfqfwDK_n5H8wDi_E=w240-h480-rw",
                        "thumbnail_url_original": ""
                    },
                    "sub_82": {
                        "id": 82,
                        "mode": "video",
                        "name_original": "Radio San Borja TV",
                        "name": "Channel 82",
                        "sub_name": "",
                        "stream_video_url": "https://5c3fb01839654.streamlock.net:1963/iptvsanborja/livesanborjatv/playlist.m3u8",
                        "thumbnail_url": "https://raw.githubusercontent.com/tvgram-inc/tvgram-inc.github.io/master/images/logo.png",
                        "thumbnail_url_original": "https://i.imgur.com/xvMDTe9.png"
                    },
                    "sub_83": {
                        "id": 83,
                        "mode": "video",
                        "name_original": "Red Bull TV",
                        "name": "Channel 83",
                        "sub_name": "",
                        "stream_video_url": "https://rbmn-live.akamaized.net/hls/live/590964/BoRB-AT/master.m3u8",
                        "thumbnail_url": "https://raw.githubusercontent.com/tvgram-inc/tvgram-inc.github.io/master/images/logo.png",
                        "thumbnail_url_original": "https://i.imgur.com/7NeBmWX.jpg"
                    },
                    "sub_84": {
                        "id": 84,
                        "mode": "website",
                        "name_original": "",
                        "name": "prekrasnyy Random Video calls",
                        "sub_name": "Russian Random Video calling app (Ad)",
                        "website_url": "https://play.google.com/store/apps/details?id=com.minichat.prekrasnyy.videochat",
                        "is_system_browser": true,
                        "thumbnail_url": "https://play-lh.googleusercontent.com/m9zQM36OeQZ9bTgGAEf6MD9XXYnV0O8CpyToLKq0R3CoEwpYnosXJIahyWS3if8-8KE=w240-h480-rw",
                        "thumbnail_url_original": ""
                    },
                    "sub_85": {
                        "id": 85,
                        "mode": "video",
                        "name_original": "RT Documentary Russian",
                        "name": "Channel 85",
                        "sub_name": "",
                        "stream_video_url": "http://uiptv.do.am/1ufc/300663722/playlist.m3u8",
                        "thumbnail_url": "https://raw.githubusercontent.com/tvgram-inc/tvgram-inc.github.io/master/images/logo.png",
                        "thumbnail_url_original": "https://i.imgur.com/rli3c7T.png"
                    },
                    "sub_86": {
                        "id": 86,
                        "mode": "video",
                        "name_original": "San Isidro TV",
                        "name": "Channel 86",
                        "sub_name": "",
                        "stream_video_url": "https://cdn4.hostlagarto.com:8081/static/sanisidrotv/playlist.m3u8",
                        "thumbnail_url": "https://raw.githubusercontent.com/tvgram-inc/tvgram-inc.github.io/master/images/logo.png",
                        "thumbnail_url_original": "https://sanisidrotv.com/wp-content/uploads/2020/10/logo-san-isidro-tv-png-1-300x221.png"
                    },
                    "sub_87": {
                        "id": 87,
                        "mode": "website",
                        "name_original": "",
                        "name": "Australia Random Video chats",
                        "sub_name": "Australi Random Video calls (Ad)",
                        "website_url": "https://play.google.com/store/apps/details?id=com.live.videochats.australia",
                        "is_system_browser": true,
                        "thumbnail_url": "https://play-lh.googleusercontent.com/VFvH1S1yfHI_osKbalY-jUTZAYN_DZc9rBtiqubyM1FhxqCNARZNYegJHjqAAbsboFTN=w240-h480-rw",
                        "thumbnail_url_original": ""
                    },
                    "sub_88": {
                        "id": 88,
                        "mode": "video",
                        "name_original": "Ski TV",
                        "name": "Channel 88",
                        "sub_name": "",
                        "stream_video_url": "https://d2xeo83q8fcni6.cloudfront.net/v1/master/9d062541f2ff39b5c0f48b743c6411d25f62fc25/SkiTV-SynapseTV/193.m3u8",
                        "thumbnail_url": "https://raw.githubusercontent.com/tvgram-inc/tvgram-inc.github.io/master/images/logo.png",
                        "thumbnail_url_original": "https://i.imgur.com/idKogRi.png"
                    },
                    "sub_89": {
                        "id": 89,
                        "mode": "video",
                        "name_original": "Sofy TV",
                        "name": "Channel 89",
                        "sub_name": "",
                        "stream_video_url": "https://sofy-ger-samsung.amagi.tv/playlist.m3u8",
                        "thumbnail_url": "https://raw.githubusercontent.com/tvgram-inc/tvgram-inc.github.io/master/images/logo.png",
                        "thumbnail_url_original": "https://i.imgur.com/Srxa6cR.png"
                    },
                    "sub_90": {
                        "id": 90,
                        "mode": "website",
                        "name_original": "",
                        "name": "lieblich Random Video calls",
                        "sub_name": "German Random Video calling app (Ad)",
                        "website_url": "https://play.google.com/store/apps/details?id=com.minichat.lieblich.live.videochat",
                        "is_system_browser": true,
                        "thumbnail_url": "https://play-lh.googleusercontent.com/hT_MT0HxTlmkJVKTn5CuOrJrlZaEsG6WWRx2iqXkoSlP0HTINXseOLDJ9UJO1wowUMQ=w240-h480-rw",
                        "thumbnail_url_original": ""
                    },
                    "sub_91": {
                        "id": 91,
                        "mode": "video",
                        "name_original": "SoloStandUp",
                        "name": "Channel 91",
                        "sub_name": "",
                        "stream_video_url": "https://paneltv.online:1936/8116/8116/playlist.m3u8",
                        "thumbnail_url": "https://raw.githubusercontent.com/tvgram-inc/tvgram-inc.github.io/master/images/logo.png",
                        "thumbnail_url_original": "https://i.imgur.com/U872KLT.png"
                    },
                    "sub_92": {
                        "id": 92,
                        "mode": "video",
                        "name_original": "Taber TV",
                        "name": "Channel 92",
                        "sub_name": "",
                        "stream_video_url": "https://5ca9af4645e15.streamlock.net/tabertv/smil:tabertv.smil/playlist.m3u8",
                        "thumbnail_url": "https://raw.githubusercontent.com/tvgram-inc/tvgram-inc.github.io/master/images/logo.png",
                        "thumbnail_url_original": null
                    },
                    "sub_93": {
                        "id": 93,
                        "mode": "website",
                        "name_original": "",
                        "name": "Netherlands IPTV LIST",
                        "sub_name": "Netherlands Free Channel Playlist (Ad)",
                        "website_url": "https://play.google.com/store/apps/details?id=com.bitlinks.netherland.iptv.m3ulist",
                        "is_system_browser": true,
                        "thumbnail_url": "https://play-lh.googleusercontent.com/sk7fZk8NtKudJs2k8g3I8Uf7Jp4AnNdaWK7jrzGj23xwrZZ6sN_URzbhncVclubMHyI=w240-h480-rw",
                        "thumbnail_url_original": ""
                    },
                    "sub_94": {
                        "id": 94,
                        "mode": "video",
                        "name_original": "Tastemade en Espa\u00f1ol",
                        "name": "Channel 94",
                        "sub_name": "",
                        "stream_video_url": "https://tastemade-es8intl-roku.amagi.tv/playlist.m3u8",
                        "thumbnail_url": "https://raw.githubusercontent.com/tvgram-inc/tvgram-inc.github.io/master/images/logo.png",
                        "thumbnail_url_original": "https://i.imgur.com/8s6aRwv.png"
                    },
                    "sub_95": {
                        "id": 95,
                        "mode": "video",
                        "name_original": "TCS",
                        "name": "Channel 95",
                        "sub_name": "",
                        "stream_video_url": "https://secure-video.tcsgo.com/tcshd/index.m3u8",
                        "thumbnail_url": "https://raw.githubusercontent.com/tvgram-inc/tvgram-inc.github.io/master/images/logo.png",
                        "thumbnail_url_original": "https://upload.wikimedia.org/wikipedia/commons/3/34/Logotipo-tcs-sv.png"
                    },
                    "sub_96": {
                        "id": 96,
                        "mode": "website",
                        "name_original": "",
                        "name": "mono Random Video calls",
                        "sub_name": "Mexican Random Video calling app (Ad)",
                        "website_url": "https://play.google.com/store/apps/details?id=com.minichat.mono.videochat.envivo",
                        "is_system_browser": true,
                        "thumbnail_url": "https://play-lh.googleusercontent.com/kMrY-EGCarpaXsI9FcM3Q8KeBnO3kBX_5pCJ2e09sfoRk3uJqGctq3D_A2wl2mW-WY8=w240-h480-rw",
                        "thumbnail_url_original": ""
                    },
                    "sub_97": {
                        "id": 97,
                        "mode": "video",
                        "name_original": "teleSUR",
                        "name": "Channel 97",
                        "sub_name": "",
                        "stream_video_url": "https://github.com/LaneSh4d0w/IPTV_Exception/raw/master/channels/ve/telesur.m3u8",
                        "thumbnail_url": "https://raw.githubusercontent.com/tvgram-inc/tvgram-inc.github.io/master/images/logo.png",
                        "thumbnail_url_original": "https://upload.wikimedia.org/wikipedia/commons/thumb/b/bf/TeleSUR-Logo.svg/512px-TeleSUR-Logo.svg.png"
                    },
                    "sub_98": {
                        "id": 98,
                        "mode": "video",
                        "name_original": "Tevex",
                        "name": "Channel 98",
                        "sub_name": "",
                        "stream_video_url": "https://v4.tustreaming.cl/tevexinter/index.m3u8",
                        "thumbnail_url": "https://raw.githubusercontent.com/tvgram-inc/tvgram-inc.github.io/master/images/logo.png",
                        "thumbnail_url_original": "https://i.imgur.com/sj4sEaN.png"
                    },
                    "sub_99": {
                        "id": 99,
                        "mode": "website",
                        "name_original": "",
                        "name": "Spanish Live Tv",
                        "sub_name": "Free Live TV Channels (Ad)",
                        "website_url": "https://play.google.com/store/apps/details?id=com.tvgram.spanishlivetv",
                        "is_system_browser": true,
                        "thumbnail_url": "https://play-lh.googleusercontent.com/Z5TOSShWV4wJp-3ZX8nHV2wvjaltrAmsKsn2qNo0vgXDa-67qZlrQVtIdWzgBXYMcWQ=w240-h480-rw",
                        "thumbnail_url_original": ""
                    },
                    "sub_100": {
                        "id": 100,
                        "mode": "video",
                        "name_original": "Top Latino TV",
                        "name": "Channel 100",
                        "sub_name": "",
                        "stream_video_url": "https://5cefcbf58ba2e.streamlock.net:543/tltvweb/tvweb.stream/playlist.m3u8",
                        "thumbnail_url": "https://raw.githubusercontent.com/tvgram-inc/tvgram-inc.github.io/master/images/logo.png",
                        "thumbnail_url_original": "https://i.imgur.com/VMMNhkf.png"
                    },
                    "sub_101": {
                        "id": 101,
                        "mode": "video",
                        "name_original": "TribunaTV",
                        "name": "Channel 101",
                        "sub_name": "",
                        "stream_video_url": "https://cm.hostlagarto.com:4445/TRIBUNA-TV/tribuna.myStream/playlist.m3u8",
                        "thumbnail_url": "https://raw.githubusercontent.com/tvgram-inc/tvgram-inc.github.io/master/images/logo.png",
                        "thumbnail_url_original": "https://i.imgur.com/2X6vgbJ.png"
                    },
                    "sub_102": {
                        "id": 102,
                        "mode": "website",
                        "name_original": "",
                        "name": "Italy IPTV LIST",
                        "sub_name": "Italian Free Channel Playlist (Ad)",
                        "website_url": "https://play.google.com/store/apps/details?id=com.bitlinks.italy.iptv.m3ulist",
                        "is_system_browser": true,
                        "thumbnail_url": "https://play-lh.googleusercontent.com/EgW4JwZzBvlYwIe88W90AcXGhCECBmEnvbu1CW7Fo0TOprNdcSrTY1-Yc6_NmpO_exA=w240-h480-rw",
                        "thumbnail_url_original": ""
                    },
                    "sub_103": {
                        "id": 103,
                        "mode": "video",
                        "name_original": "Tropical Moon Eventos TV [Not 24/7]",
                        "name": "Channel 103",
                        "sub_name": "",
                        "stream_video_url": "https://srv.panelcast.net/eventostv/eventostv/playlist.m3u8",
                        "thumbnail_url": "https://raw.githubusercontent.com/tvgram-inc/tvgram-inc.github.io/master/images/logo.png",
                        "thumbnail_url_original": "https://i.imgur.com/WcM7BP5.png"
                    },
                    "sub_104": {
                        "id": 104,
                        "mode": "video",
                        "name_original": "Tropical Moon Salsa TV",
                        "name": "Channel 104",
                        "sub_name": "",
                        "stream_video_url": "https://srv.panelcast.net/musictv/musictv/playlist.m3u8",
                        "thumbnail_url": "https://raw.githubusercontent.com/tvgram-inc/tvgram-inc.github.io/master/images/logo.png",
                        "thumbnail_url_original": "https://i.imgur.com/WcM7BP5.png"
                    },
                    "sub_105": {
                        "id": 105,
                        "mode": "website",
                        "name_original": "",
                        "name": "lovely Random Video calls",
                        "sub_name": "English Random Video calling app (Ad)",
                        "website_url": "https://play.google.com/store/apps/details?id=com.minichat.lovely.random.videochat",
                        "is_system_browser": true,
                        "thumbnail_url": "https://play-lh.googleusercontent.com/nt_ofAKkDgRYPstT2-6tZxelhcUgZH5IRHh6i0pl4ixnwvT_fUsJdbC5io-W7pGtgw=w240-h480-rw",
                        "thumbnail_url_original": ""
                    },
                    "sub_106": {
                        "id": 106,
                        "mode": "video",
                        "name_original": "Tropical Moon Somos Cultura TV",
                        "name": "Channel 106",
                        "sub_name": "",
                        "stream_video_url": "https://srv.panelcast.net/somosculturatv/somosculturatv/playlist.m3u8",
                        "thumbnail_url": "https://raw.githubusercontent.com/tvgram-inc/tvgram-inc.github.io/master/images/logo.png",
                        "thumbnail_url_original": "https://i.imgur.com/WcM7BP5.png"
                    },
                    "sub_107": {
                        "id": 107,
                        "mode": "video",
                        "name_original": "Tropical Moon Urban TV",
                        "name": "Channel 107",
                        "sub_name": "",
                        "stream_video_url": "https://srv.panelcast.net/urbantv/urbantv/playlist.m3u8",
                        "thumbnail_url": "https://raw.githubusercontent.com/tvgram-inc/tvgram-inc.github.io/master/images/logo.png",
                        "thumbnail_url_original": "https://i.imgur.com/WcM7BP5.png"
                    },
                    "sub_108": {
                        "id": 108,
                        "mode": "website",
                        "name_original": "",
                        "name": "Random Video calls",
                        "sub_name": "Free Random Video calling App (Ad)",
                        "website_url": "https://play.google.com/store/apps/details?id=com.booya.videochat",
                        "is_system_browser": true,
                        "thumbnail_url": "https://play-lh.googleusercontent.com/OwvRNTvvyUo8g9MQUdJJBGT_cL4S7ObS_xCyzwHYTS-rLrapbZzD1cQYowyHy-uVgw=w240-h480-rw",
                        "thumbnail_url_original": ""
                    },
                    "sub_109": {
                        "id": 109,
                        "mode": "video",
                        "name_original": "TRT World",
                        "name": "Channel 109",
                        "sub_name": "",
                        "stream_video_url": "https://tv-trtworld.live.trt.com.tr/master.m3u8",
                        "thumbnail_url": "https://raw.githubusercontent.com/tvgram-inc/tvgram-inc.github.io/master/images/logo.png",
                        "thumbnail_url_original": "https://upload.wikimedia.org/wikipedia/commons/thumb/2/27/TRT_World.svg/512px-TRT_World.svg.png"
                    },
                    "sub_110": {
                        "id": 110,
                        "mode": "video",
                        "name_original": "Tru TV Am\u00e9rica Latina",
                        "name": "Channel 110",
                        "sub_name": "",
                        "stream_video_url": "http://190.61.37.173:9001/play/a084/index.m3u8",
                        "thumbnail_url": "https://raw.githubusercontent.com/tvgram-inc/tvgram-inc.github.io/master/images/logo.png",
                        "thumbnail_url_original": "https://upload.wikimedia.org/wikipedia/commons/thumb/3/3e/TruTV_logo_2014.png/512px-TruTV_logo_2014.png"
                    },
                    "sub_111": {
                        "id": 111,
                        "mode": "website",
                        "name_original": "",
                        "name": "Ukraine IPTV LIST",
                        "sub_name": "Ukranian Free Channel Playlist (Ad)",
                        "website_url": "https://play.google.com/store/apps/details?id=com.bitlinks.ukrain.iptv.m3ulist",
                        "is_system_browser": true,
                        "thumbnail_url": "https://play-lh.googleusercontent.com/HNuGB9gHaaziSMWur3I-KDksb9jL5GWOtKfEDCzdX3TCdRXNUOVdxtxMr0pW5Q0Bpug=w240-h480-rw",
                        "thumbnail_url_original": ""
                    },
                    "sub_112": {
                        "id": 112,
                        "mode": "video",
                        "name_original": "TV Daja",
                        "name": "Channel 112",
                        "sub_name": "",
                        "stream_video_url": "https://cm.hostlagarto.com:4445/Dajatv/Dajatv.myStream/playlist.m3u8",
                        "thumbnail_url": "https://raw.githubusercontent.com/tvgram-inc/tvgram-inc.github.io/master/images/logo.png",
                        "thumbnail_url_original": "https://dajatv.com/wp-content/uploads/2021/09/logo_daja_2.png"
                    },
                    "sub_113": {
                        "id": 113,
                        "mode": "video",
                        "name_original": "TV Per\u00fa Internacional",
                        "name": "Channel 113",
                        "sub_name": "",
                        "stream_video_url": "http://cdnh4.iblups.com/hls/irtp.m3u8",
                        "thumbnail_url": "https://raw.githubusercontent.com/tvgram-inc/tvgram-inc.github.io/master/images/logo.png",
                        "thumbnail_url_original": "https://upload.wikimedia.org/wikipedia/commons/thumb/e/e3/TV_Per%C3%BA_Internacional_2019_-_copia.png/512px-TV_Per%C3%BA_Internacional_2019_-_copia.png"
                    },
                    "sub_114": {
                        "id": 114,
                        "mode": "website",
                        "name_original": "",
                        "name": "Portuguese IPTV LIST",
                        "sub_name": "Portuguese Free Channel Playlist (Ad)",
                        "website_url": "https://play.google.com/store/apps/details?id=com.bitlinks.portuguese.iptv.m3ulist",
                        "is_system_browser": true,
                        "thumbnail_url": "https://play-lh.googleusercontent.com/2Hbp1bNX5Lk3Bx7mi0EGcWWA49PdwAWiT0-PcbVDDqSahwIxjpxk_AUbrsNiUDscLMw=w240-h480-rw",
                        "thumbnail_url_original": ""
                    },
                    "sub_115": {
                        "id": 115,
                        "mode": "video",
                        "name_original": "TVCa Televisi\u00f3n Cat\u00f3lica Arquidiocesana",
                        "name": "Channel 115",
                        "sub_name": "",
                        "stream_video_url": "https://tv.infosal.com:5443/LiveApp/streams/908264309507938591071465.m3u8",
                        "thumbnail_url": "https://raw.githubusercontent.com/tvgram-inc/tvgram-inc.github.io/master/images/logo.png",
                        "thumbnail_url_original": "https://i.imgur.com/kfm1pFd.png"
                    },
                    "sub_116": {
                        "id": 116,
                        "mode": "video",
                        "name_original": "TVG Am\u00e9rica",
                        "name": "Channel 116",
                        "sub_name": "",
                        "stream_video_url": "https://america-crtvg.flumotion.com/playlist.m3u8",
                        "thumbnail_url": "https://raw.githubusercontent.com/tvgram-inc/tvgram-inc.github.io/master/images/logo.png",
                        "thumbnail_url_original": "https://i.imgur.com/1Z6svKc.jpg"
                    },
                    "sub_117": {
                        "id": 117,
                        "mode": "website",
                        "name_original": "",
                        "name": "sevimli Random Video calls",
                        "sub_name": "Turkish Random Video calling app (Ad)",
                        "website_url": "https://play.google.com/store/apps/details?id=com.minichat.sevimli.videochat",
                        "is_system_browser": true,
                        "thumbnail_url": "https://play-lh.googleusercontent.com/06BjKBVO7BiYq13YeMIjF0_DGkh_z4lXY3DLCwgV3yYWSm8pCdEn73a6b7P1IlYa-rpx=w240-h480-rw",
                        "thumbnail_url_original": ""
                    },
                    "sub_118": {
                        "id": 118,
                        "mode": "video",
                        "name_original": "TVM Internacional",
                        "name": "Channel 118",
                        "sub_name": "",
                        "stream_video_url": "http://online.tvm.co.mz:1935/live/smil:Channel2.smil/playlist.m3u8",
                        "thumbnail_url": "https://raw.githubusercontent.com/tvgram-inc/tvgram-inc.github.io/master/images/logo.png",
                        "thumbnail_url_original": "https://i.imgur.com/Ns3WrOQ.png"
                    },
                    "sub_119": {
                        "id": 119,
                        "mode": "video",
                        "name_original": "TVO Canal 23",
                        "name": "Channel 119",
                        "sub_name": "",
                        "stream_video_url": "https://5fc584f3f19c9.streamlock.net/tvo/smil:tvo.smil/playlist.m3u8",
                        "thumbnail_url": "https://raw.githubusercontent.com/tvgram-inc/tvgram-inc.github.io/master/images/logo.png",
                        "thumbnail_url_original": "https://cdn.mitvstatic.com/channels/sv_23-tv-oriente_m.png"
                    },
                    "sub_120": {
                        "id": 120,
                        "mode": "website",
                        "name_original": "",
                        "name": "Brazil IPTV LIST",
                        "sub_name": "Brazil Free Channel Playlist (Ad)",
                        "website_url": "https://play.google.com/store/apps/details?id=com.bitlinks.brazil.iptv.m3ulist",
                        "is_system_browser": true,
                        "thumbnail_url": "https://play-lh.googleusercontent.com/ZsRfEtfkMaVulpSwvqtZHKYRY73UcW8QeN7Bs9kkC6MfgeS6UUo1Brz7YwtKiRbwWeQ=w240-h480-rw",
                        "thumbnail_url_original": ""
                    },
                    "sub_121": {
                        "id": 121,
                        "mode": "video",
                        "name_original": "UCL",
                        "name": "Channel 121",
                        "sub_name": "",
                        "stream_video_url": "http://162.246.18.122:8081/telepuerto-master/ucl-abr/playlist.m3u8",
                        "thumbnail_url": "https://raw.githubusercontent.com/tvgram-inc/tvgram-inc.github.io/master/images/logo.png",
                        "thumbnail_url_original": "https://i.imgur.com/e3HF2Eu.png"
                    },
                    "sub_122": {
                        "id": 122,
                        "mode": "video",
                        "name_original": "UN Web TV",
                        "name": "Channel 122",
                        "sub_name": "",
                        "stream_video_url": "https://cdnapi.kaltura.com/p/2503451/sp/250345100/playManifest/entryId/1_gb6tjmle/protocol/https/format/applehttp/a.m3u8",
                        "thumbnail_url": "https://raw.githubusercontent.com/tvgram-inc/tvgram-inc.github.io/master/images/logo.png",
                        "thumbnail_url_original": "https://i.imgur.com/lPyJhBN.png"
                    },
                    "sub_123": {
                        "id": 123,
                        "mode": "website",
                        "name_original": "",
                        "name": "Love Tester",
                        "sub_name": "Test your Love (Ad)",
                        "website_url": "https://play.google.com/store/apps/details?id=com.real.love.tester",
                        "is_system_browser": true,
                        "thumbnail_url": "https://play-lh.googleusercontent.com/BT81t7C4KUg0ushx9ueKsQ1RkLpOgzYcqcraMSvoRW5yPSmmyj6N9tngZIcNfIAcm08=w240-h480-rw",
                        "thumbnail_url_original": ""
                    },
                    "sub_124": {
                        "id": 124,
                        "mode": "video",
                        "name_original": "Vallenato Internacional",
                        "name": "Channel 124",
                        "sub_name": "",
                        "stream_video_url": "https://59a564764e2b6.streamlock.net/vallenato/Vallenato2/playlist.m3u8",
                        "thumbnail_url": "https://raw.githubusercontent.com/tvgram-inc/tvgram-inc.github.io/master/images/logo.png",
                        "thumbnail_url_original": "https://i.imgur.com/svgW3Fr.png"
                    },
                    "sub_125": {
                        "id": 125,
                        "mode": "video",
                        "name_original": "World Fashion Channel International",
                        "name": "Channel 125",
                        "sub_name": "",
                        "stream_video_url": "https://wfcint.mediacdn.ru/cdn/wfcintweb/playlist.m3u8",
                        "thumbnail_url": "https://raw.githubusercontent.com/tvgram-inc/tvgram-inc.github.io/master/images/logo.png",
                        "thumbnail_url_original": "https://i.imgur.com/D46u7eW.png"
                    },
                    "sub_126": {
                        "id": 126,
                        "mode": "website",
                        "name_original": "",
                        "name": "German IPTV LIST",
                        "sub_name": "German Free Channel Playlist (Ad)",
                        "website_url": "https://play.google.com/store/apps/details?id=com.bitlinks.german.iptv.m3ulist",
                        "is_system_browser": true,
                        "thumbnail_url": "https://play-lh.googleusercontent.com/YzGo_5cnoKqi2joZMCaSSn-qwkzcfUGWzjwEIXAlHf5I6IRBAbdzZN8wZltfFi5Xaw=w240-h480-rw",
                        "thumbnail_url_original": ""
                    },
                    "sub_127": {
                        "id": 127,
                        "mode": "video",
                        "name_original": "World Poker Tour",
                        "name": "Channel 127",
                        "sub_name": "",
                        "stream_video_url": "https://d3w4n3hhseniak.cloudfront.net/v1/master/9d062541f2ff39b5c0f48b743c6411d25f62fc25/WPT-DistroTV/150.m3u8",
                        "thumbnail_url": "https://raw.githubusercontent.com/tvgram-inc/tvgram-inc.github.io/master/images/logo.png",
                        "thumbnail_url_original": "https://images.pluto.tv/channels/5f8ecfb9db6c180007a6d1b0/colorLogoPNG.png"
                    },
                    "sub_128": {
                        "id": 128,
                        "mode": "video",
                        "name_original": "WOW TV",
                        "name": "Channel 128",
                        "sub_name": "",
                        "stream_video_url": "https://cdn.elsalvadordigital.com:1936/wowtv/smil:wowtv.smil/playlist.m3u8",
                        "thumbnail_url": "https://raw.githubusercontent.com/tvgram-inc/tvgram-inc.github.io/master/images/logo.png",
                        "thumbnail_url_original": "https://wowelsalvador.com/imagen/logo2.png"
                    }
                }
            }
        }
    }
}