{
    "TV_Data": {
        "Channel_List": {
            "is_channel_list": true,
            "is_override": true,
            "thumb_width": 150,
            "all_Channels_Tab_Name": "",
            "main": {
                "id": 1,
                "name": "Portugal Channels",
                "sub_name": "Channels",
                "thumbnail_url": "https://flagpedia.net//data/flags/h80/pt.png",
                "sub": {
                    "sub_1": {
                        "id": 1,
                        "mode": "video",
                        "name_original": "Al Jazeera Documentary",
                        "name": "Channel 1",
                        "sub_name": "",
                        "stream_video_url": "https://live-hls-web-ajd.getaj.net/AJD/index.m3u8",
                        "thumbnail_url": "https://raw.githubusercontent.com/tvgram-inc/tvgram-inc.github.io/master/images/logo.png",
                        "thumbnail_url_original": "https://upload.wikimedia.org/wikipedia/en/e/e6/Al_Jazeera_Doc.png"
                    },
                    "sub_2": {
                        "id": 2,
                        "mode": "video",
                        "name_original": "Azerbaijan News TV",
                        "name": "Channel 2",
                        "sub_name": "",
                        "stream_video_url": "https://edge1.socialsmart.tv/aznews/smil/playlist.m3u8",
                        "thumbnail_url": "https://raw.githubusercontent.com/tvgram-inc/tvgram-inc.github.io/master/images/logo.png",
                        "thumbnail_url_original": "https://www.aznews.tv/wp-content/uploads/2019/04/headerlogo.fw_.png"
                    },
                    "sub_3": {
                        "id": 3,
                        "mode": "website",
                        "name_original": "",
                        "name": "Adult Free IPTV",
                        "sub_name": "Free Hot X IPTV Playlist (Ad)",
                        "website_url": "https://play.google.com/store/apps/details?id=com.adult.iptv.hot.playlist",
                        "is_system_browser": true,
                        "thumbnail_url": "https://play-lh.googleusercontent.com/DFrL4OmwEWMQnRjs9tBcekNn6DYrlehENI0aAD5XphVvenROVKOon7sfLf84YhmyM08=w240-h480-rw",
                        "thumbnail_url_original": ""
                    },
                    "sub_4": {
                        "id": 4,
                        "mode": "video",
                        "name_original": "BabyTV",
                        "name": "Channel 4",
                        "sub_name": "",
                        "stream_video_url": "http://194.163.179.246/slovenci/djeciji/babytv.m3u8",
                        "thumbnail_url": "https://raw.githubusercontent.com/tvgram-inc/tvgram-inc.github.io/master/images/logo.png",
                        "thumbnail_url_original": "https://upload.wikimedia.org/wikipedia/en/4/45/BabyTV.png"
                    },
                    "sub_5": {
                        "id": 5,
                        "mode": "video",
                        "name_original": "Bahrain International",
                        "name": "Channel 5",
                        "sub_name": "",
                        "stream_video_url": "https://5c7b683162943.streamlock.net/live/ngrp:bahraininternational_all/playlist.m3u8",
                        "thumbnail_url": "https://raw.githubusercontent.com/tvgram-inc/tvgram-inc.github.io/master/images/logo.png",
                        "thumbnail_url_original": "https://www.lyngsat.com/logo/tv/bb/bahrain_tv_international.png"
                    },
                    "sub_6": {
                        "id": 6,
                        "mode": "website",
                        "name_original": "",
                        "name": "USA Live TV",
                        "sub_name": "Free Live TV Channels (Ad)",
                        "website_url": "https://play.google.com/store/apps/details?id=com.tvgram.usalivetv",
                        "is_system_browser": true,
                        "thumbnail_url": "https://play-lh.googleusercontent.com/6VtBPY8-Yq-DmTW_rEfKbxVC_6EY-bZx7QXTetHmqMM2tNvL7TXITbfjkGPMXIGaNbI=w240-h480-rw",
                        "thumbnail_url_original": ""
                    },
                    "sub_7": {
                        "id": 7,
                        "mode": "video",
                        "name_original": "BBC News HD",
                        "name": "Channel 7",
                        "sub_name": "",
                        "stream_video_url": "https://cdnuk001.broadcastcdn.net/KUK-BBCNEWSHD/index.m3u8",
                        "thumbnail_url": "https://raw.githubusercontent.com/tvgram-inc/tvgram-inc.github.io/master/images/logo.png",
                        "thumbnail_url_original": "https://i.imgur.com/rPzH88J.png"
                    },
                    "sub_8": {
                        "id": 8,
                        "mode": "video",
                        "name_original": "BeritaSatu World",
                        "name": "Channel 8",
                        "sub_name": "",
                        "stream_video_url": "https://b1world.beritasatumedia.com/Beritasatu/B1World_manifest.m3u8",
                        "thumbnail_url": "https://raw.githubusercontent.com/tvgram-inc/tvgram-inc.github.io/master/images/logo.png",
                        "thumbnail_url_original": "https://upload.wikimedia.org/wikipedia/commons/thumb/f/f1/BeritaSatuWorld.png/512px-BeritaSatuWorld.png"
                    },
                    "sub_9": {
                        "id": 9,
                        "mode": "website",
                        "name_original": "",
                        "name": "World m3u List",
                        "sub_name": "World Free Live TV Channels (Ad)",
                        "website_url": "https://play.google.com/store/apps/details?id=com.iptv.m3u.playlists",
                        "is_system_browser": true,
                        "thumbnail_url": "https://play-lh.googleusercontent.com/8mPNKodK65zCjQHS8aqF4o0cX9YlKZYN-3qYCd9oMlcTkGaAf_3AxB0vnE9Kud6bPw=w240-h480-rw",
                        "thumbnail_url_original": ""
                    },
                    "sub_10": {
                        "id": 10,
                        "mode": "video",
                        "name_original": "Bloomberg TV EMEA Live Event",
                        "name": "Channel 10",
                        "sub_name": "",
                        "stream_video_url": "https://bloomberg.com/media-manifest/streams/eu-event.m3u8",
                        "thumbnail_url": "https://raw.githubusercontent.com/tvgram-inc/tvgram-inc.github.io/master/images/logo.png",
                        "thumbnail_url_original": "https://upload.wikimedia.org/wikipedia/commons/3/3b/Bloomberg_Television_2016.png"
                    },
                    "sub_11": {
                        "id": 11,
                        "mode": "video",
                        "name_original": "Bloomberg TV Europe",
                        "name": "Channel 11",
                        "sub_name": "",
                        "stream_video_url": "https://bloomberg.com/media-manifest/streams/eu.m3u8",
                        "thumbnail_url": "https://raw.githubusercontent.com/tvgram-inc/tvgram-inc.github.io/master/images/logo.png",
                        "thumbnail_url_original": "https://upload.wikimedia.org/wikipedia/commons/3/3b/Bloomberg_Television_2016.png"
                    },
                    "sub_12": {
                        "id": 12,
                        "mode": "website",
                        "name_original": "",
                        "name": "YoYo Video calls",
                        "sub_name": "Free Live TV Channels (Ad)",
                        "website_url": "https://play.google.com/store/apps/details?id=com.yoyolive.llc",
                        "is_system_browser": true,
                        "thumbnail_url": "https://play-lh.googleusercontent.com/33_mPNzvE6WRV6czGRm8EhSrSh0G9wnRQRfMXfcqQLU8j3z4UYu7nrgw5SmaP9UFf0U=s48-rw",
                        "thumbnail_url_original": ""
                    },
                    "sub_13": {
                        "id": 13,
                        "mode": "video",
                        "name_original": "Canal 11",
                        "name": "Channel 13",
                        "sub_name": "",
                        "stream_video_url": "https://d2ve4fchffi4n1.cloudfront.net/out/v1/df356edd16f3434ab417f2c48cb1d516/index.m3u8",
                        "thumbnail_url": "https://raw.githubusercontent.com/tvgram-inc/tvgram-inc.github.io/master/images/logo.png",
                        "thumbnail_url_original": "https://upload.wikimedia.org/wikipedia/commons/thumb/0/0b/Logo_Canal_11_FPF.svg/512px-Logo_Canal_11_FPF.svg.png"
                    },
                    "sub_14": {
                        "id": 14,
                        "mode": "video",
                        "name_original": "CGTN",
                        "name": "Channel 14",
                        "sub_name": "",
                        "stream_video_url": "https://news.cgtn.com/resource/live/english/cgtn-news.m3u8",
                        "thumbnail_url": "https://raw.githubusercontent.com/tvgram-inc/tvgram-inc.github.io/master/images/logo.png",
                        "thumbnail_url_original": "https://upload.wikimedia.org/wikipedia/commons/thumb/8/81/CGTN.svg/512px-CGTN.svg.png"
                    },
                    "sub_15": {
                        "id": 15,
                        "mode": "website",
                        "name_original": "",
                        "name": "Pocket IPTV",
                        "sub_name": "Free Live TV Channels (Ad)",
                        "website_url": "https://play.google.com/store/apps/details?id=com.pocketiptv",
                        "is_system_browser": true,
                        "thumbnail_url": "https://play-lh.googleusercontent.com/DviEA28-3k_q7mb1mbF8ZMRdYNRmqEGYMzQ3SJnSdEo5hRkFmxgpr2uKb1z8wnsCpcU=w240-h480-rw",
                        "thumbnail_url_original": ""
                    },
                    "sub_16": {
                        "id": 16,
                        "mode": "video",
                        "name_original": "CGTN Documentary",
                        "name": "Channel 16",
                        "sub_name": "",
                        "stream_video_url": "http://39.135.138.59:18890/PLTV/88888910/224/3221225645/index.m3u8",
                        "thumbnail_url": "https://raw.githubusercontent.com/tvgram-inc/tvgram-inc.github.io/master/images/logo.png",
                        "thumbnail_url_original": "https://upload.wikimedia.org/wikipedia/commons/d/d6/CGTN_Documentary_logo.png"
                    },
                    "sub_17": {
                        "id": 17,
                        "mode": "video",
                        "name_original": "Classic Arts Showcase",
                        "name": "Channel 17",
                        "sub_name": "",
                        "stream_video_url": "https://classicarts.akamaized.net/hls/live/1024257/CAS/master.m3u8",
                        "thumbnail_url": "https://raw.githubusercontent.com/tvgram-inc/tvgram-inc.github.io/master/images/logo.png",
                        "thumbnail_url_original": "https://i.imgur.com/M6FFkc3.png"
                    },
                    "sub_18": {
                        "id": 18,
                        "mode": "website",
                        "name_original": "",
                        "name": "France Live Tv",
                        "sub_name": "Free Live TV Channels (Ad)",
                        "website_url": "https://play.google.com/store/apps/details?id=com.tvgram.francelivetv",
                        "is_system_browser": true,
                        "thumbnail_url": "https://play-lh.googleusercontent.com/WoPxNu1ZO7bHJvi32q-CNLVZyVXqqMBtTBqY8Dh71icnw6xJAG8ZYfwzli26KyjN5W9_=w240-h480-rw",
                        "thumbnail_url_original": ""
                    },
                    "sub_19": {
                        "id": 19,
                        "mode": "video",
                        "name_original": "CNA International",
                        "name": "Channel 19",
                        "sub_name": "",
                        "stream_video_url": "https://d2e1asnsl7br7b.cloudfront.net/7782e205e72f43aeb4a48ec97f66ebbe/index.m3u8",
                        "thumbnail_url": "https://raw.githubusercontent.com/tvgram-inc/tvgram-inc.github.io/master/images/logo.png",
                        "thumbnail_url_original": "https://upload.wikimedia.org/wikipedia/commons/thumb/8/83/CNA_new_logo.svg/512px-CNA_new_logo.svg.png"
                    },
                    "sub_20": {
                        "id": 20,
                        "mode": "video",
                        "name_original": "CNN International Germany",
                        "name": "Channel 20",
                        "sub_name": "",
                        "stream_video_url": "https://cnn-cnninternational-1-de.samsung.wurl.com/manifest/playlist.m3u8",
                        "thumbnail_url": "https://raw.githubusercontent.com/tvgram-inc/tvgram-inc.github.io/master/images/logo.png",
                        "thumbnail_url_original": "https://upload.wikimedia.org/wikipedia/commons/thumb/6/66/CNN_International_logo.svg/512px-CNN_International_logo.svg.png"
                    },
                    "sub_21": {
                        "id": 21,
                        "mode": "website",
                        "name_original": "",
                        "name": "India Live TV",
                        "sub_name": "Free Live TV Channels (Ad)",
                        "website_url": "https://play.google.com/store/apps/details?id=com.tvgram.brazillivetv",
                        "is_system_browser": true,
                        "thumbnail_url": "https://play-lh.googleusercontent.com/bDQlYcVEfFfB5uDSRYWYeLiXpb68C5xJ_bko-Fhdvmu7Ooet80_J6yCfntLE8uVMMQ=w240-h480-rw",
                        "thumbnail_url_original": ""
                    },
                    "sub_22": {
                        "id": 22,
                        "mode": "video",
                        "name_original": "DW English",
                        "name": "Channel 22",
                        "sub_name": "",
                        "stream_video_url": "https://dwamdstream102.akamaized.net/hls/live/2015525/dwstream102/index.m3u8",
                        "thumbnail_url": "https://raw.githubusercontent.com/tvgram-inc/tvgram-inc.github.io/master/images/logo.png",
                        "thumbnail_url_original": "https://i.imgur.com/A1xzjOI.png"
                    },
                    "sub_23": {
                        "id": 23,
                        "mode": "video",
                        "name_original": "EbS Live",
                        "name": "Channel 23",
                        "sub_name": "",
                        "stream_video_url": "https://euc-live.fl.freecaster.net/live/eucom/ebs.m3u8",
                        "thumbnail_url": "https://raw.githubusercontent.com/tvgram-inc/tvgram-inc.github.io/master/images/logo.png",
                        "thumbnail_url_original": "https://raw.githubusercontent.com/jnk22/kodinerds-iptv/master/logos/tv/ebs.png"
                    },
                    "sub_24": {
                        "id": 24,
                        "mode": "website",
                        "name_original": "",
                        "name": "Canada IPTV LIST",
                        "sub_name": "Canada Free Channel Playlist (Ad)",
                        "website_url": "https://play.google.com/store/apps/details?id=com.bitlinks.canada.iptv.m3ulist",
                        "is_system_browser": true,
                        "thumbnail_url": "https://play-lh.googleusercontent.com/kwcO0pT77BLdDvudr9SJnWi5TCAcPnbKrCnCH3dp6mHpGtlChWZVOxfvFEp1zA_DW90=w240-h480-rw",
                        "thumbnail_url_original": ""
                    },
                    "sub_25": {
                        "id": 25,
                        "mode": "video",
                        "name_original": "EbS+ Live",
                        "name": "Channel 25",
                        "sub_name": "",
                        "stream_video_url": "https://euc-live.fl.freecaster.net/live/eucom/ebsp.m3u8",
                        "thumbnail_url": "https://raw.githubusercontent.com/tvgram-inc/tvgram-inc.github.io/master/images/logo.png",
                        "thumbnail_url_original": "https://raw.githubusercontent.com/jnk22/kodinerds-iptv/master/logos/tv/ebs.png"
                    },
                    "sub_26": {
                        "id": 26,
                        "mode": "video",
                        "name_original": "ERT World",
                        "name": "Channel 26",
                        "sub_name": "",
                        "stream_video_url": "http://wpso.com:1936/hls/wzra.m3u8",
                        "thumbnail_url": "https://raw.githubusercontent.com/tvgram-inc/tvgram-inc.github.io/master/images/logo.png",
                        "thumbnail_url_original": "https://upload.wikimedia.org/wikipedia/commons/thumb/b/bc/ChannelLogo-ERTWORLD1.png/512px-ChannelLogo-ERTWORLD1.png"
                    },
                    "sub_27": {
                        "id": 27,
                        "mode": "website",
                        "name_original": "",
                        "name": "India IPTV LIST",
                        "sub_name": "Indian Free Channel Playlist (Ad)",
                        "website_url": "https://play.google.com/store/apps/details?id=com.bitlinks.india.iptv.m3ulist",
                        "is_system_browser": true,
                        "thumbnail_url": "https://play-lh.googleusercontent.com/l3rJ2qzJtRFzqUzr55ano_WEhcDx5YznwIpd7uRVxooEbOW5444QY8HeeZbiZhd4Ayc=w240-h480-rw",
                        "thumbnail_url_original": ""
                    },
                    "sub_28": {
                        "id": 28,
                        "mode": "video",
                        "name_original": "ETB Basque",
                        "name": "Channel 28",
                        "sub_name": "",
                        "stream_video_url": "https://multimedia.eitb.eus/live-content/eitbbasque-hls/master.m3u8",
                        "thumbnail_url": "https://raw.githubusercontent.com/tvgram-inc/tvgram-inc.github.io/master/images/logo.png",
                        "thumbnail_url_original": "https://upload.wikimedia.org/wikipedia/commons/thumb/c/ca/ETB_Basque_2022_logo.svg/512px-ETB_Basque_2022_logo.svg.png"
                    },
                    "sub_29": {
                        "id": 29,
                        "mode": "video",
                        "name_original": "Euro Indie Music Chart TV",
                        "name": "Channel 29",
                        "sub_name": "",
                        "stream_video_url": "http://178.33.224.197:1935/euroindiemusic/euroindiemusic/playlist.m3u8",
                        "thumbnail_url": "https://raw.githubusercontent.com/tvgram-inc/tvgram-inc.github.io/master/images/logo.png",
                        "thumbnail_url_original": "https://i.imgur.com/UDFBYpN.png"
                    },
                    "sub_30": {
                        "id": 30,
                        "mode": "website",
                        "name_original": "",
                        "name": "Cash Counter",
                        "sub_name": "Easy Money Count (Ad)",
                        "website_url": "https://play.google.com/store/apps/details?id=com.money_count_save",
                        "is_system_browser": true,
                        "thumbnail_url": "https://play-lh.googleusercontent.com/kB7MXSAbO8vKrfbnM8QrzIcNbNm2tWH8rImp5xsIZY1lwKqK3FkNkEFRQpyskJliEbQ=w240-h480-rw",
                        "thumbnail_url_original": ""
                    },
                    "sub_31": {
                        "id": 31,
                        "mode": "video",
                        "name_original": "Euronews German",
                        "name": "Channel 31",
                        "sub_name": "",
                        "stream_video_url": "https://euronews.alteox.app/hls/de_stream.m3u8",
                        "thumbnail_url": "https://raw.githubusercontent.com/tvgram-inc/tvgram-inc.github.io/master/images/logo.png",
                        "thumbnail_url_original": "https://i.imgur.com/8t9mdg9.png"
                    },
                    "sub_32": {
                        "id": 32,
                        "mode": "video",
                        "name_original": "Euronews Italian",
                        "name": "Channel 32",
                        "sub_name": "",
                        "stream_video_url": "https://euronews.alteox.app/hls/it_stream.m3u8",
                        "thumbnail_url": "https://raw.githubusercontent.com/tvgram-inc/tvgram-inc.github.io/master/images/logo.png",
                        "thumbnail_url_original": "https://i.imgur.com/8t9mdg9.png"
                    },
                    "sub_33": {
                        "id": 33,
                        "mode": "website",
                        "name_original": "",
                        "name": "mirende Random Video calls",
                        "sub_name": "Chinese Random Video calling app (Ad)",
                        "website_url": "https://play.google.com/store/apps/details?id=com.minichat.mirende.shipin",
                        "is_system_browser": true,
                        "thumbnail_url": "https://play-lh.googleusercontent.com/pE3eAvKn9TiXM_3-2YTKAmDStyipNhXAwNMrx1D9S6rAXT6PT5y8JxRZnKOaJhHy9Uc=w240-h480-rw",
                        "thumbnail_url_original": ""
                    },
                    "sub_34": {
                        "id": 34,
                        "mode": "video",
                        "name_original": "Euronews Portugu\u00eas",
                        "name": "Channel 34",
                        "sub_name": "",
                        "stream_video_url": "https://rakuten-euronews-8-pt.samsung.wurl.com/manifest/playlist.m3u8",
                        "thumbnail_url": "https://raw.githubusercontent.com/tvgram-inc/tvgram-inc.github.io/master/images/logo.png",
                        "thumbnail_url_original": null
                    },
                    "sub_35": {
                        "id": 35,
                        "mode": "video",
                        "name_original": "Euronews Portuguese",
                        "name": "Channel 35",
                        "sub_name": "",
                        "stream_video_url": "https://euronews.alteox.app/hls/pt_stream.m3u8",
                        "thumbnail_url": "https://raw.githubusercontent.com/tvgram-inc/tvgram-inc.github.io/master/images/logo.png",
                        "thumbnail_url_original": "https://i.imgur.com/8t9mdg9.png"
                    },
                    "sub_36": {
                        "id": 36,
                        "mode": "website",
                        "name_original": "",
                        "name": "Free Adult Vids",
                        "sub_name": "Adult  FREE IPTV Playlist (Ad)",
                        "website_url": "https://play.google.com/store/apps/details?id=com.x.iptv.hot.playlist",
                        "is_system_browser": true,
                        "thumbnail_url": "https://play-lh.googleusercontent.com/C13Fw3kBZ6jU-AX6PFlyGMdDZFT9VnmPVUJZrJqqm71Rg9ky5sg5bsifgZvuEefFUw=w240-h480-rw",
                        "thumbnail_url_original": ""
                    },
                    "sub_37": {
                        "id": 37,
                        "mode": "video",
                        "name_original": "Fashion TV",
                        "name": "Channel 37",
                        "sub_name": "",
                        "stream_video_url": "https://fashiontv-fashiontv-1-eu.rakuten.wurl.tv/playlist.m3u8",
                        "thumbnail_url": "https://raw.githubusercontent.com/tvgram-inc/tvgram-inc.github.io/master/images/logo.png",
                        "thumbnail_url_original": "https://upload.wikimedia.org/wikipedia/commons/thumb/7/7a/Fashion_TV_logo.svg/512px-Fashion_TV_logo.svg.png"
                    },
                    "sub_38": {
                        "id": 38,
                        "mode": "video",
                        "name_original": "Galicia TV Europa",
                        "name": "Channel 38",
                        "sub_name": "",
                        "stream_video_url": "http://europa-crtvg.flumotion.com/playlist.m3u8",
                        "thumbnail_url": "https://raw.githubusercontent.com/tvgram-inc/tvgram-inc.github.io/master/images/logo.png",
                        "thumbnail_url_original": "https://www.meo.pt/PublishingImages/canais/tv-galicia.png"
                    },
                    "sub_39": {
                        "id": 39,
                        "mode": "website",
                        "name_original": "",
                        "name": "Turkish IPTV LIST",
                        "sub_name": "Turkish Free Channel Playlist (Ad)",
                        "website_url": "https://play.google.com/store/apps/details?id=com.bitlinks.turkish.iptv.m3ulist",
                        "is_system_browser": true,
                        "thumbnail_url": "https://play-lh.googleusercontent.com/VKeeYL7nYUv-5qnVweTU2onTurMhO6XZj-w2wjfkVd4trGgD6IWpM__Ta2YlSyxgsPQ=w240-h480-rw",
                        "thumbnail_url_original": ""
                    },
                    "sub_40": {
                        "id": 40,
                        "mode": "video",
                        "name_original": "Insight TV",
                        "name": "Channel 40",
                        "sub_name": "",
                        "stream_video_url": "https://insighttv-vizio.amagi.tv/playlist.m3u8",
                        "thumbnail_url": "https://raw.githubusercontent.com/tvgram-inc/tvgram-inc.github.io/master/images/logo.png",
                        "thumbnail_url_original": "https://i.imgur.com/7xmaoL0.png"
                    },
                    "sub_41": {
                        "id": 41,
                        "mode": "video",
                        "name_original": "KBS World",
                        "name": "Channel 41",
                        "sub_name": "",
                        "stream_video_url": "https://kbsworld-ott.akamaized.net/hls/live/2002341/kbsworld/master.m3u8",
                        "thumbnail_url": "https://raw.githubusercontent.com/tvgram-inc/tvgram-inc.github.io/master/images/logo.png",
                        "thumbnail_url_original": "https://upload.wikimedia.org/wikipedia/commons/thumb/1/1b/KBS_World_%282009%29.svg/512px-KBS_World_%282009%29.svg.png"
                    },
                    "sub_42": {
                        "id": 42,
                        "mode": "website",
                        "name_original": "",
                        "name": "lyubimiy Random Video calls",
                        "sub_name": "Ukraine Random Video calling app (Ad)",
                        "website_url": "https://play.google.com/store/apps/details?id=com.minichat.lyubimiy.videochat",
                        "is_system_browser": true,
                        "thumbnail_url": "https://play-lh.googleusercontent.com/R93sG4-ovSRJaDNIVx6PaMkfZGATne9MN0S8Ihp7uSgKxaC2qmdXYpYP3GAslVtP5_5f=w240-h480-rw",
                        "thumbnail_url_original": ""
                    },
                    "sub_43": {
                        "id": 43,
                        "mode": "video",
                        "name_original": "KTO",
                        "name": "Channel 43",
                        "sub_name": "",
                        "stream_video_url": "https://live-kto.akamaized.net/hls/live/2033284/KTO/master.m3u8",
                        "thumbnail_url": "https://raw.githubusercontent.com/tvgram-inc/tvgram-inc.github.io/master/images/logo.png",
                        "thumbnail_url_original": "https://i.imgur.com/LvbXFUy.jpg"
                    },
                    "sub_44": {
                        "id": 44,
                        "mode": "video",
                        "name_original": "Kuriakos Cine",
                        "name": "Channel 44",
                        "sub_name": "",
                        "stream_video_url": "https://w2.manasat.com/kcine/smil:kcine.smil/playlist.m3u8",
                        "thumbnail_url": "https://raw.githubusercontent.com/tvgram-inc/tvgram-inc.github.io/master/images/logo.png",
                        "thumbnail_url_original": "https://i.imgur.com/CZViCwB.jpg"
                    },
                    "sub_45": {
                        "id": 45,
                        "mode": "website",
                        "name_original": "",
                        "name": "Arabic IPTV LIST",
                        "sub_name": "Arabian Free Channel Playlists (Ad)",
                        "website_url": "https://play.google.com/store/apps/details?id=com.bitlinks.arebic.iptv.m3ulist",
                        "is_system_browser": true,
                        "thumbnail_url": "https://play-lh.googleusercontent.com/sGSMoSuytTPbNuMjKFU0omN7y814nhnqYxEHDtwSPNkrAiqCLuH_asc06xb52U5tAoo=w240-h480-rw",
                        "thumbnail_url_original": ""
                    },
                    "sub_46": {
                        "id": 46,
                        "mode": "video",
                        "name_original": "Kuriakos Kids",
                        "name": "Channel 46",
                        "sub_name": "",
                        "stream_video_url": "https://w2.manasat.com/kkids/smil:kkids.smil/playlist.m3u8",
                        "thumbnail_url": "https://raw.githubusercontent.com/tvgram-inc/tvgram-inc.github.io/master/images/logo.png",
                        "thumbnail_url_original": "https://i.imgur.com/aNVzKYJ.png"
                    },
                    "sub_47": {
                        "id": 47,
                        "mode": "video",
                        "name_original": "Kuriakos Music",
                        "name": "Channel 47",
                        "sub_name": "",
                        "stream_video_url": "http://195.23.211.179:1935/kmusic/smil:kmusic.smil/playlist.m3u8",
                        "thumbnail_url": "https://raw.githubusercontent.com/tvgram-inc/tvgram-inc.github.io/master/images/logo.png",
                        "thumbnail_url_original": "https://i.imgur.com/Zl40NYi.jpg"
                    },
                    "sub_48": {
                        "id": 48,
                        "mode": "website",
                        "name_original": "",
                        "name": "Line Video Player",
                        "sub_name": "Best Video Player (Ad)",
                        "website_url": "https://play.google.com/store/apps/details?id=com.line.hdplayer",
                        "is_system_browser": true,
                        "thumbnail_url": "https://play-lh.googleusercontent.com/IPqZNMTj7o1agUs1LkuQ0OJU4Ue_udMnOwxENKdKTaTEL_6GyH1YjS4lfq8hUGCVxGA=w240-h480-rw",
                        "thumbnail_url_original": ""
                    },
                    "sub_49": {
                        "id": 49,
                        "mode": "video",
                        "name_original": "Kuriakos TV",
                        "name": "Channel 49",
                        "sub_name": "",
                        "stream_video_url": "https://w1.manasat.com/ktv/smil:ktv.smil/playlist.m3u8",
                        "thumbnail_url": "https://raw.githubusercontent.com/tvgram-inc/tvgram-inc.github.io/master/images/logo.png",
                        "thumbnail_url_original": "https://i.imgur.com/M5i4hfh.png"
                    },
                    "sub_50": {
                        "id": 50,
                        "mode": "video",
                        "name_original": "MavTV Select",
                        "name": "Channel 50",
                        "sub_name": "",
                        "stream_video_url": "https://mavtv-mavtvglobal-1-eu.rakuten.wurl.tv/playlist.m3u8",
                        "thumbnail_url": "https://raw.githubusercontent.com/tvgram-inc/tvgram-inc.github.io/master/images/logo.png",
                        "thumbnail_url_original": "https://i.imgur.com/KMGUuAX.png"
                    },
                    "sub_51": {
                        "id": 51,
                        "mode": "website",
                        "name_original": "",
                        "name": "Love Shayari App",
                        "sub_name": "Shayari app for your love ones (Ad)",
                        "website_url": "https://play.google.com/store/apps/details?id=com.real.love.shayari",
                        "is_system_browser": true,
                        "thumbnail_url": "https://play-lh.googleusercontent.com/rs3Xfx9cvLwS1cuq5Hac-Y8c9QACQDDxEKXGBaG5W05EO1c9j8BFkj6GBRwe7u3-PYg=w240-h480-rw",
                        "thumbnail_url_original": ""
                    },
                    "sub_52": {
                        "id": 52,
                        "mode": "video",
                        "name_original": "Metro Globe Network",
                        "name": "Channel 52",
                        "sub_name": "",
                        "stream_video_url": "https://edge.medcom.id/live-edge/smil:mgnch.smil/playlist.m3u8",
                        "thumbnail_url": "https://raw.githubusercontent.com/tvgram-inc/tvgram-inc.github.io/master/images/logo.png",
                        "thumbnail_url_original": "https://i.imgur.com/NTCI3lf.png"
                    },
                    "sub_53": {
                        "id": 53,
                        "mode": "video",
                        "name_original": "MNB world",
                        "name": "Channel 53",
                        "sub_name": "",
                        "stream_video_url": "https://live.mnb.mn/live/mnb_world.stream/playlist.m3u8",
                        "thumbnail_url": "https://raw.githubusercontent.com/tvgram-inc/tvgram-inc.github.io/master/images/logo.png",
                        "thumbnail_url_original": "https://www.lyngsat.com/logo/tv/mm/mnb-world-mn.png"
                    },
                    "sub_54": {
                        "id": 54,
                        "mode": "website",
                        "name_original": "",
                        "name": "Live Cricket",
                        "sub_name": "Watch Live Cricket Score (Ad)",
                        "website_url": "https://play.google.com/store/apps/details?id=com.bitmedia.ipl2k22",
                        "is_system_browser": true,
                        "thumbnail_url": "https://play-lh.googleusercontent.com/yAiVkEdk1YbKEvZf6SLujni0dQgA9U2_B86aqt0_k-b2_ASEWjnqdeL-UyNq-GWx1Jc=w240-h480-rw",
                        "thumbnail_url_original": ""
                    },
                    "sub_55": {
                        "id": 55,
                        "mode": "video",
                        "name_original": "MTV Portugal",
                        "name": "Channel 55",
                        "sub_name": "",
                        "stream_video_url": "http://176.79.76.155:8000/play/a01x/index.m3u8",
                        "thumbnail_url": "https://raw.githubusercontent.com/tvgram-inc/tvgram-inc.github.io/master/images/logo.png",
                        "thumbnail_url_original": "https://upload.wikimedia.org/wikipedia/commons/thumb/0/0d/MTV-2021.svg/512px-MTV-2021.svg.png"
                    },
                    "sub_56": {
                        "id": 56,
                        "mode": "video",
                        "name_original": "Myanmar International TV",
                        "name": "Channel 56",
                        "sub_name": "",
                        "stream_video_url": "https://5a13fe32ef748.streamlock.net/mmplay/mitv/playlist.m3u8",
                        "thumbnail_url": "https://raw.githubusercontent.com/tvgram-inc/tvgram-inc.github.io/master/images/logo.png",
                        "thumbnail_url_original": "https://www.lyngsat.com/logo/tv/mm/myanmar-international-tv-mm.png"
                    },
                    "sub_57": {
                        "id": 57,
                        "mode": "website",
                        "name_original": "",
                        "name": "German Live Tv",
                        "sub_name": "Free Live TV Channels (Ad)",
                        "website_url": "https://play.google.com/store/apps/details?id=com.tvgram.germanlivetv",
                        "is_system_browser": true,
                        "thumbnail_url": "https://play-lh.googleusercontent.com/R56Rq08GnY1LDkWF-kK_ys4FkVokh5qXhBdnIwoO1xe4-b9VQlxlBhIEuygrLCzt5UU=w240-h480-rw",
                        "thumbnail_url_original": ""
                    },
                    "sub_58": {
                        "id": 58,
                        "mode": "video",
                        "name_original": "NASA TV",
                        "name": "Channel 58",
                        "sub_name": "",
                        "stream_video_url": "https://uplynkcontent.sinclairstoryline.com/channel/ddd76fdc1c0a456ba537e4f48e827d3e.m3u8",
                        "thumbnail_url": "https://raw.githubusercontent.com/tvgram-inc/tvgram-inc.github.io/master/images/logo.png",
                        "thumbnail_url_original": "https://upload.wikimedia.org/wikipedia/commons/thumb/b/b4/NASA_TV.svg/512px-NASA_TV.svg.png"
                    },
                    "sub_59": {
                        "id": 59,
                        "mode": "video",
                        "name_original": "NBT World",
                        "name": "Channel 59",
                        "sub_name": "",
                        "stream_video_url": "https://thainews.prd.go.th/lv/live/ch1_L_L.sdp/playlist.m3u8",
                        "thumbnail_url": "https://raw.githubusercontent.com/tvgram-inc/tvgram-inc.github.io/master/images/logo.png",
                        "thumbnail_url_original": "https://i.imgur.com/GCcmL8E.png"
                    },
                    "sub_60": {
                        "id": 60,
                        "mode": "website",
                        "name_original": "",
                        "name": "English IPTV LIST",
                        "sub_name": "English Free Channel Playlist (Ad)",
                        "website_url": "https://play.google.com/store/apps/details?id=com.bitlinks.english.iptv.m3ulist",
                        "is_system_browser": true,
                        "thumbnail_url": "https://play-lh.googleusercontent.com/xb5LxBYljW-fpj4QcmfpauEPrGIKFw1w8glR4sJYNnGF6KVfJZEw9IzRu9NzlUEVrh4=w240-h480-rw",
                        "thumbnail_url_original": ""
                    },
                    "sub_61": {
                        "id": 61,
                        "mode": "video",
                        "name_original": "NHK World Japan",
                        "name": "Channel 61",
                        "sub_name": "",
                        "stream_video_url": "https://nhkwlive-ojp.akamaized.net/hls/live/2003459/nhkwlive-ojp-en/index.m3u8",
                        "thumbnail_url": "https://raw.githubusercontent.com/tvgram-inc/tvgram-inc.github.io/master/images/logo.png",
                        "thumbnail_url_original": "https://upload.wikimedia.org/wikipedia/commons/thumb/8/8d/NHK_World-Japan_TV.svg/512px-NHK_World-Japan_TV.svg.png"
                    },
                    "sub_62": {
                        "id": 62,
                        "mode": "video",
                        "name_original": "NTV Europe",
                        "name": "Channel 62",
                        "sub_name": "",
                        "stream_video_url": "https://cdn.appv.jagobd.com:444/c3VydmVyX8RpbEU9Mi8xNy8yMDE0GIDU6RgzQ6NTAgdEoaeFzbF92YWxIZTO0U0ezN1IzMyfvcGVMZEJCTEFWeVN3PTOmdFsaWRtaW51aiPhnPTI/ntvuk00332211.stream/playlist.m3u8",
                        "thumbnail_url": "https://raw.githubusercontent.com/tvgram-inc/tvgram-inc.github.io/master/images/logo.png",
                        "thumbnail_url_original": "https://europentv.ntvbd.com/sites/all/themes/sloth/logo.png"
                    },
                    "sub_63": {
                        "id": 63,
                        "mode": "website",
                        "name_original": "",
                        "name": "belo Random Video calls",
                        "sub_name": "Portuguese Random Video calling app (Ad)",
                        "website_url": "https://play.google.com/store/apps/details?id=com.minichat.belo.chatde.video",
                        "is_system_browser": true,
                        "thumbnail_url": "https://play-lh.googleusercontent.com/AS5qW9nP6-CGtPNDA59DR6-fg3MhH924N45ScDNSmacthqzrbDb04C4ripDrxpq2Jw=w240-h480-rw",
                        "thumbnail_url_original": ""
                    },
                    "sub_64": {
                        "id": 64,
                        "mode": "video",
                        "name_original": "Porto Canal",
                        "name": "Channel 64",
                        "sub_name": "",
                        "stream_video_url": "https://streamer-a01.videos.sapo.pt/live/portocanal/playlist.m3u8",
                        "thumbnail_url": "https://raw.githubusercontent.com/tvgram-inc/tvgram-inc.github.io/master/images/logo.png",
                        "thumbnail_url_original": "https://upload.wikimedia.org/wikipedia/commons/b/ba/Logo_Porto_Canal.jpg"
                    },
                    "sub_65": {
                        "id": 65,
                        "mode": "video",
                        "name_original": "Rakuten Documentaries",
                        "name": "Channel 65",
                        "sub_name": "",
                        "stream_video_url": "https://rakuten-documentaries-14-pt.samsung.wurl.tv/playlist.m3u8",
                        "thumbnail_url": "https://raw.githubusercontent.com/tvgram-inc/tvgram-inc.github.io/master/images/logo.png",
                        "thumbnail_url_original": null
                    },
                    "sub_66": {
                        "id": 66,
                        "mode": "website",
                        "name_original": "",
                        "name": "Status Savaer",
                        "sub_name": "Status Saver for Whatsapp (Ad)",
                        "website_url": "https://play.google.com/store/apps/details?id=com.appclub.whats.status.saver",
                        "is_system_browser": true,
                        "thumbnail_url": "https://play-lh.googleusercontent.com/K76-feE-GOTDz9SoEWVKtom1ngUVTIPEsQ_damw8lCyaoh77awQifmc4A5wXdSyx84M=w240-h480-rw",
                        "thumbnail_url_original": ""
                    },
                    "sub_67": {
                        "id": 67,
                        "mode": "video",
                        "name_original": "Rakuten Family",
                        "name": "Channel 67",
                        "sub_name": "",
                        "stream_video_url": "https://rakuten-family-14-pt.samsung.wurl.tv/playlist.m3u8",
                        "thumbnail_url": "https://raw.githubusercontent.com/tvgram-inc/tvgram-inc.github.io/master/images/logo.png",
                        "thumbnail_url_original": null
                    },
                    "sub_68": {
                        "id": 68,
                        "mode": "video",
                        "name_original": "Red Bull TV",
                        "name": "Channel 68",
                        "sub_name": "",
                        "stream_video_url": "https://rbmn-live.akamaized.net/hls/live/590964/BoRB-AT/master.m3u8",
                        "thumbnail_url": "https://raw.githubusercontent.com/tvgram-inc/tvgram-inc.github.io/master/images/logo.png",
                        "thumbnail_url_original": "https://i.imgur.com/7NeBmWX.jpg"
                    },
                    "sub_69": {
                        "id": 69,
                        "mode": "website",
                        "name_original": "",
                        "name": "France IPTV LIST",
                        "sub_name": "France Free Channel Playlist (Ad)",
                        "website_url": "https://play.google.com/store/apps/details?id=com.bitlinks.france.iptv.m3ulist",
                        "is_system_browser": true,
                        "thumbnail_url": "https://play-lh.googleusercontent.com/3JLB6nhz-nLEmVec31uJO-s8dmAjQYRI7qcHM12471zQI9bHXbQR6ggmhGpdnNFIJg=w240-h480-rw",
                        "thumbnail_url_original": ""
                    },
                    "sub_70": {
                        "id": 70,
                        "mode": "video",
                        "name_original": "Reuters",
                        "name": "Channel 70",
                        "sub_name": "",
                        "stream_video_url": "https://reuters-reutersnow-1-pt.samsung.wurl.com/manifest/playlist.m3u8",
                        "thumbnail_url": "https://raw.githubusercontent.com/tvgram-inc/tvgram-inc.github.io/master/images/logo.png",
                        "thumbnail_url_original": null
                    },
                    "sub_71": {
                        "id": 71,
                        "mode": "video",
                        "name_original": "RT Documentary Russian",
                        "name": "Channel 71",
                        "sub_name": "",
                        "stream_video_url": "http://uiptv.do.am/1ufc/300663722/playlist.m3u8",
                        "thumbnail_url": "https://raw.githubusercontent.com/tvgram-inc/tvgram-inc.github.io/master/images/logo.png",
                        "thumbnail_url_original": "https://i.imgur.com/rli3c7T.png"
                    },
                    "sub_72": {
                        "id": 72,
                        "mode": "website",
                        "name_original": "",
                        "name": "bello Random Video calls",
                        "sub_name": "Italian  Random Video calling app (Ad)",
                        "website_url": "https://play.google.com/store/apps/details?id=com.minichat.bello.random.videochat",
                        "is_system_browser": true,
                        "thumbnail_url": "https://play-lh.googleusercontent.com/3bOkAvBhWTFLLuwMRriodrXyEk67Dp6NQibo4UZyPOyahMbI6iisNCqQX5OcmMl9VQ=w240-h480-rw",
                        "thumbnail_url_original": ""
                    },
                    "sub_73": {
                        "id": 73,
                        "mode": "video",
                        "name_original": "RT en Espa\u00f1ol",
                        "name": "Channel 73",
                        "sub_name": "",
                        "stream_video_url": "https://rt-esp.rttv.com/live/rtesp/playlist.m3u8",
                        "thumbnail_url": "https://raw.githubusercontent.com/tvgram-inc/tvgram-inc.github.io/master/images/logo.png",
                        "thumbnail_url_original": "https://i.imgur.com/Fbli6Ml.png"
                    },
                    "sub_74": {
                        "id": 74,
                        "mode": "video",
                        "name_original": "SIC",
                        "name": "Channel 74",
                        "sub_name": "",
                        "stream_video_url": "http://93.152.174.144:4000/play/sic/index.m3u8",
                        "thumbnail_url": "https://raw.githubusercontent.com/tvgram-inc/tvgram-inc.github.io/master/images/logo.png",
                        "thumbnail_url_original": "https://i.imgur.com/OigvUdJ.png"
                    },
                    "sub_75": {
                        "id": 75,
                        "mode": "website",
                        "name_original": "",
                        "name": "USA IPTV LIST",
                        "sub_name": "USA Free Channel Playlist (Ad)",
                        "website_url": "https://play.google.com/store/apps/details?id=com.bitlinks.usa.iptv.m3ulist",
                        "is_system_browser": true,
                        "thumbnail_url": "https://play-lh.googleusercontent.com/aLcopJQaN0OngNZvAnfUbpBB3RNhb-48sleyghMNXVSKePiGZqmhb375p_5VRz1uhxs=w240-h480-rw",
                        "thumbnail_url_original": ""
                    },
                    "sub_76": {
                        "id": 76,
                        "mode": "video",
                        "name_original": "SIC Noticias [Geo-blocked]",
                        "name": "Channel 76",
                        "sub_name": "",
                        "stream_video_url": "http://live.impresa.pt/live/sicnot/sicnot.m3u8",
                        "thumbnail_url": "https://raw.githubusercontent.com/tvgram-inc/tvgram-inc.github.io/master/images/logo.png",
                        "thumbnail_url_original": "https://upload.wikimedia.org/wikipedia/pt/a/ab/SN_300x130-escuro.png"
                    },
                    "sub_77": {
                        "id": 77,
                        "mode": "video",
                        "name_original": "Ski TV",
                        "name": "Channel 77",
                        "sub_name": "",
                        "stream_video_url": "https://d2xeo83q8fcni6.cloudfront.net/v1/master/9d062541f2ff39b5c0f48b743c6411d25f62fc25/SkiTV-SynapseTV/193.m3u8",
                        "thumbnail_url": "https://raw.githubusercontent.com/tvgram-inc/tvgram-inc.github.io/master/images/logo.png",
                        "thumbnail_url_original": "https://i.imgur.com/idKogRi.png"
                    },
                    "sub_78": {
                        "id": 78,
                        "mode": "website",
                        "name_original": "",
                        "name": "Sound Prank",
                        "sub_name": "Funny Sound Pranks (Ad)",
                        "website_url": "https://play.google.com/store/apps/details?id=com.airhorn.sounds.pranks",
                        "is_system_browser": true,
                        "thumbnail_url": "https://play-lh.googleusercontent.com/CPgsxnjr_o73B1-GW-mCeFQ47BOaY_sKFSO85JYurcs68DYz0tYQ0HqHRKIv22EDmKab=w240-h480-rw",
                        "thumbnail_url_original": ""
                    },
                    "sub_79": {
                        "id": 79,
                        "mode": "video",
                        "name_original": "Sobrenatural TV",
                        "name": "Channel 79",
                        "sub_name": "",
                        "stream_video_url": "http://213.13.26.11:1935/live/sobrenaturaltv/livestream.m3u8",
                        "thumbnail_url": "https://raw.githubusercontent.com/tvgram-inc/tvgram-inc.github.io/master/images/logo.png",
                        "thumbnail_url_original": "https://i.imgur.com/jYIf7Mz.png"
                    },
                    "sub_80": {
                        "id": 80,
                        "mode": "video",
                        "name_original": "Sofy TV",
                        "name": "Channel 80",
                        "sub_name": "",
                        "stream_video_url": "https://sofy-ger-samsung.amagi.tv/playlist.m3u8",
                        "thumbnail_url": "https://raw.githubusercontent.com/tvgram-inc/tvgram-inc.github.io/master/images/logo.png",
                        "thumbnail_url_original": "https://i.imgur.com/Srxa6cR.png"
                    },
                    "sub_81": {
                        "id": 81,
                        "mode": "website",
                        "name_original": "",
                        "name": "Maxico IPTV LIST",
                        "sub_name": "Mexican Free Channel Playlist (Ad)",
                        "website_url": "https://play.google.com/store/apps/details?id=com.bitlinks.maxico.iptv.m3ulist",
                        "is_system_browser": true,
                        "thumbnail_url": "https://play-lh.googleusercontent.com/zppwv1My0OZGZBIJSWcgvxjDpJDNWYnPZlJTZKErpbraj9X1jUqfqfwDK_n5H8wDi_E=w240-h480-rw",
                        "thumbnail_url_original": ""
                    },
                    "sub_82": {
                        "id": 82,
                        "mode": "video",
                        "name_original": "Three Angels Broadcasting Network International",
                        "name": "Channel 82",
                        "sub_name": "",
                        "stream_video_url": "https://3abn-live.akamaized.net/hls/live/2010544/International/master.m3u8",
                        "thumbnail_url": "https://raw.githubusercontent.com/tvgram-inc/tvgram-inc.github.io/master/images/logo.png",
                        "thumbnail_url_original": "https://i.imgur.com/vhb8zvB.png"
                    },
                    "sub_83": {
                        "id": 83,
                        "mode": "video",
                        "name_original": "TRT World",
                        "name": "Channel 83",
                        "sub_name": "",
                        "stream_video_url": "https://tv-trtworld.live.trt.com.tr/master.m3u8",
                        "thumbnail_url": "https://raw.githubusercontent.com/tvgram-inc/tvgram-inc.github.io/master/images/logo.png",
                        "thumbnail_url_original": "https://upload.wikimedia.org/wikipedia/commons/thumb/2/27/TRT_World.svg/512px-TRT_World.svg.png"
                    },
                    "sub_84": {
                        "id": 84,
                        "mode": "website",
                        "name_original": "",
                        "name": "prekrasnyy Random Video calls",
                        "sub_name": "Russian Random Video calling app (Ad)",
                        "website_url": "https://play.google.com/store/apps/details?id=com.minichat.prekrasnyy.videochat",
                        "is_system_browser": true,
                        "thumbnail_url": "https://play-lh.googleusercontent.com/m9zQM36OeQZ9bTgGAEf6MD9XXYnV0O8CpyToLKq0R3CoEwpYnosXJIahyWS3if8-8KE=w240-h480-rw",
                        "thumbnail_url_original": ""
                    },
                    "sub_85": {
                        "id": 85,
                        "mode": "video",
                        "name_original": "TV3CAT",
                        "name": "Channel 85",
                        "sub_name": "",
                        "stream_video_url": "https://directes-tv-int.ccma.cat/live-origin/tvi-hls/master.m3u8",
                        "thumbnail_url": "https://raw.githubusercontent.com/tvgram-inc/tvgram-inc.github.io/master/images/logo.png",
                        "thumbnail_url_original": "https://upload.wikimedia.org/wikipedia/commons/thumb/9/97/TV3CAT.svg/512px-TV3CAT.svg.png"
                    },
                    "sub_86": {
                        "id": 86,
                        "mode": "video",
                        "name_original": "TV Man\u00e1 1",
                        "name": "Channel 86",
                        "sub_name": "",
                        "stream_video_url": "https://w1.manasat.com/tvmana-1/smil:tvmana-1.smil/playlist.m3u8",
                        "thumbnail_url": "https://raw.githubusercontent.com/tvgram-inc/tvgram-inc.github.io/master/images/logo.png",
                        "thumbnail_url_original": "https://www.tvmana1.com/wp-content/uploads/2020/04/logo_tv_mana_1.png"
                    },
                    "sub_87": {
                        "id": 87,
                        "mode": "website",
                        "name_original": "",
                        "name": "Australia Random Video chats",
                        "sub_name": "Australi Random Video calls (Ad)",
                        "website_url": "https://play.google.com/store/apps/details?id=com.live.videochats.australia",
                        "is_system_browser": true,
                        "thumbnail_url": "https://play-lh.googleusercontent.com/VFvH1S1yfHI_osKbalY-jUTZAYN_DZc9rBtiqubyM1FhxqCNARZNYegJHjqAAbsboFTN=w240-h480-rw",
                        "thumbnail_url_original": ""
                    },
                    "sub_88": {
                        "id": 88,
                        "mode": "video",
                        "name_original": "TV Man\u00e1 2",
                        "name": "Channel 88",
                        "sub_name": "",
                        "stream_video_url": "https://w1.manasat.com/tvmana-2/smil:tvmana-2.smil/playlist.m3u8",
                        "thumbnail_url": "https://raw.githubusercontent.com/tvgram-inc/tvgram-inc.github.io/master/images/logo.png",
                        "thumbnail_url_original": "https://www.tvmana1.com/wp-content/uploads/2020/04/logo_tv_mana_1.png"
                    },
                    "sub_89": {
                        "id": 89,
                        "mode": "video",
                        "name_original": "TV MANA",
                        "name": "Channel 89",
                        "sub_name": "",
                        "stream_video_url": "http://c2.manasat.com:1935/tserkov-online/russo3/playlist.m3u8",
                        "thumbnail_url": "https://raw.githubusercontent.com/tvgram-inc/tvgram-inc.github.io/master/images/logo.png",
                        "thumbnail_url_original": null
                    },
                    "sub_90": {
                        "id": 90,
                        "mode": "website",
                        "name_original": "",
                        "name": "lieblich Random Video calls",
                        "sub_name": "German Random Video calling app (Ad)",
                        "website_url": "https://play.google.com/store/apps/details?id=com.minichat.lieblich.live.videochat",
                        "is_system_browser": true,
                        "thumbnail_url": "https://play-lh.googleusercontent.com/hT_MT0HxTlmkJVKTn5CuOrJrlZaEsG6WWRx2iqXkoSlP0HTINXseOLDJ9UJO1wowUMQ=w240-h480-rw",
                        "thumbnail_url_original": ""
                    },
                    "sub_91": {
                        "id": 91,
                        "mode": "video",
                        "name_original": "TV Man\u00e1 Brazil",
                        "name": "Channel 91",
                        "sub_name": "",
                        "stream_video_url": "https://w1.manasat.com/tvmana-brasil/smil:tvmana-brasil.smil/playlist.m3u8",
                        "thumbnail_url": "https://raw.githubusercontent.com/tvgram-inc/tvgram-inc.github.io/master/images/logo.png",
                        "thumbnail_url_original": "https://i.imgur.com/c4DSG2J.png"
                    },
                    "sub_92": {
                        "id": 92,
                        "mode": "video",
                        "name_original": "TV Man\u00e1 C\u00f3rdoba",
                        "name": "Channel 92",
                        "sub_name": "",
                        "stream_video_url": "http://csvl03.manasat.com:1935/tvar/tvmanaar2/playlist.m3u8",
                        "thumbnail_url": "https://raw.githubusercontent.com/tvgram-inc/tvgram-inc.github.io/master/images/logo.png",
                        "thumbnail_url_original": "https://i.imgur.com/c4DSG2J.png"
                    },
                    "sub_93": {
                        "id": 93,
                        "mode": "website",
                        "name_original": "",
                        "name": "Netherlands IPTV LIST",
                        "sub_name": "Netherlands Free Channel Playlist (Ad)",
                        "website_url": "https://play.google.com/store/apps/details?id=com.bitlinks.netherland.iptv.m3ulist",
                        "is_system_browser": true,
                        "thumbnail_url": "https://play-lh.googleusercontent.com/sk7fZk8NtKudJs2k8g3I8Uf7Jp4AnNdaWK7jrzGj23xwrZZ6sN_URzbhncVclubMHyI=w240-h480-rw",
                        "thumbnail_url_original": ""
                    },
                    "sub_94": {
                        "id": 94,
                        "mode": "video",
                        "name_original": "TV Man\u00e1 English",
                        "name": "Channel 94",
                        "sub_name": "",
                        "stream_video_url": "https://w1.manasat.com/tvmana-english/smil:tvmana-english.smil/playlist.m3u8",
                        "thumbnail_url": "https://raw.githubusercontent.com/tvgram-inc/tvgram-inc.github.io/master/images/logo.png",
                        "thumbnail_url_original": "https://i.imgur.com/c4DSG2J.png"
                    },
                    "sub_95": {
                        "id": 95,
                        "mode": "video",
                        "name_original": "TV Man\u00e1 Espa\u00f1ol",
                        "name": "Channel 95",
                        "sub_name": "",
                        "stream_video_url": "https://w1.manasat.com/tvmana-espanol/smil:tvmana-espanol.smil/playlist.m3u8",
                        "thumbnail_url": "https://raw.githubusercontent.com/tvgram-inc/tvgram-inc.github.io/master/images/logo.png",
                        "thumbnail_url_original": "https://i.imgur.com/c4DSG2J.png"
                    },
                    "sub_96": {
                        "id": 96,
                        "mode": "website",
                        "name_original": "",
                        "name": "mono Random Video calls",
                        "sub_name": "Mexican Random Video calling app (Ad)",
                        "website_url": "https://play.google.com/store/apps/details?id=com.minichat.mono.videochat.envivo",
                        "is_system_browser": true,
                        "thumbnail_url": "https://play-lh.googleusercontent.com/kMrY-EGCarpaXsI9FcM3Q8KeBnO3kBX_5pCJ2e09sfoRk3uJqGctq3D_A2wl2mW-WY8=w240-h480-rw",
                        "thumbnail_url_original": ""
                    },
                    "sub_97": {
                        "id": 97,
                        "mode": "video",
                        "name_original": "TV Man\u00e1 Fran\u00e7ais",
                        "name": "Channel 97",
                        "sub_name": "",
                        "stream_video_url": "https://w2.manasat.com/eglise-online/smil:eglise-online.smil/playlist.m3u8",
                        "thumbnail_url": "https://raw.githubusercontent.com/tvgram-inc/tvgram-inc.github.io/master/images/logo.png",
                        "thumbnail_url_original": "https://i.imgur.com/c4DSG2J.png"
                    },
                    "sub_98": {
                        "id": 98,
                        "mode": "video",
                        "name_original": "TV Man\u00e1 Mozambique",
                        "name": "Channel 98",
                        "sub_name": "",
                        "stream_video_url": "https://w2.manasat.com/tvmana-mz/smil:tvmana-mz.smil/playlist.m3u8",
                        "thumbnail_url": "https://raw.githubusercontent.com/tvgram-inc/tvgram-inc.github.io/master/images/logo.png",
                        "thumbnail_url_original": "https://i.imgur.com/5UIy5tD.png"
                    },
                    "sub_99": {
                        "id": 99,
                        "mode": "website",
                        "name_original": "",
                        "name": "Spanish Live Tv",
                        "sub_name": "Free Live TV Channels (Ad)",
                        "website_url": "https://play.google.com/store/apps/details?id=com.tvgram.spanishlivetv",
                        "is_system_browser": true,
                        "thumbnail_url": "https://play-lh.googleusercontent.com/Z5TOSShWV4wJp-3ZX8nHV2wvjaltrAmsKsn2qNo0vgXDa-67qZlrQVtIdWzgBXYMcWQ=w240-h480-rw",
                        "thumbnail_url_original": ""
                    },
                    "sub_100": {
                        "id": 100,
                        "mode": "video",
                        "name_original": "TVI",
                        "name": "Channel 100",
                        "sub_name": "",
                        "stream_video_url": "https://video-auth2.iol.pt/live_edge/tvi_abr/edge_servers/tvi-480p/chunks.m3u8",
                        "thumbnail_url": "https://raw.githubusercontent.com/tvgram-inc/tvgram-inc.github.io/master/images/logo.png",
                        "thumbnail_url_original": "https://www.meo.pt/PublishingImages/canais/tvi.png"
                    },
                    "sub_101": {
                        "id": 101,
                        "mode": "video",
                        "name_original": "TVI Reality",
                        "name": "Channel 101",
                        "sub_name": "",
                        "stream_video_url": "https://video-auth2.iol.pt/live_tvi_direct/live_tvi_direct/edge_servers/tvireality-480p/chunks.m3u8",
                        "thumbnail_url": "https://raw.githubusercontent.com/tvgram-inc/tvgram-inc.github.io/master/images/logo.png",
                        "thumbnail_url_original": "https://i.imgur.com/08xTtYD.png"
                    },
                    "sub_102": {
                        "id": 102,
                        "mode": "website",
                        "name_original": "",
                        "name": "Italy IPTV LIST",
                        "sub_name": "Italian Free Channel Playlist (Ad)",
                        "website_url": "https://play.google.com/store/apps/details?id=com.bitlinks.italy.iptv.m3ulist",
                        "is_system_browser": true,
                        "thumbnail_url": "https://play-lh.googleusercontent.com/EgW4JwZzBvlYwIe88W90AcXGhCECBmEnvbu1CW7Fo0TOprNdcSrTY1-Yc6_NmpO_exA=w240-h480-rw",
                        "thumbnail_url_original": ""
                    },
                    "sub_103": {
                        "id": 103,
                        "mode": "video",
                        "name_original": "TVM Internacional",
                        "name": "Channel 103",
                        "sub_name": "",
                        "stream_video_url": "http://online.tvm.co.mz:1935/live/smil:Channel2.smil/playlist.m3u8",
                        "thumbnail_url": "https://raw.githubusercontent.com/tvgram-inc/tvgram-inc.github.io/master/images/logo.png",
                        "thumbnail_url_original": "https://i.imgur.com/Ns3WrOQ.png"
                    },
                    "sub_104": {
                        "id": 104,
                        "mode": "video",
                        "name_original": "UN Web TV",
                        "name": "Channel 104",
                        "sub_name": "",
                        "stream_video_url": "https://cdnapi.kaltura.com/p/2503451/sp/250345100/playManifest/entryId/1_gb6tjmle/protocol/https/format/applehttp/a.m3u8",
                        "thumbnail_url": "https://raw.githubusercontent.com/tvgram-inc/tvgram-inc.github.io/master/images/logo.png",
                        "thumbnail_url_original": "https://i.imgur.com/lPyJhBN.png"
                    },
                    "sub_105": {
                        "id": 105,
                        "mode": "website",
                        "name_original": "",
                        "name": "lovely Random Video calls",
                        "sub_name": "English Random Video calling app (Ad)",
                        "website_url": "https://play.google.com/store/apps/details?id=com.minichat.lovely.random.videochat",
                        "is_system_browser": true,
                        "thumbnail_url": "https://play-lh.googleusercontent.com/nt_ofAKkDgRYPstT2-6tZxelhcUgZH5IRHh6i0pl4ixnwvT_fUsJdbC5io-W7pGtgw=w240-h480-rw",
                        "thumbnail_url_original": ""
                    },
                    "sub_106": {
                        "id": 106,
                        "mode": "video",
                        "name_original": "WeatherSpy Europe",
                        "name": "Channel 106",
                        "sub_name": "",
                        "stream_video_url": "https://jukin-weatherspy-2-eu.rakuten.wurl.tv/playlist.m3u8",
                        "thumbnail_url": "https://raw.githubusercontent.com/tvgram-inc/tvgram-inc.github.io/master/images/logo.png",
                        "thumbnail_url_original": "https://i.imgur.com/SAZF1cq.jpg"
                    },
                    "sub_107": {
                        "id": 107,
                        "mode": "video",
                        "name_original": "World Fashion Channel International",
                        "name": "Channel 107",
                        "sub_name": "",
                        "stream_video_url": "https://wfcint.mediacdn.ru/cdn/wfcintweb/playlist.m3u8",
                        "thumbnail_url": "https://raw.githubusercontent.com/tvgram-inc/tvgram-inc.github.io/master/images/logo.png",
                        "thumbnail_url_original": "https://i.imgur.com/D46u7eW.png"
                    },
                    "sub_108": {
                        "id": 108,
                        "mode": "website",
                        "name_original": "",
                        "name": "Random Video calls",
                        "sub_name": "Free Random Video calling App (Ad)",
                        "website_url": "https://play.google.com/store/apps/details?id=com.booya.videochat",
                        "is_system_browser": true,
                        "thumbnail_url": "https://play-lh.googleusercontent.com/OwvRNTvvyUo8g9MQUdJJBGT_cL4S7ObS_xCyzwHYTS-rLrapbZzD1cQYowyHy-uVgw=w240-h480-rw",
                        "thumbnail_url_original": ""
                    },
                    "sub_109": {
                        "id": 109,
                        "mode": "video",
                        "name_original": "World Poker Tour",
                        "name": "Channel 109",
                        "sub_name": "",
                        "stream_video_url": "https://d3w4n3hhseniak.cloudfront.net/v1/master/9d062541f2ff39b5c0f48b743c6411d25f62fc25/WPT-DistroTV/150.m3u8",
                        "thumbnail_url": "https://raw.githubusercontent.com/tvgram-inc/tvgram-inc.github.io/master/images/logo.png",
                        "thumbnail_url_original": "https://images.pluto.tv/channels/5f8ecfb9db6c180007a6d1b0/colorLogoPNG.png"
                    }
                }
            }
        }
    }
}