{
    "TV_Data": {
        "Channel_List": {
            "is_channel_list": true,
            "is_override": true,
            "thumb_width": 150,
            "all_Channels_Tab_Name": "",
            "main": {
                "id": 1,
                "name": "Vietnam Channels",
                "sub_name": "Channels",
                "thumbnail_url": "https://flagpedia.net//data/flags/h80/vn.png",
                "sub": {
                    "sub_1": {
                        "id": 1,
                        "mode": "video",
                        "name_original": "Bahrain International",
                        "name": "Channel 1",
                        "sub_name": "",
                        "stream_video_url": "https://5c7b683162943.streamlock.net/live/ngrp:bahraininternational_all/playlist.m3u8",
                        "thumbnail_url": "https://raw.githubusercontent.com/tvgram-inc/tvgram-inc.github.io/master/images/logo.png",
                        "thumbnail_url_original": "https://www.lyngsat.com/logo/tv/bb/bahrain_tv_international.png"
                    },
                    "sub_2": {
                        "id": 2,
                        "mode": "video",
                        "name_original": "BBC News HD",
                        "name": "Channel 2",
                        "sub_name": "",
                        "stream_video_url": "https://cdnuk001.broadcastcdn.net/KUK-BBCNEWSHD/index.m3u8",
                        "thumbnail_url": "https://raw.githubusercontent.com/tvgram-inc/tvgram-inc.github.io/master/images/logo.png",
                        "thumbnail_url_original": "https://i.imgur.com/rPzH88J.png"
                    },
                    "sub_3": {
                        "id": 3,
                        "mode": "website",
                        "name_original": "",
                        "name": "Adult Free IPTV",
                        "sub_name": "Free Hot X IPTV Playlist (Ad)",
                        "website_url": "https://play.google.com/store/apps/details?id=com.adult.iptv.hot.playlist",
                        "is_system_browser": true,
                        "thumbnail_url": "https://play-lh.googleusercontent.com/DFrL4OmwEWMQnRjs9tBcekNn6DYrlehENI0aAD5XphVvenROVKOon7sfLf84YhmyM08=w240-h480-rw",
                        "thumbnail_url_original": ""
                    },
                    "sub_4": {
                        "id": 4,
                        "mode": "video",
                        "name_original": "B\u1ebfn Tre",
                        "name": "Channel 4",
                        "sub_name": "",
                        "stream_video_url": "http://113.163.94.245/hls-live/livepkgr/_definst_/liveevent/thbt.m3u8",
                        "thumbnail_url": "https://raw.githubusercontent.com/tvgram-inc/tvgram-inc.github.io/master/images/logo.png",
                        "thumbnail_url_original": "https://www.lyngsat.com/logo/tv/bb/ben-tre-tv-vn.png"
                    },
                    "sub_5": {
                        "id": 5,
                        "mode": "video",
                        "name_original": "BeritaSatu World",
                        "name": "Channel 5",
                        "sub_name": "",
                        "stream_video_url": "https://b1world.beritasatumedia.com/Beritasatu/B1World_manifest.m3u8",
                        "thumbnail_url": "https://raw.githubusercontent.com/tvgram-inc/tvgram-inc.github.io/master/images/logo.png",
                        "thumbnail_url_original": "https://upload.wikimedia.org/wikipedia/commons/thumb/f/f1/BeritaSatuWorld.png/512px-BeritaSatuWorld.png"
                    },
                    "sub_6": {
                        "id": 6,
                        "mode": "website",
                        "name_original": "",
                        "name": "USA Live TV",
                        "sub_name": "Free Live TV Channels (Ad)",
                        "website_url": "https://play.google.com/store/apps/details?id=com.tvgram.usalivetv",
                        "is_system_browser": true,
                        "thumbnail_url": "https://play-lh.googleusercontent.com/6VtBPY8-Yq-DmTW_rEfKbxVC_6EY-bZx7QXTetHmqMM2tNvL7TXITbfjkGPMXIGaNbI=w240-h480-rw",
                        "thumbnail_url_original": ""
                    },
                    "sub_7": {
                        "id": 7,
                        "mode": "video",
                        "name_original": "Bloomberg TV Asia",
                        "name": "Channel 7",
                        "sub_name": "",
                        "stream_video_url": "https://bloomberg.com/media-manifest/streams/asia.m3u8",
                        "thumbnail_url": "https://raw.githubusercontent.com/tvgram-inc/tvgram-inc.github.io/master/images/logo.png",
                        "thumbnail_url_original": "https://upload.wikimedia.org/wikipedia/commons/3/3b/Bloomberg_Television_2016.png"
                    },
                    "sub_8": {
                        "id": 8,
                        "mode": "video",
                        "name_original": "Bloomberg TV Asia Live Event",
                        "name": "Channel 8",
                        "sub_name": "",
                        "stream_video_url": "https://bloomberg.com/media-manifest/streams/asia-event.m3u8",
                        "thumbnail_url": "https://raw.githubusercontent.com/tvgram-inc/tvgram-inc.github.io/master/images/logo.png",
                        "thumbnail_url_original": "https://upload.wikimedia.org/wikipedia/commons/3/3b/Bloomberg_Television_2016.png"
                    },
                    "sub_9": {
                        "id": 9,
                        "mode": "website",
                        "name_original": "",
                        "name": "World m3u List",
                        "sub_name": "World Free Live TV Channels (Ad)",
                        "website_url": "https://play.google.com/store/apps/details?id=com.iptv.m3u.playlists",
                        "is_system_browser": true,
                        "thumbnail_url": "https://play-lh.googleusercontent.com/8mPNKodK65zCjQHS8aqF4o0cX9YlKZYN-3qYCd9oMlcTkGaAf_3AxB0vnE9Kud6bPw=w240-h480-rw",
                        "thumbnail_url_original": ""
                    },
                    "sub_10": {
                        "id": 10,
                        "mode": "video",
                        "name_original": "BRT",
                        "name": "Channel 10",
                        "sub_name": "",
                        "stream_video_url": "http://113.163.216.23:1935/live/tv2.stream_480p/playlist.m3u8",
                        "thumbnail_url": "https://raw.githubusercontent.com/tvgram-inc/tvgram-inc.github.io/master/images/logo.png",
                        "thumbnail_url_original": "https://i.imgur.com/vr7k4jS.png"
                    },
                    "sub_11": {
                        "id": 11,
                        "mode": "video",
                        "name_original": "C\u00e0 Mau TV",
                        "name": "Channel 11",
                        "sub_name": "",
                        "stream_video_url": "http://tv.ctvcamau.vn/live/tv/tv.m3u8",
                        "thumbnail_url": "https://raw.githubusercontent.com/tvgram-inc/tvgram-inc.github.io/master/images/logo.png",
                        "thumbnail_url_original": "https://i.imgur.com/gWc8xVD.jpg"
                    },
                    "sub_12": {
                        "id": 12,
                        "mode": "website",
                        "name_original": "",
                        "name": "YoYo Video calls",
                        "sub_name": "Free Live TV Channels (Ad)",
                        "website_url": "https://play.google.com/store/apps/details?id=com.yoyolive.llc",
                        "is_system_browser": true,
                        "thumbnail_url": "https://play-lh.googleusercontent.com/33_mPNzvE6WRV6czGRm8EhSrSh0G9wnRQRfMXfcqQLU8j3z4UYu7nrgw5SmaP9UFf0U=s48-rw",
                        "thumbnail_url_original": ""
                    },
                    "sub_13": {
                        "id": 13,
                        "mode": "video",
                        "name_original": "Cartoon Network Asia",
                        "name": "Channel 13",
                        "sub_name": "",
                        "stream_video_url": "http://198.16.106.62:8278/streams/d/Cn/playlist.m3u8",
                        "thumbnail_url": "https://raw.githubusercontent.com/tvgram-inc/tvgram-inc.github.io/master/images/logo.png",
                        "thumbnail_url_original": "https://upload.wikimedia.org/wikipedia/commons/thumb/8/80/Cartoon_Network_2010_logo.svg/512px-Cartoon_Network_2010_logo.svg.png"
                    },
                    "sub_14": {
                        "id": 14,
                        "mode": "video",
                        "name_original": "CGTN",
                        "name": "Channel 14",
                        "sub_name": "",
                        "stream_video_url": "https://news.cgtn.com/resource/live/english/cgtn-news.m3u8",
                        "thumbnail_url": "https://raw.githubusercontent.com/tvgram-inc/tvgram-inc.github.io/master/images/logo.png",
                        "thumbnail_url_original": "https://upload.wikimedia.org/wikipedia/commons/thumb/8/81/CGTN.svg/512px-CGTN.svg.png"
                    },
                    "sub_15": {
                        "id": 15,
                        "mode": "website",
                        "name_original": "",
                        "name": "Pocket IPTV",
                        "sub_name": "Free Live TV Channels (Ad)",
                        "website_url": "https://play.google.com/store/apps/details?id=com.pocketiptv",
                        "is_system_browser": true,
                        "thumbnail_url": "https://play-lh.googleusercontent.com/DviEA28-3k_q7mb1mbF8ZMRdYNRmqEGYMzQ3SJnSdEo5hRkFmxgpr2uKb1z8wnsCpcU=w240-h480-rw",
                        "thumbnail_url_original": ""
                    },
                    "sub_16": {
                        "id": 16,
                        "mode": "video",
                        "name_original": "CGTN Documentary",
                        "name": "Channel 16",
                        "sub_name": "",
                        "stream_video_url": "http://39.135.138.59:18890/PLTV/88888910/224/3221225645/index.m3u8",
                        "thumbnail_url": "https://raw.githubusercontent.com/tvgram-inc/tvgram-inc.github.io/master/images/logo.png",
                        "thumbnail_url_original": "https://upload.wikimedia.org/wikipedia/commons/d/d6/CGTN_Documentary_logo.png"
                    },
                    "sub_17": {
                        "id": 17,
                        "mode": "video",
                        "name_original": "Classic Arts Showcase",
                        "name": "Channel 17",
                        "sub_name": "",
                        "stream_video_url": "https://classicarts.akamaized.net/hls/live/1024257/CAS/master.m3u8",
                        "thumbnail_url": "https://raw.githubusercontent.com/tvgram-inc/tvgram-inc.github.io/master/images/logo.png",
                        "thumbnail_url_original": "https://i.imgur.com/M6FFkc3.png"
                    },
                    "sub_18": {
                        "id": 18,
                        "mode": "website",
                        "name_original": "",
                        "name": "France Live Tv",
                        "sub_name": "Free Live TV Channels (Ad)",
                        "website_url": "https://play.google.com/store/apps/details?id=com.tvgram.francelivetv",
                        "is_system_browser": true,
                        "thumbnail_url": "https://play-lh.googleusercontent.com/WoPxNu1ZO7bHJvi32q-CNLVZyVXqqMBtTBqY8Dh71icnw6xJAG8ZYfwzli26KyjN5W9_=w240-h480-rw",
                        "thumbnail_url_original": ""
                    },
                    "sub_19": {
                        "id": 19,
                        "mode": "video",
                        "name_original": "CNA International",
                        "name": "Channel 19",
                        "sub_name": "",
                        "stream_video_url": "https://d2e1asnsl7br7b.cloudfront.net/7782e205e72f43aeb4a48ec97f66ebbe/index.m3u8",
                        "thumbnail_url": "https://raw.githubusercontent.com/tvgram-inc/tvgram-inc.github.io/master/images/logo.png",
                        "thumbnail_url_original": "https://upload.wikimedia.org/wikipedia/commons/thumb/8/83/CNA_new_logo.svg/512px-CNA_new_logo.svg.png"
                    },
                    "sub_20": {
                        "id": 20,
                        "mode": "video",
                        "name_original": "Da Nang TV1",
                        "name": "Channel 20",
                        "sub_name": "",
                        "stream_video_url": "http://drtdnglive.e49a7c38.cdnviet.com/livedrt1/chunklist.m3u8",
                        "thumbnail_url": "https://raw.githubusercontent.com/tvgram-inc/tvgram-inc.github.io/master/images/logo.png",
                        "thumbnail_url_original": "https://i.imgur.com/EOMuO1z.png"
                    },
                    "sub_21": {
                        "id": 21,
                        "mode": "website",
                        "name_original": "",
                        "name": "India Live TV",
                        "sub_name": "Free Live TV Channels (Ad)",
                        "website_url": "https://play.google.com/store/apps/details?id=com.tvgram.brazillivetv",
                        "is_system_browser": true,
                        "thumbnail_url": "https://play-lh.googleusercontent.com/bDQlYcVEfFfB5uDSRYWYeLiXpb68C5xJ_bko-Fhdvmu7Ooet80_J6yCfntLE8uVMMQ=w240-h480-rw",
                        "thumbnail_url_original": ""
                    },
                    "sub_22": {
                        "id": 22,
                        "mode": "video",
                        "name_original": "Da Nang TV2",
                        "name": "Channel 22",
                        "sub_name": "",
                        "stream_video_url": "http://drtdnglive.e49a7c38.cdnviet.com/livestream/chunklist.m3u8",
                        "thumbnail_url": "https://raw.githubusercontent.com/tvgram-inc/tvgram-inc.github.io/master/images/logo.png",
                        "thumbnail_url_original": "https://i.imgur.com/9I4gX5Y.png"
                    },
                    "sub_23": {
                        "id": 23,
                        "mode": "video",
                        "name_original": "Dhammasapha TV",
                        "name": "Channel 23",
                        "sub_name": "",
                        "stream_video_url": "https://livefta.malimarcdn.com/ftaedge00/dhammasapha.stream/playlist.m3u8",
                        "thumbnail_url": "https://raw.githubusercontent.com/tvgram-inc/tvgram-inc.github.io/master/images/logo.png",
                        "thumbnail_url_original": "https://i.imgur.com/TWJgMuE.jpg"
                    },
                    "sub_24": {
                        "id": 24,
                        "mode": "website",
                        "name_original": "",
                        "name": "Canada IPTV LIST",
                        "sub_name": "Canada Free Channel Playlist (Ad)",
                        "website_url": "https://play.google.com/store/apps/details?id=com.bitlinks.canada.iptv.m3ulist",
                        "is_system_browser": true,
                        "thumbnail_url": "https://play-lh.googleusercontent.com/kwcO0pT77BLdDvudr9SJnWi5TCAcPnbKrCnCH3dp6mHpGtlChWZVOxfvFEp1zA_DW90=w240-h480-rw",
                        "thumbnail_url_original": ""
                    },
                    "sub_25": {
                        "id": 25,
                        "mode": "video",
                        "name_original": "\u0110\u1ed3ng Nai 1",
                        "name": "Channel 25",
                        "sub_name": "",
                        "stream_video_url": "http://118.107.85.4:1935/live/smil:DNTV1.smil/playlist.m3u8",
                        "thumbnail_url": "https://raw.githubusercontent.com/tvgram-inc/tvgram-inc.github.io/master/images/logo.png",
                        "thumbnail_url_original": "https://www.lyngsat.com/logo/tv/dd/dong_nai_tv1.png"
                    },
                    "sub_26": {
                        "id": 26,
                        "mode": "video",
                        "name_original": "\u0110\u1ed3ng Nai 2",
                        "name": "Channel 26",
                        "sub_name": "",
                        "stream_video_url": "http://118.107.85.4:1935/live/smil:DNTV2.smil/playlist.m3u8",
                        "thumbnail_url": "https://raw.githubusercontent.com/tvgram-inc/tvgram-inc.github.io/master/images/logo.png",
                        "thumbnail_url_original": "https://www.lyngsat.com/logo/tv/dd/dong_nai_tv2.png"
                    },
                    "sub_27": {
                        "id": 27,
                        "mode": "website",
                        "name_original": "",
                        "name": "India IPTV LIST",
                        "sub_name": "Indian Free Channel Playlist (Ad)",
                        "website_url": "https://play.google.com/store/apps/details?id=com.bitlinks.india.iptv.m3ulist",
                        "is_system_browser": true,
                        "thumbnail_url": "https://play-lh.googleusercontent.com/l3rJ2qzJtRFzqUzr55ano_WEhcDx5YznwIpd7uRVxooEbOW5444QY8HeeZbiZhd4Ayc=w240-h480-rw",
                        "thumbnail_url_original": ""
                    },
                    "sub_28": {
                        "id": 28,
                        "mode": "video",
                        "name_original": "DreamWorks",
                        "name": "Channel 28",
                        "sub_name": "",
                        "stream_video_url": "https://allanf181.github.io/adaptive-streams/streams/us/DreamWorksChannelAsia.m3u8",
                        "thumbnail_url": "https://raw.githubusercontent.com/tvgram-inc/tvgram-inc.github.io/master/images/logo.png",
                        "thumbnail_url_original": "https://upload.wikimedia.org/wikipedia/commons/thumb/8/84/DreamWorks_Channel_Logo.svg/512px-DreamWorks_Channel_Logo.svg.png"
                    },
                    "sub_29": {
                        "id": 29,
                        "mode": "video",
                        "name_original": "DW English",
                        "name": "Channel 29",
                        "sub_name": "",
                        "stream_video_url": "https://dwamdstream102.akamaized.net/hls/live/2015525/dwstream102/index.m3u8",
                        "thumbnail_url": "https://raw.githubusercontent.com/tvgram-inc/tvgram-inc.github.io/master/images/logo.png",
                        "thumbnail_url_original": "https://i.imgur.com/A1xzjOI.png"
                    },
                    "sub_30": {
                        "id": 30,
                        "mode": "website",
                        "name_original": "",
                        "name": "Cash Counter",
                        "sub_name": "Easy Money Count (Ad)",
                        "website_url": "https://play.google.com/store/apps/details?id=com.money_count_save",
                        "is_system_browser": true,
                        "thumbnail_url": "https://play-lh.googleusercontent.com/kB7MXSAbO8vKrfbnM8QrzIcNbNm2tWH8rImp5xsIZY1lwKqK3FkNkEFRQpyskJliEbQ=w240-h480-rw",
                        "thumbnail_url_original": ""
                    },
                    "sub_31": {
                        "id": 31,
                        "mode": "video",
                        "name_original": "ERT World",
                        "name": "Channel 31",
                        "sub_name": "",
                        "stream_video_url": "http://wpso.com:1936/hls/wzra.m3u8",
                        "thumbnail_url": "https://raw.githubusercontent.com/tvgram-inc/tvgram-inc.github.io/master/images/logo.png",
                        "thumbnail_url_original": "https://upload.wikimedia.org/wikipedia/commons/thumb/b/bc/ChannelLogo-ERTWORLD1.png/512px-ChannelLogo-ERTWORLD1.png"
                    },
                    "sub_32": {
                        "id": 32,
                        "mode": "video",
                        "name_original": "ETB Basque",
                        "name": "Channel 32",
                        "sub_name": "",
                        "stream_video_url": "https://multimedia.eitb.eus/live-content/eitbbasque-hls/master.m3u8",
                        "thumbnail_url": "https://raw.githubusercontent.com/tvgram-inc/tvgram-inc.github.io/master/images/logo.png",
                        "thumbnail_url_original": "https://upload.wikimedia.org/wikipedia/commons/thumb/c/ca/ETB_Basque_2022_logo.svg/512px-ETB_Basque_2022_logo.svg.png"
                    },
                    "sub_33": {
                        "id": 33,
                        "mode": "website",
                        "name_original": "",
                        "name": "mirende Random Video calls",
                        "sub_name": "Chinese Random Video calling app (Ad)",
                        "website_url": "https://play.google.com/store/apps/details?id=com.minichat.mirende.shipin",
                        "is_system_browser": true,
                        "thumbnail_url": "https://play-lh.googleusercontent.com/pE3eAvKn9TiXM_3-2YTKAmDStyipNhXAwNMrx1D9S6rAXT6PT5y8JxRZnKOaJhHy9Uc=w240-h480-rw",
                        "thumbnail_url_original": ""
                    },
                    "sub_34": {
                        "id": 34,
                        "mode": "video",
                        "name_original": "Euro Indie Music Chart TV",
                        "name": "Channel 34",
                        "sub_name": "",
                        "stream_video_url": "http://178.33.224.197:1935/euroindiemusic/euroindiemusic/playlist.m3u8",
                        "thumbnail_url": "https://raw.githubusercontent.com/tvgram-inc/tvgram-inc.github.io/master/images/logo.png",
                        "thumbnail_url_original": "https://i.imgur.com/UDFBYpN.png"
                    },
                    "sub_35": {
                        "id": 35,
                        "mode": "video",
                        "name_original": "Euronews German",
                        "name": "Channel 35",
                        "sub_name": "",
                        "stream_video_url": "https://euronews.alteox.app/hls/de_stream.m3u8",
                        "thumbnail_url": "https://raw.githubusercontent.com/tvgram-inc/tvgram-inc.github.io/master/images/logo.png",
                        "thumbnail_url_original": "https://i.imgur.com/8t9mdg9.png"
                    },
                    "sub_36": {
                        "id": 36,
                        "mode": "website",
                        "name_original": "",
                        "name": "Free Adult Vids",
                        "sub_name": "Adult  FREE IPTV Playlist (Ad)",
                        "website_url": "https://play.google.com/store/apps/details?id=com.x.iptv.hot.playlist",
                        "is_system_browser": true,
                        "thumbnail_url": "https://play-lh.googleusercontent.com/C13Fw3kBZ6jU-AX6PFlyGMdDZFT9VnmPVUJZrJqqm71Rg9ky5sg5bsifgZvuEefFUw=w240-h480-rw",
                        "thumbnail_url_original": ""
                    },
                    "sub_37": {
                        "id": 37,
                        "mode": "video",
                        "name_original": "Euronews Italian",
                        "name": "Channel 37",
                        "sub_name": "",
                        "stream_video_url": "https://euronews.alteox.app/hls/it_stream.m3u8",
                        "thumbnail_url": "https://raw.githubusercontent.com/tvgram-inc/tvgram-inc.github.io/master/images/logo.png",
                        "thumbnail_url_original": "https://i.imgur.com/8t9mdg9.png"
                    },
                    "sub_38": {
                        "id": 38,
                        "mode": "video",
                        "name_original": "Euronews Portuguese",
                        "name": "Channel 38",
                        "sub_name": "",
                        "stream_video_url": "https://euronews.alteox.app/hls/pt_stream.m3u8",
                        "thumbnail_url": "https://raw.githubusercontent.com/tvgram-inc/tvgram-inc.github.io/master/images/logo.png",
                        "thumbnail_url_original": "https://i.imgur.com/8t9mdg9.png"
                    },
                    "sub_39": {
                        "id": 39,
                        "mode": "website",
                        "name_original": "",
                        "name": "Turkish IPTV LIST",
                        "sub_name": "Turkish Free Channel Playlist (Ad)",
                        "website_url": "https://play.google.com/store/apps/details?id=com.bitlinks.turkish.iptv.m3ulist",
                        "is_system_browser": true,
                        "thumbnail_url": "https://play-lh.googleusercontent.com/VKeeYL7nYUv-5qnVweTU2onTurMhO6XZj-w2wjfkVd4trGgD6IWpM__Ta2YlSyxgsPQ=w240-h480-rw",
                        "thumbnail_url_original": ""
                    },
                    "sub_40": {
                        "id": 40,
                        "mode": "video",
                        "name_original": "Gia Lai TV",
                        "name": "Channel 40",
                        "sub_name": "",
                        "stream_video_url": "http://113.161.25.3:8134/hls/gialaitv/gialaitv.m3u8",
                        "thumbnail_url": "https://raw.githubusercontent.com/tvgram-inc/tvgram-inc.github.io/master/images/logo.png",
                        "thumbnail_url_original": "https://www.lyngsat.com/logo/tv/gg/gia_lai_tv_vn.png"
                    },
                    "sub_41": {
                        "id": 41,
                        "mode": "video",
                        "name_original": "HBTV",
                        "name": "Channel 41",
                        "sub_name": "",
                        "stream_video_url": "http://hoabinhtvlive.746b3ddb.cdnviet.com/hoabinhtv/playlist.m3u8",
                        "thumbnail_url": "https://raw.githubusercontent.com/tvgram-inc/tvgram-inc.github.io/master/images/logo.png",
                        "thumbnail_url_original": "https://i.imgur.com/BnFWgS7.png"
                    },
                    "sub_42": {
                        "id": 42,
                        "mode": "website",
                        "name_original": "",
                        "name": "lyubimiy Random Video calls",
                        "sub_name": "Ukraine Random Video calling app (Ad)",
                        "website_url": "https://play.google.com/store/apps/details?id=com.minichat.lyubimiy.videochat",
                        "is_system_browser": true,
                        "thumbnail_url": "https://play-lh.googleusercontent.com/R93sG4-ovSRJaDNIVx6PaMkfZGATne9MN0S8Ihp7uSgKxaC2qmdXYpYP3GAslVtP5_5f=w240-h480-rw",
                        "thumbnail_url_original": ""
                    },
                    "sub_43": {
                        "id": 43,
                        "mode": "video",
                        "name_original": "Hmong TV Network",
                        "name": "Channel 43",
                        "sub_name": "",
                        "stream_video_url": "https://livefta.malimarcdn.com/ftaedge00/cvabroadcasting.stream/playlist.m3u8",
                        "thumbnail_url": "https://raw.githubusercontent.com/tvgram-inc/tvgram-inc.github.io/master/images/logo.png",
                        "thumbnail_url_original": "https://i.imgur.com/yfGvM3K.png"
                    },
                    "sub_44": {
                        "id": 44,
                        "mode": "video",
                        "name_original": "Insight TV",
                        "name": "Channel 44",
                        "sub_name": "",
                        "stream_video_url": "https://insighttv-vizio.amagi.tv/playlist.m3u8",
                        "thumbnail_url": "https://raw.githubusercontent.com/tvgram-inc/tvgram-inc.github.io/master/images/logo.png",
                        "thumbnail_url_original": "https://i.imgur.com/7xmaoL0.png"
                    },
                    "sub_45": {
                        "id": 45,
                        "mode": "website",
                        "name_original": "",
                        "name": "Arabic IPTV LIST",
                        "sub_name": "Arabian Free Channel Playlists (Ad)",
                        "website_url": "https://play.google.com/store/apps/details?id=com.bitlinks.arebic.iptv.m3ulist",
                        "is_system_browser": true,
                        "thumbnail_url": "https://play-lh.googleusercontent.com/sGSMoSuytTPbNuMjKFU0omN7y814nhnqYxEHDtwSPNkrAiqCLuH_asc06xb52U5tAoo=w240-h480-rw",
                        "thumbnail_url_original": ""
                    },
                    "sub_46": {
                        "id": 46,
                        "mode": "video",
                        "name_original": "Kanal 10 Asia",
                        "name": "Channel 46",
                        "sub_name": "",
                        "stream_video_url": "http://cdn-kanal10.crossnet.net:1935/kanal10/kanal10asia/playlist.m3u8",
                        "thumbnail_url": "https://raw.githubusercontent.com/tvgram-inc/tvgram-inc.github.io/master/images/logo.png",
                        "thumbnail_url_original": "https://i.imgur.com/RQXBwlz.png"
                    },
                    "sub_47": {
                        "id": 47,
                        "mode": "video",
                        "name_original": "KBS World",
                        "name": "Channel 47",
                        "sub_name": "",
                        "stream_video_url": "https://kbsworld-ott.akamaized.net/hls/live/2002341/kbsworld/master.m3u8",
                        "thumbnail_url": "https://raw.githubusercontent.com/tvgram-inc/tvgram-inc.github.io/master/images/logo.png",
                        "thumbnail_url_original": "https://upload.wikimedia.org/wikipedia/commons/thumb/1/1b/KBS_World_%282009%29.svg/512px-KBS_World_%282009%29.svg.png"
                    },
                    "sub_48": {
                        "id": 48,
                        "mode": "website",
                        "name_original": "",
                        "name": "Line Video Player",
                        "sub_name": "Best Video Player (Ad)",
                        "website_url": "https://play.google.com/store/apps/details?id=com.line.hdplayer",
                        "is_system_browser": true,
                        "thumbnail_url": "https://play-lh.googleusercontent.com/IPqZNMTj7o1agUs1LkuQ0OJU4Ue_udMnOwxENKdKTaTEL_6GyH1YjS4lfq8hUGCVxGA=w240-h480-rw",
                        "thumbnail_url_original": ""
                    },
                    "sub_49": {
                        "id": 49,
                        "mode": "video",
                        "name_original": "KienGiangTV1",
                        "name": "Channel 49",
                        "sub_name": "",
                        "stream_video_url": "http://tv.kgtv.vn/live/kgtv1/kgtv1.m3u8",
                        "thumbnail_url": "https://raw.githubusercontent.com/tvgram-inc/tvgram-inc.github.io/master/images/logo.png",
                        "thumbnail_url_original": "https://i.imgur.com/vzaqu80.png"
                    },
                    "sub_50": {
                        "id": 50,
                        "mode": "video",
                        "name_original": "KienGiangTV",
                        "name": "Channel 50",
                        "sub_name": "",
                        "stream_video_url": "http://tv.kgtv.vn/live/kgtv/kgtv.m3u8",
                        "thumbnail_url": "https://raw.githubusercontent.com/tvgram-inc/tvgram-inc.github.io/master/images/logo.png",
                        "thumbnail_url_original": "https://i.imgur.com/HqYi1Dw.png"
                    },
                    "sub_51": {
                        "id": 51,
                        "mode": "website",
                        "name_original": "",
                        "name": "Love Shayari App",
                        "sub_name": "Shayari app for your love ones (Ad)",
                        "website_url": "https://play.google.com/store/apps/details?id=com.real.love.shayari",
                        "is_system_browser": true,
                        "thumbnail_url": "https://play-lh.googleusercontent.com/rs3Xfx9cvLwS1cuq5Hac-Y8c9QACQDDxEKXGBaG5W05EO1c9j8BFkj6GBRwe7u3-PYg=w240-h480-rw",
                        "thumbnail_url_original": ""
                    },
                    "sub_52": {
                        "id": 52,
                        "mode": "video",
                        "name_original": "LA34 Long An",
                        "name": "Channel 52",
                        "sub_name": "",
                        "stream_video_url": "http://113.161.229.13/hls-live/livepkgr/_definst_/liveevent/tv.m3u8",
                        "thumbnail_url": "https://raw.githubusercontent.com/tvgram-inc/tvgram-inc.github.io/master/images/logo.png",
                        "thumbnail_url_original": "https://i.imgur.com/FHFfPXS.png"
                    },
                    "sub_53": {
                        "id": 53,
                        "mode": "video",
                        "name_original": "Lao SV TV",
                        "name": "Channel 53",
                        "sub_name": "",
                        "stream_video_url": "https://livefta.malimarcdn.com/ftaedge00/laosvtv.stream/playlist.m3u8",
                        "thumbnail_url": "https://raw.githubusercontent.com/tvgram-inc/tvgram-inc.github.io/master/images/logo.png",
                        "thumbnail_url_original": "https://i.imgur.com/BhfKNRv.png"
                    },
                    "sub_54": {
                        "id": 54,
                        "mode": "website",
                        "name_original": "",
                        "name": "Live Cricket",
                        "sub_name": "Watch Live Cricket Score (Ad)",
                        "website_url": "https://play.google.com/store/apps/details?id=com.bitmedia.ipl2k22",
                        "is_system_browser": true,
                        "thumbnail_url": "https://play-lh.googleusercontent.com/yAiVkEdk1YbKEvZf6SLujni0dQgA9U2_B86aqt0_k-b2_ASEWjnqdeL-UyNq-GWx1Jc=w240-h480-rw",
                        "thumbnail_url_original": ""
                    },
                    "sub_55": {
                        "id": 55,
                        "mode": "video",
                        "name_original": "Lao-Thai US TV",
                        "name": "Channel 55",
                        "sub_name": "",
                        "stream_video_url": "https://livefta.malimarcdn.com/ftaedge00/laothaius.sdp/playlist.m3u8",
                        "thumbnail_url": "https://raw.githubusercontent.com/tvgram-inc/tvgram-inc.github.io/master/images/logo.png",
                        "thumbnail_url_original": "https://i.imgur.com/1oHtGxq.png"
                    },
                    "sub_56": {
                        "id": 56,
                        "mode": "video",
                        "name_original": "Metro Globe Network",
                        "name": "Channel 56",
                        "sub_name": "",
                        "stream_video_url": "https://edge.medcom.id/live-edge/smil:mgnch.smil/playlist.m3u8",
                        "thumbnail_url": "https://raw.githubusercontent.com/tvgram-inc/tvgram-inc.github.io/master/images/logo.png",
                        "thumbnail_url_original": "https://i.imgur.com/NTCI3lf.png"
                    },
                    "sub_57": {
                        "id": 57,
                        "mode": "website",
                        "name_original": "",
                        "name": "German Live Tv",
                        "sub_name": "Free Live TV Channels (Ad)",
                        "website_url": "https://play.google.com/store/apps/details?id=com.tvgram.germanlivetv",
                        "is_system_browser": true,
                        "thumbnail_url": "https://play-lh.googleusercontent.com/R56Rq08GnY1LDkWF-kK_ys4FkVokh5qXhBdnIwoO1xe4-b9VQlxlBhIEuygrLCzt5UU=w240-h480-rw",
                        "thumbnail_url_original": ""
                    },
                    "sub_58": {
                        "id": 58,
                        "mode": "video",
                        "name_original": "MNB world",
                        "name": "Channel 58",
                        "sub_name": "",
                        "stream_video_url": "https://live.mnb.mn/live/mnb_world.stream/playlist.m3u8",
                        "thumbnail_url": "https://raw.githubusercontent.com/tvgram-inc/tvgram-inc.github.io/master/images/logo.png",
                        "thumbnail_url_original": "https://www.lyngsat.com/logo/tv/mm/mnb-world-mn.png"
                    },
                    "sub_59": {
                        "id": 59,
                        "mode": "video",
                        "name_original": "Myanmar International TV",
                        "name": "Channel 59",
                        "sub_name": "",
                        "stream_video_url": "https://5a13fe32ef748.streamlock.net/mmplay/mitv/playlist.m3u8",
                        "thumbnail_url": "https://raw.githubusercontent.com/tvgram-inc/tvgram-inc.github.io/master/images/logo.png",
                        "thumbnail_url_original": "https://www.lyngsat.com/logo/tv/mm/myanmar-international-tv-mm.png"
                    },
                    "sub_60": {
                        "id": 60,
                        "mode": "website",
                        "name_original": "",
                        "name": "English IPTV LIST",
                        "sub_name": "English Free Channel Playlist (Ad)",
                        "website_url": "https://play.google.com/store/apps/details?id=com.bitlinks.english.iptv.m3ulist",
                        "is_system_browser": true,
                        "thumbnail_url": "https://play-lh.googleusercontent.com/xb5LxBYljW-fpj4QcmfpauEPrGIKFw1w8glR4sJYNnGF6KVfJZEw9IzRu9NzlUEVrh4=w240-h480-rw",
                        "thumbnail_url_original": ""
                    },
                    "sub_61": {
                        "id": 61,
                        "mode": "video",
                        "name_original": "NASA TV",
                        "name": "Channel 61",
                        "sub_name": "",
                        "stream_video_url": "https://uplynkcontent.sinclairstoryline.com/channel/ddd76fdc1c0a456ba537e4f48e827d3e.m3u8",
                        "thumbnail_url": "https://raw.githubusercontent.com/tvgram-inc/tvgram-inc.github.io/master/images/logo.png",
                        "thumbnail_url_original": "https://upload.wikimedia.org/wikipedia/commons/thumb/b/b4/NASA_TV.svg/512px-NASA_TV.svg.png"
                    },
                    "sub_62": {
                        "id": 62,
                        "mode": "video",
                        "name_original": "NBT World",
                        "name": "Channel 62",
                        "sub_name": "",
                        "stream_video_url": "https://thainews.prd.go.th/lv/live/ch1_L_L.sdp/playlist.m3u8",
                        "thumbnail_url": "https://raw.githubusercontent.com/tvgram-inc/tvgram-inc.github.io/master/images/logo.png",
                        "thumbnail_url_original": "https://i.imgur.com/GCcmL8E.png"
                    },
                    "sub_63": {
                        "id": 63,
                        "mode": "website",
                        "name_original": "",
                        "name": "belo Random Video calls",
                        "sub_name": "Portuguese Random Video calling app (Ad)",
                        "website_url": "https://play.google.com/store/apps/details?id=com.minichat.belo.chatde.video",
                        "is_system_browser": true,
                        "thumbnail_url": "https://play-lh.googleusercontent.com/AS5qW9nP6-CGtPNDA59DR6-fg3MhH924N45ScDNSmacthqzrbDb04C4ripDrxpq2Jw=w240-h480-rw",
                        "thumbnail_url_original": ""
                    },
                    "sub_64": {
                        "id": 64,
                        "mode": "video",
                        "name_original": "NHK World Japan",
                        "name": "Channel 64",
                        "sub_name": "",
                        "stream_video_url": "https://nhkwlive-ojp.akamaized.net/hls/live/2003459/nhkwlive-ojp-en/index.m3u8",
                        "thumbnail_url": "https://raw.githubusercontent.com/tvgram-inc/tvgram-inc.github.io/master/images/logo.png",
                        "thumbnail_url_original": "https://upload.wikimedia.org/wikipedia/commons/thumb/8/8d/NHK_World-Japan_TV.svg/512px-NHK_World-Japan_TV.svg.png"
                    },
                    "sub_65": {
                        "id": 65,
                        "mode": "video",
                        "name_original": "One TV Asia",
                        "name": "Channel 65",
                        "sub_name": "",
                        "stream_video_url": "http://210.210.155.37/uq2663/h/h143/index.m3u8",
                        "thumbnail_url": "https://raw.githubusercontent.com/tvgram-inc/tvgram-inc.github.io/master/images/logo.png",
                        "thumbnail_url_original": "https://upload.wikimedia.org/wikipedia/en/thumb/c/cc/One_TV_Asia_logo_%282020%29.png/512px-One_TV_Asia_logo_%282020%29.png"
                    },
                    "sub_66": {
                        "id": 66,
                        "mode": "website",
                        "name_original": "",
                        "name": "Status Savaer",
                        "sub_name": "Status Saver for Whatsapp (Ad)",
                        "website_url": "https://play.google.com/store/apps/details?id=com.appclub.whats.status.saver",
                        "is_system_browser": true,
                        "thumbnail_url": "https://play-lh.googleusercontent.com/K76-feE-GOTDz9SoEWVKtom1ngUVTIPEsQ_damw8lCyaoh77awQifmc4A5wXdSyx84M=w240-h480-rw",
                        "thumbnail_url_original": ""
                    },
                    "sub_67": {
                        "id": 67,
                        "mode": "video",
                        "name_original": "Oy Lao TV",
                        "name": "Channel 67",
                        "sub_name": "",
                        "stream_video_url": "https://livefta.malimarcdn.com/ftaedge00/oylaotv.sdp/playlist.m3u8",
                        "thumbnail_url": "https://raw.githubusercontent.com/tvgram-inc/tvgram-inc.github.io/master/images/logo.png",
                        "thumbnail_url_original": "https://i.imgur.com/Iif45mb.png"
                    },
                    "sub_68": {
                        "id": 68,
                        "mode": "video",
                        "name_original": "QRT",
                        "name": "Channel 68",
                        "sub_name": "",
                        "stream_video_url": "http://113.161.6.157:8081/hls-live/livepkgr/_definst_/liveevent/livestream.m3u8",
                        "thumbnail_url": "https://raw.githubusercontent.com/tvgram-inc/tvgram-inc.github.io/master/images/logo.png",
                        "thumbnail_url_original": "https://i.imgur.com/wtTNGcP.png"
                    },
                    "sub_69": {
                        "id": 69,
                        "mode": "website",
                        "name_original": "",
                        "name": "France IPTV LIST",
                        "sub_name": "France Free Channel Playlist (Ad)",
                        "website_url": "https://play.google.com/store/apps/details?id=com.bitlinks.france.iptv.m3ulist",
                        "is_system_browser": true,
                        "thumbnail_url": "https://play-lh.googleusercontent.com/3JLB6nhz-nLEmVec31uJO-s8dmAjQYRI7qcHM12471zQI9bHXbQR6ggmhGpdnNFIJg=w240-h480-rw",
                        "thumbnail_url_original": ""
                    },
                    "sub_70": {
                        "id": 70,
                        "mode": "video",
                        "name_original": "Qu\u1ed1c H\u1ed9i",
                        "name": "Channel 70",
                        "sub_name": "",
                        "stream_video_url": "http://113.164.225.140:1935/live/quochoitvlive.stream_720p/playlist.m3u8",
                        "thumbnail_url": "https://raw.githubusercontent.com/tvgram-inc/tvgram-inc.github.io/master/images/logo.png",
                        "thumbnail_url_original": "https://www.lyngsat.com/logo/tv/qq/quoc_hoi_tv_vn.png"
                    },
                    "sub_71": {
                        "id": 71,
                        "mode": "video",
                        "name_original": "RAI Italia Asia",
                        "name": "Channel 71",
                        "sub_name": "",
                        "stream_video_url": "http://210.210.155.37/x6bnqe/s/s63/index2.m3u8",
                        "thumbnail_url": "https://raw.githubusercontent.com/tvgram-inc/tvgram-inc.github.io/master/images/logo.png",
                        "thumbnail_url_original": "https://upload.wikimedia.org/wikipedia/commons/thumb/8/8a/Rai_Italia_-_Logo_2017.svg/512px-Rai_Italia_-_Logo_2017.svg.png"
                    },
                    "sub_72": {
                        "id": 72,
                        "mode": "website",
                        "name_original": "",
                        "name": "bello Random Video calls",
                        "sub_name": "Italian  Random Video calling app (Ad)",
                        "website_url": "https://play.google.com/store/apps/details?id=com.minichat.bello.random.videochat",
                        "is_system_browser": true,
                        "thumbnail_url": "https://play-lh.googleusercontent.com/3bOkAvBhWTFLLuwMRriodrXyEk67Dp6NQibo4UZyPOyahMbI6iisNCqQX5OcmMl9VQ=w240-h480-rw",
                        "thumbnail_url_original": ""
                    },
                    "sub_73": {
                        "id": 73,
                        "mode": "video",
                        "name_original": "Red Bull TV",
                        "name": "Channel 73",
                        "sub_name": "",
                        "stream_video_url": "https://rbmn-live.akamaized.net/hls/live/590964/BoRB-AT/master.m3u8",
                        "thumbnail_url": "https://raw.githubusercontent.com/tvgram-inc/tvgram-inc.github.io/master/images/logo.png",
                        "thumbnail_url_original": "https://i.imgur.com/7NeBmWX.jpg"
                    },
                    "sub_74": {
                        "id": 74,
                        "mode": "video",
                        "name_original": "RT Documentary Russian",
                        "name": "Channel 74",
                        "sub_name": "",
                        "stream_video_url": "http://uiptv.do.am/1ufc/300663722/playlist.m3u8",
                        "thumbnail_url": "https://raw.githubusercontent.com/tvgram-inc/tvgram-inc.github.io/master/images/logo.png",
                        "thumbnail_url_original": "https://i.imgur.com/rli3c7T.png"
                    },
                    "sub_75": {
                        "id": 75,
                        "mode": "website",
                        "name_original": "",
                        "name": "USA IPTV LIST",
                        "sub_name": "USA Free Channel Playlist (Ad)",
                        "website_url": "https://play.google.com/store/apps/details?id=com.bitlinks.usa.iptv.m3ulist",
                        "is_system_browser": true,
                        "thumbnail_url": "https://play-lh.googleusercontent.com/aLcopJQaN0OngNZvAnfUbpBB3RNhb-48sleyghMNXVSKePiGZqmhb375p_5VRz1uhxs=w240-h480-rw",
                        "thumbnail_url_original": ""
                    },
                    "sub_76": {
                        "id": 76,
                        "mode": "video",
                        "name_original": "RTP Internacional Asia",
                        "name": "Channel 76",
                        "sub_name": "",
                        "stream_video_url": "http://210.210.155.37/qwr9ew/s/s38/index.m3u8",
                        "thumbnail_url": "https://raw.githubusercontent.com/tvgram-inc/tvgram-inc.github.io/master/images/logo.png",
                        "thumbnail_url_original": "https://upload.wikimedia.org/wikipedia/commons/thumb/f/f7/RTP_Internacional_2016_%28Reduced_Version%29.svg/512px-RTP_Internacional_2016_%28Reduced_Version%29.svg.png"
                    },
                    "sub_77": {
                        "id": 77,
                        "mode": "video",
                        "name_original": "Ski TV",
                        "name": "Channel 77",
                        "sub_name": "",
                        "stream_video_url": "https://d2xeo83q8fcni6.cloudfront.net/v1/master/9d062541f2ff39b5c0f48b743c6411d25f62fc25/SkiTV-SynapseTV/193.m3u8",
                        "thumbnail_url": "https://raw.githubusercontent.com/tvgram-inc/tvgram-inc.github.io/master/images/logo.png",
                        "thumbnail_url_original": "https://i.imgur.com/idKogRi.png"
                    },
                    "sub_78": {
                        "id": 78,
                        "mode": "website",
                        "name_original": "",
                        "name": "Sound Prank",
                        "sub_name": "Funny Sound Pranks (Ad)",
                        "website_url": "https://play.google.com/store/apps/details?id=com.airhorn.sounds.pranks",
                        "is_system_browser": true,
                        "thumbnail_url": "https://play-lh.googleusercontent.com/CPgsxnjr_o73B1-GW-mCeFQ47BOaY_sKFSO85JYurcs68DYz0tYQ0HqHRKIv22EDmKab=w240-h480-rw",
                        "thumbnail_url_original": ""
                    },
                    "sub_79": {
                        "id": 79,
                        "mode": "video",
                        "name_original": "Sofy TV",
                        "name": "Channel 79",
                        "sub_name": "",
                        "stream_video_url": "https://sofy-ger-samsung.amagi.tv/playlist.m3u8",
                        "thumbnail_url": "https://raw.githubusercontent.com/tvgram-inc/tvgram-inc.github.io/master/images/logo.png",
                        "thumbnail_url_original": "https://i.imgur.com/Srxa6cR.png"
                    },
                    "sub_80": {
                        "id": 80,
                        "mode": "video",
                        "name_original": "Tea TV 2",
                        "name": "Channel 80",
                        "sub_name": "",
                        "stream_video_url": "https://livefta.malimarcdn.com/ftaedge00/teatv2.sdp/playlist.m3u8",
                        "thumbnail_url": "https://raw.githubusercontent.com/tvgram-inc/tvgram-inc.github.io/master/images/logo.png",
                        "thumbnail_url_original": "https://i.imgur.com/u6SMbOQ.jpg"
                    },
                    "sub_81": {
                        "id": 81,
                        "mode": "website",
                        "name_original": "",
                        "name": "Maxico IPTV LIST",
                        "sub_name": "Mexican Free Channel Playlist (Ad)",
                        "website_url": "https://play.google.com/store/apps/details?id=com.bitlinks.maxico.iptv.m3ulist",
                        "is_system_browser": true,
                        "thumbnail_url": "https://play-lh.googleusercontent.com/zppwv1My0OZGZBIJSWcgvxjDpJDNWYnPZlJTZKErpbraj9X1jUqfqfwDK_n5H8wDi_E=w240-h480-rw",
                        "thumbnail_url_original": ""
                    },
                    "sub_82": {
                        "id": 82,
                        "mode": "video",
                        "name_original": "Tea TV",
                        "name": "Channel 82",
                        "sub_name": "",
                        "stream_video_url": "https://livefta.malimarcdn.com/ftaedge00/teatv.sdp/playlist.m3u8",
                        "thumbnail_url": "https://raw.githubusercontent.com/tvgram-inc/tvgram-inc.github.io/master/images/logo.png",
                        "thumbnail_url_original": "https://i.imgur.com/WorbnyD.jpg"
                    },
                    "sub_83": {
                        "id": 83,
                        "mode": "video",
                        "name_original": "Three Angels Broadcasting Network International",
                        "name": "Channel 83",
                        "sub_name": "",
                        "stream_video_url": "https://3abn-live.akamaized.net/hls/live/2010544/International/master.m3u8",
                        "thumbnail_url": "https://raw.githubusercontent.com/tvgram-inc/tvgram-inc.github.io/master/images/logo.png",
                        "thumbnail_url_original": "https://i.imgur.com/vhb8zvB.png"
                    },
                    "sub_84": {
                        "id": 84,
                        "mode": "website",
                        "name_original": "",
                        "name": "prekrasnyy Random Video calls",
                        "sub_name": "Russian Random Video calling app (Ad)",
                        "website_url": "https://play.google.com/store/apps/details?id=com.minichat.prekrasnyy.videochat",
                        "is_system_browser": true,
                        "thumbnail_url": "https://play-lh.googleusercontent.com/m9zQM36OeQZ9bTgGAEf6MD9XXYnV0O8CpyToLKq0R3CoEwpYnosXJIahyWS3if8-8KE=w240-h480-rw",
                        "thumbnail_url_original": ""
                    },
                    "sub_85": {
                        "id": 85,
                        "mode": "video",
                        "name_original": "Tien Giang",
                        "name": "Channel 85",
                        "sub_name": "",
                        "stream_video_url": "http://thtg.vn:8001/thtg.m3u8",
                        "thumbnail_url": "https://raw.githubusercontent.com/tvgram-inc/tvgram-inc.github.io/master/images/logo.png",
                        "thumbnail_url_original": "https://www.lyngsat.com/logo/tv/tt/tien_giang_tv.png"
                    },
                    "sub_86": {
                        "id": 86,
                        "mode": "video",
                        "name_original": "TRT World",
                        "name": "Channel 86",
                        "sub_name": "",
                        "stream_video_url": "https://tv-trtworld.live.trt.com.tr/master.m3u8",
                        "thumbnail_url": "https://raw.githubusercontent.com/tvgram-inc/tvgram-inc.github.io/master/images/logo.png",
                        "thumbnail_url_original": "https://upload.wikimedia.org/wikipedia/commons/thumb/2/27/TRT_World.svg/512px-TRT_World.svg.png"
                    },
                    "sub_87": {
                        "id": 87,
                        "mode": "website",
                        "name_original": "",
                        "name": "Australia Random Video chats",
                        "sub_name": "Australi Random Video calls (Ad)",
                        "website_url": "https://play.google.com/store/apps/details?id=com.live.videochats.australia",
                        "is_system_browser": true,
                        "thumbnail_url": "https://play-lh.googleusercontent.com/VFvH1S1yfHI_osKbalY-jUTZAYN_DZc9rBtiqubyM1FhxqCNARZNYegJHjqAAbsboFTN=w240-h480-rw",
                        "thumbnail_url_original": ""
                    },
                    "sub_88": {
                        "id": 88,
                        "mode": "video",
                        "name_original": "TV5 Monde Asie",
                        "name": "Channel 88",
                        "sub_name": "",
                        "stream_video_url": "http://210.210.155.37/dr9445/s/s24/index.m3u8",
                        "thumbnail_url": "https://raw.githubusercontent.com/tvgram-inc/tvgram-inc.github.io/master/images/logo.png",
                        "thumbnail_url_original": "https://cms.dmpcdn.com/livetv/2022/01/18/ca2f0180-7814-11ec-8fd5-c549a9b471b9_webp_original.png"
                    },
                    "sub_89": {
                        "id": 89,
                        "mode": "video",
                        "name_original": "TVE Internacional Asia-Oceania",
                        "name": "Channel 89",
                        "sub_name": "",
                        "stream_video_url": "http://210.210.155.37/uq2663/h/h158/index2.m3u8",
                        "thumbnail_url": "https://raw.githubusercontent.com/tvgram-inc/tvgram-inc.github.io/master/images/logo.png",
                        "thumbnail_url_original": "https://upload.wikimedia.org/wikipedia/commons/thumb/8/83/Logo_TVE-Internacional.svg/512px-Logo_TVE-Internacional.svg.png"
                    },
                    "sub_90": {
                        "id": 90,
                        "mode": "website",
                        "name_original": "",
                        "name": "lieblich Random Video calls",
                        "sub_name": "German Random Video calling app (Ad)",
                        "website_url": "https://play.google.com/store/apps/details?id=com.minichat.lieblich.live.videochat",
                        "is_system_browser": true,
                        "thumbnail_url": "https://play-lh.googleusercontent.com/hT_MT0HxTlmkJVKTn5CuOrJrlZaEsG6WWRx2iqXkoSlP0HTINXseOLDJ9UJO1wowUMQ=w240-h480-rw",
                        "thumbnail_url_original": ""
                    },
                    "sub_91": {
                        "id": 91,
                        "mode": "video",
                        "name_original": "TVM Internacional",
                        "name": "Channel 91",
                        "sub_name": "",
                        "stream_video_url": "http://online.tvm.co.mz:1935/live/smil:Channel2.smil/playlist.m3u8",
                        "thumbnail_url": "https://raw.githubusercontent.com/tvgram-inc/tvgram-inc.github.io/master/images/logo.png",
                        "thumbnail_url_original": "https://i.imgur.com/Ns3WrOQ.png"
                    },
                    "sub_92": {
                        "id": 92,
                        "mode": "video",
                        "name_original": "tvN Asia",
                        "name": "Channel 92",
                        "sub_name": "",
                        "stream_video_url": "http://210.210.155.37/dr9445/h/h20/index.m3u8",
                        "thumbnail_url": "https://raw.githubusercontent.com/tvgram-inc/tvgram-inc.github.io/master/images/logo.png",
                        "thumbnail_url_original": "https://upload.wikimedia.org/wikipedia/commons/thumb/6/67/Logo_tvN.svg/512px-Logo_tvN.svg.png"
                    },
                    "sub_93": {
                        "id": 93,
                        "mode": "website",
                        "name_original": "",
                        "name": "Netherlands IPTV LIST",
                        "sub_name": "Netherlands Free Channel Playlist (Ad)",
                        "website_url": "https://play.google.com/store/apps/details?id=com.bitlinks.netherland.iptv.m3ulist",
                        "is_system_browser": true,
                        "thumbnail_url": "https://play-lh.googleusercontent.com/sk7fZk8NtKudJs2k8g3I8Uf7Jp4AnNdaWK7jrzGj23xwrZZ6sN_URzbhncVclubMHyI=w240-h480-rw",
                        "thumbnail_url_original": ""
                    },
                    "sub_94": {
                        "id": 94,
                        "mode": "video",
                        "name_original": "UN Web TV",
                        "name": "Channel 94",
                        "sub_name": "",
                        "stream_video_url": "https://cdnapi.kaltura.com/p/2503451/sp/250345100/playManifest/entryId/1_gb6tjmle/protocol/https/format/applehttp/a.m3u8",
                        "thumbnail_url": "https://raw.githubusercontent.com/tvgram-inc/tvgram-inc.github.io/master/images/logo.png",
                        "thumbnail_url_original": "https://i.imgur.com/lPyJhBN.png"
                    },
                    "sub_95": {
                        "id": 95,
                        "mode": "video",
                        "name_original": "Uniquely Thai",
                        "name": "Channel 95",
                        "sub_name": "",
                        "stream_video_url": "https://livefta.malimarcdn.com/ftaedge00/uniquely.sdp/playlist.m3u8",
                        "thumbnail_url": "https://raw.githubusercontent.com/tvgram-inc/tvgram-inc.github.io/master/images/logo.png",
                        "thumbnail_url_original": "https://i.imgur.com/6ucVzse.png"
                    },
                    "sub_96": {
                        "id": 96,
                        "mode": "website",
                        "name_original": "",
                        "name": "mono Random Video calls",
                        "sub_name": "Mexican Random Video calling app (Ad)",
                        "website_url": "https://play.google.com/store/apps/details?id=com.minichat.mono.videochat.envivo",
                        "is_system_browser": true,
                        "thumbnail_url": "https://play-lh.googleusercontent.com/kMrY-EGCarpaXsI9FcM3Q8KeBnO3kBX_5pCJ2e09sfoRk3uJqGctq3D_A2wl2mW-WY8=w240-h480-rw",
                        "thumbnail_url_original": ""
                    },
                    "sub_97": {
                        "id": 97,
                        "mode": "video",
                        "name_original": "V News",
                        "name": "Channel 97",
                        "sub_name": "",
                        "stream_video_url": "https://16371213858134.vnns.net/ttxvn_abr/playlist.m3u8",
                        "thumbnail_url": "https://raw.githubusercontent.com/tvgram-inc/tvgram-inc.github.io/master/images/logo.png",
                        "thumbnail_url_original": "https://www.lyngsat.com/logo/tv/vv/v_news.png"
                    },
                    "sub_98": {
                        "id": 98,
                        "mode": "video",
                        "name_original": "Vajtswv Txojlus",
                        "name": "Channel 98",
                        "sub_name": "",
                        "stream_video_url": "https://livefta.malimarcdn.com/ftaedge00/vajtswv.stream/playlist.m3u8",
                        "thumbnail_url": "https://raw.githubusercontent.com/tvgram-inc/tvgram-inc.github.io/master/images/logo.png",
                        "thumbnail_url_original": "https://i.imgur.com/n9E2RCH.jpg"
                    },
                    "sub_99": {
                        "id": 99,
                        "mode": "website",
                        "name_original": "",
                        "name": "Spanish Live Tv",
                        "sub_name": "Free Live TV Channels (Ad)",
                        "website_url": "https://play.google.com/store/apps/details?id=com.tvgram.spanishlivetv",
                        "is_system_browser": true,
                        "thumbnail_url": "https://play-lh.googleusercontent.com/Z5TOSShWV4wJp-3ZX8nHV2wvjaltrAmsKsn2qNo0vgXDa-67qZlrQVtIdWzgBXYMcWQ=w240-h480-rw",
                        "thumbnail_url_original": ""
                    },
                    "sub_100": {
                        "id": 100,
                        "mode": "video",
                        "name_original": "VITV",
                        "name": "Channel 100",
                        "sub_name": "",
                        "stream_video_url": "http://210.86.230.202:8134/hls-live/livepkgr/_definst_/liveevent/livestream.m3u8",
                        "thumbnail_url": "https://raw.githubusercontent.com/tvgram-inc/tvgram-inc.github.io/master/images/logo.png",
                        "thumbnail_url_original": "https://i.imgur.com/DZ0Gv8i.png"
                    },
                    "sub_101": {
                        "id": 101,
                        "mode": "video",
                        "name_original": "VTV1",
                        "name": "Channel 101",
                        "sub_name": "",
                        "stream_video_url": "https://vips-livecdn.fptplay.net/hda1/vtv1hd_vhls.smil/chunklist_b5000000.m3u8",
                        "thumbnail_url": "https://raw.githubusercontent.com/tvgram-inc/tvgram-inc.github.io/master/images/logo.png",
                        "thumbnail_url_original": "https://i.imgur.com/zGK64Zf.png"
                    },
                    "sub_102": {
                        "id": 102,
                        "mode": "website",
                        "name_original": "",
                        "name": "Italy IPTV LIST",
                        "sub_name": "Italian Free Channel Playlist (Ad)",
                        "website_url": "https://play.google.com/store/apps/details?id=com.bitlinks.italy.iptv.m3ulist",
                        "is_system_browser": true,
                        "thumbnail_url": "https://play-lh.googleusercontent.com/EgW4JwZzBvlYwIe88W90AcXGhCECBmEnvbu1CW7Fo0TOprNdcSrTY1-Yc6_NmpO_exA=w240-h480-rw",
                        "thumbnail_url_original": ""
                    },
                    "sub_103": {
                        "id": 103,
                        "mode": "video",
                        "name_original": "VTV2",
                        "name": "Channel 103",
                        "sub_name": "",
                        "stream_video_url": "https://vips-livecdn.fptplay.net/hda1/vtv2_vhls.smil/chunklist_b5000000.m3u8",
                        "thumbnail_url": "https://raw.githubusercontent.com/tvgram-inc/tvgram-inc.github.io/master/images/logo.png",
                        "thumbnail_url_original": "https://i.imgur.com/Aepz56c.png"
                    },
                    "sub_104": {
                        "id": 104,
                        "mode": "video",
                        "name_original": "VTV3",
                        "name": "Channel 104",
                        "sub_name": "",
                        "stream_video_url": "https://vips-livecdn.fptplay.net/hda1/vtv3hd_vhls.smil/chunklist_b5000000.m3u8",
                        "thumbnail_url": "https://raw.githubusercontent.com/tvgram-inc/tvgram-inc.github.io/master/images/logo.png",
                        "thumbnail_url_original": "https://i.imgur.com/WgoDGVV.png"
                    },
                    "sub_105": {
                        "id": 105,
                        "mode": "website",
                        "name_original": "",
                        "name": "lovely Random Video calls",
                        "sub_name": "English Random Video calling app (Ad)",
                        "website_url": "https://play.google.com/store/apps/details?id=com.minichat.lovely.random.videochat",
                        "is_system_browser": true,
                        "thumbnail_url": "https://play-lh.googleusercontent.com/nt_ofAKkDgRYPstT2-6tZxelhcUgZH5IRHh6i0pl4ixnwvT_fUsJdbC5io-W7pGtgw=w240-h480-rw",
                        "thumbnail_url_original": ""
                    },
                    "sub_106": {
                        "id": 106,
                        "mode": "video",
                        "name_original": "VTV4",
                        "name": "Channel 106",
                        "sub_name": "",
                        "stream_video_url": "https://vips-livecdn.fptplay.net/hda1/vtv4_vhls.smil/chunklist_b5000000.m3u8",
                        "thumbnail_url": "https://raw.githubusercontent.com/tvgram-inc/tvgram-inc.github.io/master/images/logo.png",
                        "thumbnail_url_original": "https://i.imgur.com/Cy7xwvd.png"
                    },
                    "sub_107": {
                        "id": 107,
                        "mode": "video",
                        "name_original": "VTV5",
                        "name": "Channel 107",
                        "sub_name": "",
                        "stream_video_url": "https://vips-livecdn.fptplay.net/hda2/vtv5hd_vhls.smil/chunklist_b5000000.m3u8",
                        "thumbnail_url": "https://raw.githubusercontent.com/tvgram-inc/tvgram-inc.github.io/master/images/logo.png",
                        "thumbnail_url_original": "https://i.imgur.com/KfPiaKG.png"
                    },
                    "sub_108": {
                        "id": 108,
                        "mode": "website",
                        "name_original": "",
                        "name": "Random Video calls",
                        "sub_name": "Free Random Video calling App (Ad)",
                        "website_url": "https://play.google.com/store/apps/details?id=com.booya.videochat",
                        "is_system_browser": true,
                        "thumbnail_url": "https://play-lh.googleusercontent.com/OwvRNTvvyUo8g9MQUdJJBGT_cL4S7ObS_xCyzwHYTS-rLrapbZzD1cQYowyHy-uVgw=w240-h480-rw",
                        "thumbnail_url_original": ""
                    },
                    "sub_109": {
                        "id": 109,
                        "mode": "video",
                        "name_original": "VTV6",
                        "name": "Channel 109",
                        "sub_name": "",
                        "stream_video_url": "https://vips-livecdn.fptplay.net/hda1/vtv6hd_vhls.smil/chunklist_b5000000.m3u8",
                        "thumbnail_url": "https://raw.githubusercontent.com/tvgram-inc/tvgram-inc.github.io/master/images/logo.png",
                        "thumbnail_url_original": "https://i.imgur.com/jLV7C18.png"
                    },
                    "sub_110": {
                        "id": 110,
                        "mode": "video",
                        "name_original": "VTV7",
                        "name": "Channel 110",
                        "sub_name": "",
                        "stream_video_url": "https://vips-livecdn.fptplay.net/hda3/vtv7hd_vhls.smil/chunklist_b5000000.m3u8",
                        "thumbnail_url": "https://raw.githubusercontent.com/tvgram-inc/tvgram-inc.github.io/master/images/logo.png",
                        "thumbnail_url_original": "https://i.imgur.com/mViSmaB.png"
                    },
                    "sub_111": {
                        "id": 111,
                        "mode": "website",
                        "name_original": "",
                        "name": "Ukraine IPTV LIST",
                        "sub_name": "Ukranian Free Channel Playlist (Ad)",
                        "website_url": "https://play.google.com/store/apps/details?id=com.bitlinks.ukrain.iptv.m3ulist",
                        "is_system_browser": true,
                        "thumbnail_url": "https://play-lh.googleusercontent.com/HNuGB9gHaaziSMWur3I-KDksb9jL5GWOtKfEDCzdX3TCdRXNUOVdxtxMr0pW5Q0Bpug=w240-h480-rw",
                        "thumbnail_url_original": ""
                    },
                    "sub_112": {
                        "id": 112,
                        "mode": "video",
                        "name_original": "VTV8",
                        "name": "Channel 112",
                        "sub_name": "",
                        "stream_video_url": "https://vips-livecdn.fptplay.net/hda2/vtv8hd_vhls.smil/chunklist_b5000000.m3u8",
                        "thumbnail_url": "https://raw.githubusercontent.com/tvgram-inc/tvgram-inc.github.io/master/images/logo.png",
                        "thumbnail_url_original": "https://i.imgur.com/VLHmEqh.png"
                    },
                    "sub_113": {
                        "id": 113,
                        "mode": "video",
                        "name_original": "VTV9",
                        "name": "Channel 113",
                        "sub_name": "",
                        "stream_video_url": "https://vips-livecdn.fptplay.net/hda2/vtv9_vhls.smil/chunklist_b5000000.m3u8",
                        "thumbnail_url": "https://raw.githubusercontent.com/tvgram-inc/tvgram-inc.github.io/master/images/logo.png",
                        "thumbnail_url_original": "https://i.imgur.com/X2t4bbg.png"
                    },
                    "sub_114": {
                        "id": 114,
                        "mode": "website",
                        "name_original": "",
                        "name": "Portuguese IPTV LIST",
                        "sub_name": "Portuguese Free Channel Playlist (Ad)",
                        "website_url": "https://play.google.com/store/apps/details?id=com.bitlinks.portuguese.iptv.m3ulist",
                        "is_system_browser": true,
                        "thumbnail_url": "https://play-lh.googleusercontent.com/2Hbp1bNX5Lk3Bx7mi0EGcWWA49PdwAWiT0-PcbVDDqSahwIxjpxk_AUbrsNiUDscLMw=w240-h480-rw",
                        "thumbnail_url_original": ""
                    },
                    "sub_115": {
                        "id": 115,
                        "mode": "video",
                        "name_original": "World Fashion Channel International",
                        "name": "Channel 115",
                        "sub_name": "",
                        "stream_video_url": "https://wfcint.mediacdn.ru/cdn/wfcintweb/playlist.m3u8",
                        "thumbnail_url": "https://raw.githubusercontent.com/tvgram-inc/tvgram-inc.github.io/master/images/logo.png",
                        "thumbnail_url_original": "https://i.imgur.com/D46u7eW.png"
                    },
                    "sub_116": {
                        "id": 116,
                        "mode": "video",
                        "name_original": "World Poker Tour",
                        "name": "Channel 116",
                        "sub_name": "",
                        "stream_video_url": "https://d3w4n3hhseniak.cloudfront.net/v1/master/9d062541f2ff39b5c0f48b743c6411d25f62fc25/WPT-DistroTV/150.m3u8",
                        "thumbnail_url": "https://raw.githubusercontent.com/tvgram-inc/tvgram-inc.github.io/master/images/logo.png",
                        "thumbnail_url_original": "https://images.pluto.tv/channels/5f8ecfb9db6c180007a6d1b0/colorLogoPNG.png"
                    }
                }
            }
        }
    }
}