{
    "TV_Data": {
        "Channel_List": {
            "is_channel_list": true,
            "is_override": true,
            "thumb_width": 150,
            "all_Channels_Tab_Name": "",
            "main": {
                "id": 1,
                "name": "New Zealand Channels",
                "sub_name": "Channels",
                "thumbnail_url": "https://flagpedia.net//data/flags/h80/nz.png",
                "sub": {
                    "sub_1": {
                        "id": 1,
                        "mode": "video",
                        "name_original": "Channel 1",
                        "name": "Ausbiz TV",
                        "sub_name": "",
                        "stream_video_url": "https://ausbiztv-ausbiz-1-nz.samsung.wurl.tv/playlist.m3u8",
                        "thumbnail_url": null,
                        "thumbnail_url_original": "https://raw.githubusercontent.com/tvgram-inc/tvgram-inc.github.io/master/images/logo.png"
                    },
                    "sub_2": {
                        "id": 2,
                        "mode": "video",
                        "name_original": "Channel 2",
                        "name": "BabyTV",
                        "sub_name": "",
                        "stream_video_url": "http://194.163.179.246/slovenci/djeciji/babytv.m3u8",
                        "thumbnail_url": "https://upload.wikimedia.org/wikipedia/en/4/45/BabyTV.png",
                        "thumbnail_url_original": "https://raw.githubusercontent.com/tvgram-inc/tvgram-inc.github.io/master/images/logo.png"
                    },
                    "sub_3": {
                        "id": 3,
                        "mode": "website",
                        "name_original": "",
                        "name": "Adult Free IPTV",
                        "sub_name": "Free Hot X IPTV Playlist (Ad)",
                        "website_url": "https://play.google.com/store/apps/details?id=com.adult.iptv.hot.playlist",
                        "is_system_browser": true,
                        "thumbnail_url": "https://play-lh.googleusercontent.com/DFrL4OmwEWMQnRjs9tBcekNn6DYrlehENI0aAD5XphVvenROVKOon7sfLf84YhmyM08=w240-h480-rw",
                        "thumbnail_url_original": ""
                    },
                    "sub_4": {
                        "id": 4,
                        "mode": "video",
                        "name_original": "Channel 4",
                        "name": "Bahrain International",
                        "sub_name": "",
                        "stream_video_url": "https://5c7b683162943.streamlock.net/live/ngrp:bahraininternational_all/playlist.m3u8",
                        "thumbnail_url": "https://www.lyngsat.com/logo/tv/bb/bahrain_tv_international.png",
                        "thumbnail_url_original": "https://raw.githubusercontent.com/tvgram-inc/tvgram-inc.github.io/master/images/logo.png"
                    },
                    "sub_5": {
                        "id": 5,
                        "mode": "video",
                        "name_original": "Channel 5",
                        "name": "BBC News HD",
                        "sub_name": "",
                        "stream_video_url": "https://cdnuk001.broadcastcdn.net/KUK-BBCNEWSHD/index.m3u8",
                        "thumbnail_url": "https://i.imgur.com/rPzH88J.png",
                        "thumbnail_url_original": "https://raw.githubusercontent.com/tvgram-inc/tvgram-inc.github.io/master/images/logo.png"
                    },
                    "sub_6": {
                        "id": 6,
                        "mode": "website",
                        "name_original": "",
                        "name": "USA Live TV",
                        "sub_name": "Free Live TV Channels (Ad)",
                        "website_url": "https://play.google.com/store/apps/details?id=com.tvgram.usalivetv",
                        "is_system_browser": true,
                        "thumbnail_url": "https://play-lh.googleusercontent.com/6VtBPY8-Yq-DmTW_rEfKbxVC_6EY-bZx7QXTetHmqMM2tNvL7TXITbfjkGPMXIGaNbI=w240-h480-rw",
                        "thumbnail_url_original": ""
                    },
                    "sub_7": {
                        "id": 7,
                        "mode": "video",
                        "name_original": "Channel 7",
                        "name": "BeritaSatu World",
                        "sub_name": "",
                        "stream_video_url": "https://b1world.beritasatumedia.com/Beritasatu/B1World_manifest.m3u8",
                        "thumbnail_url": "https://upload.wikimedia.org/wikipedia/commons/thumb/f/f1/BeritaSatuWorld.png/512px-BeritaSatuWorld.png",
                        "thumbnail_url_original": "https://raw.githubusercontent.com/tvgram-inc/tvgram-inc.github.io/master/images/logo.png"
                    },
                    "sub_8": {
                        "id": 8,
                        "mode": "video",
                        "name_original": "Channel 8",
                        "name": "Bite",
                        "sub_name": "",
                        "stream_video_url": "https://cdn-apse1-prod.tsv2.amagi.tv/linear/amg01478-parademediagrou-bitenz-samsungnz/playlist.m3u8",
                        "thumbnail_url": null,
                        "thumbnail_url_original": "https://raw.githubusercontent.com/tvgram-inc/tvgram-inc.github.io/master/images/logo.png"
                    },
                    "sub_9": {
                        "id": 9,
                        "mode": "website",
                        "name_original": "",
                        "name": "World m3u List",
                        "sub_name": "World Free Live TV Channels (Ad)",
                        "website_url": "https://play.google.com/store/apps/details?id=com.iptv.m3u.playlists",
                        "is_system_browser": true,
                        "thumbnail_url": "https://play-lh.googleusercontent.com/8mPNKodK65zCjQHS8aqF4o0cX9YlKZYN-3qYCd9oMlcTkGaAf_3AxB0vnE9Kud6bPw=w240-h480-rw",
                        "thumbnail_url_original": ""
                    },
                    "sub_10": {
                        "id": 10,
                        "mode": "video",
                        "name_original": "Channel 10",
                        "name": "Bloomberg Quicktake",
                        "sub_name": "",
                        "stream_video_url": "https://bloomberg-quicktake-4-nz.samsung.wurl.tv/playlist.m3u8",
                        "thumbnail_url": null,
                        "thumbnail_url_original": "https://raw.githubusercontent.com/tvgram-inc/tvgram-inc.github.io/master/images/logo.png"
                    },
                    "sub_11": {
                        "id": 11,
                        "mode": "video",
                        "name_original": "Channel 11",
                        "name": "Bloomberg TV",
                        "sub_name": "",
                        "stream_video_url": "https://bloomberg-bloomberg-2-nz.samsung.wurl.tv/playlist.m3u8",
                        "thumbnail_url": null,
                        "thumbnail_url_original": "https://raw.githubusercontent.com/tvgram-inc/tvgram-inc.github.io/master/images/logo.png"
                    },
                    "sub_12": {
                        "id": 12,
                        "mode": "website",
                        "name_original": "",
                        "name": "YoYo Video calls",
                        "sub_name": "Free Live TV Channels (Ad)",
                        "website_url": "https://play.google.com/store/apps/details?id=com.yoyolive.llc",
                        "is_system_browser": true,
                        "thumbnail_url": "https://play-lh.googleusercontent.com/33_mPNzvE6WRV6czGRm8EhSrSh0G9wnRQRfMXfcqQLU8j3z4UYu7nrgw5SmaP9UFf0U=s48-rw",
                        "thumbnail_url_original": ""
                    },
                    "sub_13": {
                        "id": 13,
                        "mode": "video",
                        "name_original": "Channel 13",
                        "name": "Bloomberg TV Asia",
                        "sub_name": "",
                        "stream_video_url": "https://bloomberg.com/media-manifest/streams/asia.m3u8",
                        "thumbnail_url": "https://upload.wikimedia.org/wikipedia/commons/3/3b/Bloomberg_Television_2016.png",
                        "thumbnail_url_original": "https://raw.githubusercontent.com/tvgram-inc/tvgram-inc.github.io/master/images/logo.png"
                    },
                    "sub_14": {
                        "id": 14,
                        "mode": "video",
                        "name_original": "Channel 14",
                        "name": "Bloomberg TV Asia Live Event",
                        "sub_name": "",
                        "stream_video_url": "https://bloomberg.com/media-manifest/streams/asia-event.m3u8",
                        "thumbnail_url": "https://upload.wikimedia.org/wikipedia/commons/3/3b/Bloomberg_Television_2016.png",
                        "thumbnail_url_original": "https://raw.githubusercontent.com/tvgram-inc/tvgram-inc.github.io/master/images/logo.png"
                    },
                    "sub_15": {
                        "id": 15,
                        "mode": "website",
                        "name_original": "",
                        "name": "Pocket IPTV",
                        "sub_name": "Free Live TV Channels (Ad)",
                        "website_url": "https://play.google.com/store/apps/details?id=com.pocketiptv",
                        "is_system_browser": true,
                        "thumbnail_url": "https://play-lh.googleusercontent.com/DviEA28-3k_q7mb1mbF8ZMRdYNRmqEGYMzQ3SJnSdEo5hRkFmxgpr2uKb1z8wnsCpcU=w240-h480-rw",
                        "thumbnail_url_original": ""
                    },
                    "sub_16": {
                        "id": 16,
                        "mode": "video",
                        "name_original": "Channel 16",
                        "name": "Bounty",
                        "sub_name": "",
                        "stream_video_url": "https://bountyfilms-bounty-1-nz.samsung.wurl.tv/playlist.m3u8",
                        "thumbnail_url": null,
                        "thumbnail_url_original": "https://raw.githubusercontent.com/tvgram-inc/tvgram-inc.github.io/master/images/logo.png"
                    },
                    "sub_17": {
                        "id": 17,
                        "mode": "video",
                        "name_original": "Channel 17",
                        "name": "Breeze TV",
                        "sub_name": "",
                        "stream_video_url": "https://livestreamdirect-breezetv.mediaworks.nz/breezetv.m3u8",
                        "thumbnail_url": "https://i.imgur.com/3dpH9XF.jpg",
                        "thumbnail_url_original": "https://raw.githubusercontent.com/tvgram-inc/tvgram-inc.github.io/master/images/logo.png"
                    },
                    "sub_18": {
                        "id": 18,
                        "mode": "website",
                        "name_original": "",
                        "name": "France Live Tv",
                        "sub_name": "Free Live TV Channels (Ad)",
                        "website_url": "https://play.google.com/store/apps/details?id=com.tvgram.francelivetv",
                        "is_system_browser": true,
                        "thumbnail_url": "https://play-lh.googleusercontent.com/WoPxNu1ZO7bHJvi32q-CNLVZyVXqqMBtTBqY8Dh71icnw6xJAG8ZYfwzli26KyjN5W9_=w240-h480-rw",
                        "thumbnail_url_original": ""
                    },
                    "sub_19": {
                        "id": 19,
                        "mode": "video",
                        "name_original": "Channel 19",
                        "name": "CGTN",
                        "sub_name": "",
                        "stream_video_url": "https://news.cgtn.com/resource/live/english/cgtn-news.m3u8",
                        "thumbnail_url": "https://upload.wikimedia.org/wikipedia/commons/thumb/8/81/CGTN.svg/512px-CGTN.svg.png",
                        "thumbnail_url_original": "https://raw.githubusercontent.com/tvgram-inc/tvgram-inc.github.io/master/images/logo.png"
                    },
                    "sub_20": {
                        "id": 20,
                        "mode": "video",
                        "name_original": "Channel 20",
                        "name": "CGTN Documentary",
                        "sub_name": "",
                        "stream_video_url": "http://39.135.138.59:18890/PLTV/88888910/224/3221225645/index.m3u8",
                        "thumbnail_url": "https://upload.wikimedia.org/wikipedia/commons/d/d6/CGTN_Documentary_logo.png",
                        "thumbnail_url_original": "https://raw.githubusercontent.com/tvgram-inc/tvgram-inc.github.io/master/images/logo.png"
                    },
                    "sub_21": {
                        "id": 21,
                        "mode": "website",
                        "name_original": "",
                        "name": "India Live TV",
                        "sub_name": "Free Live TV Channels (Ad)",
                        "website_url": "https://play.google.com/store/apps/details?id=com.tvgram.brazillivetv",
                        "is_system_browser": true,
                        "thumbnail_url": "https://play-lh.googleusercontent.com/bDQlYcVEfFfB5uDSRYWYeLiXpb68C5xJ_bko-Fhdvmu7Ooet80_J6yCfntLE8uVMMQ=w240-h480-rw",
                        "thumbnail_url_original": ""
                    },
                    "sub_22": {
                        "id": 22,
                        "mode": "video",
                        "name_original": "Channel 22",
                        "name": "CineView",
                        "sub_name": "",
                        "stream_video_url": "https://cdn-apse1-prod.tsv2.amagi.tv/linear/amg01076-lightningintern-rialto-samsungnz/playlist.m3u8",
                        "thumbnail_url": null,
                        "thumbnail_url_original": "https://raw.githubusercontent.com/tvgram-inc/tvgram-inc.github.io/master/images/logo.png"
                    },
                    "sub_23": {
                        "id": 23,
                        "mode": "video",
                        "name_original": "Channel 23",
                        "name": "Classic Arts Showcase",
                        "sub_name": "",
                        "stream_video_url": "https://classicarts.akamaized.net/hls/live/1024257/CAS/master.m3u8",
                        "thumbnail_url": "https://i.imgur.com/M6FFkc3.png",
                        "thumbnail_url_original": "https://raw.githubusercontent.com/tvgram-inc/tvgram-inc.github.io/master/images/logo.png"
                    },
                    "sub_24": {
                        "id": 24,
                        "mode": "website",
                        "name_original": "",
                        "name": "Canada IPTV LIST",
                        "sub_name": "Canada Free Channel Playlist (Ad)",
                        "website_url": "https://play.google.com/store/apps/details?id=com.bitlinks.canada.iptv.m3ulist",
                        "is_system_browser": true,
                        "thumbnail_url": "https://play-lh.googleusercontent.com/kwcO0pT77BLdDvudr9SJnWi5TCAcPnbKrCnCH3dp6mHpGtlChWZVOxfvFEp1zA_DW90=w240-h480-rw",
                        "thumbnail_url_original": ""
                    },
                    "sub_25": {
                        "id": 25,
                        "mode": "video",
                        "name_original": "Channel 25",
                        "name": "Clubbing TV",
                        "sub_name": "",
                        "stream_video_url": "https://clubbingtv-samsungnz.amagi.tv/playlist.m3u8",
                        "thumbnail_url": null,
                        "thumbnail_url_original": "https://raw.githubusercontent.com/tvgram-inc/tvgram-inc.github.io/master/images/logo.png"
                    },
                    "sub_26": {
                        "id": 26,
                        "mode": "video",
                        "name_original": "Channel 26",
                        "name": "CNA International",
                        "sub_name": "",
                        "stream_video_url": "https://d2e1asnsl7br7b.cloudfront.net/7782e205e72f43aeb4a48ec97f66ebbe/index.m3u8",
                        "thumbnail_url": "https://upload.wikimedia.org/wikipedia/commons/thumb/8/83/CNA_new_logo.svg/512px-CNA_new_logo.svg.png",
                        "thumbnail_url_original": "https://raw.githubusercontent.com/tvgram-inc/tvgram-inc.github.io/master/images/logo.png"
                    },
                    "sub_27": {
                        "id": 27,
                        "mode": "website",
                        "name_original": "",
                        "name": "India IPTV LIST",
                        "sub_name": "Indian Free Channel Playlist (Ad)",
                        "website_url": "https://play.google.com/store/apps/details?id=com.bitlinks.india.iptv.m3ulist",
                        "is_system_browser": true,
                        "thumbnail_url": "https://play-lh.googleusercontent.com/l3rJ2qzJtRFzqUzr55ano_WEhcDx5YznwIpd7uRVxooEbOW5444QY8HeeZbiZhd4Ayc=w240-h480-rw",
                        "thumbnail_url_original": ""
                    },
                    "sub_28": {
                        "id": 28,
                        "mode": "video",
                        "name_original": "Channel 28",
                        "name": "Drybar Comedy",
                        "sub_name": "",
                        "stream_video_url": "https://drybar-drybarcomedy-1-nz.samsung.wurl.tv/playlist.m3u8",
                        "thumbnail_url": null,
                        "thumbnail_url_original": "https://raw.githubusercontent.com/tvgram-inc/tvgram-inc.github.io/master/images/logo.png"
                    },
                    "sub_29": {
                        "id": 29,
                        "mode": "video",
                        "name_original": "Channel 29",
                        "name": "Dust",
                        "sub_name": "",
                        "stream_video_url": "https://cdn-apse1-prod.tsv2.amagi.tv/linear/amg00219-gunpowdersky-dustintlnz-samsungnz/playlist.m3u8",
                        "thumbnail_url": null,
                        "thumbnail_url_original": "https://raw.githubusercontent.com/tvgram-inc/tvgram-inc.github.io/master/images/logo.png"
                    },
                    "sub_30": {
                        "id": 30,
                        "mode": "website",
                        "name_original": "",
                        "name": "Cash Counter",
                        "sub_name": "Easy Money Count (Ad)",
                        "website_url": "https://play.google.com/store/apps/details?id=com.money_count_save",
                        "is_system_browser": true,
                        "thumbnail_url": "https://play-lh.googleusercontent.com/kB7MXSAbO8vKrfbnM8QrzIcNbNm2tWH8rImp5xsIZY1lwKqK3FkNkEFRQpyskJliEbQ=w240-h480-rw",
                        "thumbnail_url_original": ""
                    },
                    "sub_31": {
                        "id": 31,
                        "mode": "video",
                        "name_original": "Channel 31",
                        "name": "DW English",
                        "sub_name": "",
                        "stream_video_url": "https://dwamdstream102.akamaized.net/hls/live/2015525/dwstream102/index.m3u8",
                        "thumbnail_url": "https://i.imgur.com/A1xzjOI.png",
                        "thumbnail_url_original": "https://raw.githubusercontent.com/tvgram-inc/tvgram-inc.github.io/master/images/logo.png"
                    },
                    "sub_32": {
                        "id": 32,
                        "mode": "video",
                        "name_original": "Channel 32",
                        "name": "ERT World",
                        "sub_name": "",
                        "stream_video_url": "http://wpso.com:1936/hls/wzra.m3u8",
                        "thumbnail_url": "https://upload.wikimedia.org/wikipedia/commons/thumb/b/bc/ChannelLogo-ERTWORLD1.png/512px-ChannelLogo-ERTWORLD1.png",
                        "thumbnail_url_original": "https://raw.githubusercontent.com/tvgram-inc/tvgram-inc.github.io/master/images/logo.png"
                    },
                    "sub_33": {
                        "id": 33,
                        "mode": "website",
                        "name_original": "",
                        "name": "mirende Random Video calls",
                        "sub_name": "Chinese Random Video calling app (Ad)",
                        "website_url": "https://play.google.com/store/apps/details?id=com.minichat.mirende.shipin",
                        "is_system_browser": true,
                        "thumbnail_url": "https://play-lh.googleusercontent.com/pE3eAvKn9TiXM_3-2YTKAmDStyipNhXAwNMrx1D9S6rAXT6PT5y8JxRZnKOaJhHy9Uc=w240-h480-rw",
                        "thumbnail_url_original": ""
                    },
                    "sub_34": {
                        "id": 34,
                        "mode": "video",
                        "name_original": "Channel 34",
                        "name": "ETB Basque",
                        "sub_name": "",
                        "stream_video_url": "https://multimedia.eitb.eus/live-content/eitbbasque-hls/master.m3u8",
                        "thumbnail_url": "https://upload.wikimedia.org/wikipedia/commons/thumb/c/ca/ETB_Basque_2022_logo.svg/512px-ETB_Basque_2022_logo.svg.png",
                        "thumbnail_url_original": "https://raw.githubusercontent.com/tvgram-inc/tvgram-inc.github.io/master/images/logo.png"
                    },
                    "sub_35": {
                        "id": 35,
                        "mode": "video",
                        "name_original": "Channel 35",
                        "name": "Euro Indie Music Chart TV",
                        "sub_name": "",
                        "stream_video_url": "http://178.33.224.197:1935/euroindiemusic/euroindiemusic/playlist.m3u8",
                        "thumbnail_url": "https://i.imgur.com/UDFBYpN.png",
                        "thumbnail_url_original": "https://raw.githubusercontent.com/tvgram-inc/tvgram-inc.github.io/master/images/logo.png"
                    },
                    "sub_36": {
                        "id": 36,
                        "mode": "website",
                        "name_original": "",
                        "name": "Free Adult Vids",
                        "sub_name": "Adult  FREE IPTV Playlist (Ad)",
                        "website_url": "https://play.google.com/store/apps/details?id=com.x.iptv.hot.playlist",
                        "is_system_browser": true,
                        "thumbnail_url": "https://play-lh.googleusercontent.com/C13Fw3kBZ6jU-AX6PFlyGMdDZFT9VnmPVUJZrJqqm71Rg9ky5sg5bsifgZvuEefFUw=w240-h480-rw",
                        "thumbnail_url_original": ""
                    },
                    "sub_37": {
                        "id": 37,
                        "mode": "video",
                        "name_original": "Channel 37",
                        "name": "EuroNews",
                        "sub_name": "",
                        "stream_video_url": "https://euronews-euronews-world-1-nz.samsung.wurl.tv/playlist.m3u8",
                        "thumbnail_url": null,
                        "thumbnail_url_original": "https://raw.githubusercontent.com/tvgram-inc/tvgram-inc.github.io/master/images/logo.png"
                    },
                    "sub_38": {
                        "id": 38,
                        "mode": "video",
                        "name_original": "Channel 38",
                        "name": "Euronews German",
                        "sub_name": "",
                        "stream_video_url": "https://euronews.alteox.app/hls/de_stream.m3u8",
                        "thumbnail_url": "https://i.imgur.com/8t9mdg9.png",
                        "thumbnail_url_original": "https://raw.githubusercontent.com/tvgram-inc/tvgram-inc.github.io/master/images/logo.png"
                    },
                    "sub_39": {
                        "id": 39,
                        "mode": "website",
                        "name_original": "",
                        "name": "Turkish IPTV LIST",
                        "sub_name": "Turkish Free Channel Playlist (Ad)",
                        "website_url": "https://play.google.com/store/apps/details?id=com.bitlinks.turkish.iptv.m3ulist",
                        "is_system_browser": true,
                        "thumbnail_url": "https://play-lh.googleusercontent.com/VKeeYL7nYUv-5qnVweTU2onTurMhO6XZj-w2wjfkVd4trGgD6IWpM__Ta2YlSyxgsPQ=w240-h480-rw",
                        "thumbnail_url_original": ""
                    },
                    "sub_40": {
                        "id": 40,
                        "mode": "video",
                        "name_original": "Channel 40",
                        "name": "Euronews Italian",
                        "sub_name": "",
                        "stream_video_url": "https://euronews.alteox.app/hls/it_stream.m3u8",
                        "thumbnail_url": "https://i.imgur.com/8t9mdg9.png",
                        "thumbnail_url_original": "https://raw.githubusercontent.com/tvgram-inc/tvgram-inc.github.io/master/images/logo.png"
                    },
                    "sub_41": {
                        "id": 41,
                        "mode": "video",
                        "name_original": "Channel 41",
                        "name": "Euronews Portuguese",
                        "sub_name": "",
                        "stream_video_url": "https://euronews.alteox.app/hls/pt_stream.m3u8",
                        "thumbnail_url": "https://i.imgur.com/8t9mdg9.png",
                        "thumbnail_url_original": "https://raw.githubusercontent.com/tvgram-inc/tvgram-inc.github.io/master/images/logo.png"
                    },
                    "sub_42": {
                        "id": 42,
                        "mode": "website",
                        "name_original": "",
                        "name": "lyubimiy Random Video calls",
                        "sub_name": "Ukraine Random Video calling app (Ad)",
                        "website_url": "https://play.google.com/store/apps/details?id=com.minichat.lyubimiy.videochat",
                        "is_system_browser": true,
                        "thumbnail_url": "https://play-lh.googleusercontent.com/R93sG4-ovSRJaDNIVx6PaMkfZGATne9MN0S8Ihp7uSgKxaC2qmdXYpYP3GAslVtP5_5f=w240-h480-rw",
                        "thumbnail_url_original": ""
                    },
                    "sub_43": {
                        "id": 43,
                        "mode": "video",
                        "name_original": "Channel 43",
                        "name": "Firstlight",
                        "sub_name": "",
                        "stream_video_url": "https://uni01rtmp.tulix.tv/firstlight/firstlight.smil/playlist.m3u8",
                        "thumbnail_url": "https://i.imgur.com/2TKL6BX.png",
                        "thumbnail_url_original": "https://raw.githubusercontent.com/tvgram-inc/tvgram-inc.github.io/master/images/logo.png"
                    },
                    "sub_44": {
                        "id": 44,
                        "mode": "video",
                        "name_original": "Channel 44",
                        "name": "GB News",
                        "sub_name": "",
                        "stream_video_url": "https://cdn-apse1-prod.tsv2.amagi.tv/linear/amg01076-lightningintern-gbnewsnz-samsungnz/playlist.m3u8",
                        "thumbnail_url": null,
                        "thumbnail_url_original": "https://raw.githubusercontent.com/tvgram-inc/tvgram-inc.github.io/master/images/logo.png"
                    },
                    "sub_45": {
                        "id": 45,
                        "mode": "website",
                        "name_original": "",
                        "name": "Arabic IPTV LIST",
                        "sub_name": "Arabian Free Channel Playlists (Ad)",
                        "website_url": "https://play.google.com/store/apps/details?id=com.bitlinks.arebic.iptv.m3ulist",
                        "is_system_browser": true,
                        "thumbnail_url": "https://play-lh.googleusercontent.com/sGSMoSuytTPbNuMjKFU0omN7y814nhnqYxEHDtwSPNkrAiqCLuH_asc06xb52U5tAoo=w240-h480-rw",
                        "thumbnail_url_original": ""
                    },
                    "sub_46": {
                        "id": 46,
                        "mode": "video",
                        "name_original": "Channel 46",
                        "name": "Gusto TV",
                        "sub_name": "",
                        "stream_video_url": "https://cdn-apse1-prod.tsv2.amagi.tv/linear/amg01077-gustoworldwidem-gustotvnz-samsungnz/playlist.m3u8",
                        "thumbnail_url": null,
                        "thumbnail_url_original": "https://raw.githubusercontent.com/tvgram-inc/tvgram-inc.github.io/master/images/logo.png"
                    },
                    "sub_47": {
                        "id": 47,
                        "mode": "video",
                        "name_original": "Channel 47",
                        "name": "Horse and Country Free",
                        "sub_name": "",
                        "stream_video_url": "https://cdn-apse1-prod.tsv2.amagi.tv/linear/amg00810-horsecountrytvl-hncfreenz-samsungnz/playlist.m3u8",
                        "thumbnail_url": null,
                        "thumbnail_url_original": "https://raw.githubusercontent.com/tvgram-inc/tvgram-inc.github.io/master/images/logo.png"
                    },
                    "sub_48": {
                        "id": 48,
                        "mode": "website",
                        "name_original": "",
                        "name": "Line Video Player",
                        "sub_name": "Best Video Player (Ad)",
                        "website_url": "https://play.google.com/store/apps/details?id=com.line.hdplayer",
                        "is_system_browser": true,
                        "thumbnail_url": "https://play-lh.googleusercontent.com/IPqZNMTj7o1agUs1LkuQ0OJU4Ue_udMnOwxENKdKTaTEL_6GyH1YjS4lfq8hUGCVxGA=w240-h480-rw",
                        "thumbnail_url_original": ""
                    },
                    "sub_49": {
                        "id": 49,
                        "mode": "video",
                        "name_original": "Channel 49",
                        "name": "Insight TV",
                        "sub_name": "",
                        "stream_video_url": "https://cdn-apse1-prod.tsv2.amagi.tv/linear/amg00861-terninternation-insighttvrow-samsungnz/playlist.m3u8",
                        "thumbnail_url": null,
                        "thumbnail_url_original": "https://raw.githubusercontent.com/tvgram-inc/tvgram-inc.github.io/master/images/logo.png"
                    },
                    "sub_50": {
                        "id": 50,
                        "mode": "video",
                        "name_original": "Channel 50",
                        "name": "Insight TV",
                        "sub_name": "",
                        "stream_video_url": "https://insighttv-vizio.amagi.tv/playlist.m3u8",
                        "thumbnail_url": "https://i.imgur.com/7xmaoL0.png",
                        "thumbnail_url_original": "https://raw.githubusercontent.com/tvgram-inc/tvgram-inc.github.io/master/images/logo.png"
                    },
                    "sub_51": {
                        "id": 51,
                        "mode": "website",
                        "name_original": "",
                        "name": "Love Shayari App",
                        "sub_name": "Shayari app for your love ones (Ad)",
                        "website_url": "https://play.google.com/store/apps/details?id=com.real.love.shayari",
                        "is_system_browser": true,
                        "thumbnail_url": "https://play-lh.googleusercontent.com/rs3Xfx9cvLwS1cuq5Hac-Y8c9QACQDDxEKXGBaG5W05EO1c9j8BFkj6GBRwe7u3-PYg=w240-h480-rw",
                        "thumbnail_url_original": ""
                    },
                    "sub_52": {
                        "id": 52,
                        "mode": "video",
                        "name_original": "Channel 52",
                        "name": "Introuble",
                        "sub_name": "",
                        "stream_video_url": "https://cdn-apse1-prod.tsv2.amagi.tv/linear/amg00861-terninternation-introublenz-samsungnz/playlist.m3u8",
                        "thumbnail_url": null,
                        "thumbnail_url_original": "https://raw.githubusercontent.com/tvgram-inc/tvgram-inc.github.io/master/images/logo.png"
                    },
                    "sub_53": {
                        "id": 53,
                        "mode": "video",
                        "name_original": "Channel 53",
                        "name": "InWonder",
                        "sub_name": "",
                        "stream_video_url": "https://cdn-apse1-prod.tsv2.amagi.tv/linear/amg00861-terninternation-inwondernz-samsungnz/playlist.m3u8",
                        "thumbnail_url": null,
                        "thumbnail_url_original": "https://raw.githubusercontent.com/tvgram-inc/tvgram-inc.github.io/master/images/logo.png"
                    },
                    "sub_54": {
                        "id": 54,
                        "mode": "website",
                        "name_original": "",
                        "name": "Live Cricket",
                        "sub_name": "Watch Live Cricket Score (Ad)",
                        "website_url": "https://play.google.com/store/apps/details?id=com.bitmedia.ipl2k22",
                        "is_system_browser": true,
                        "thumbnail_url": "https://play-lh.googleusercontent.com/yAiVkEdk1YbKEvZf6SLujni0dQgA9U2_B86aqt0_k-b2_ASEWjnqdeL-UyNq-GWx1Jc=w240-h480-rw",
                        "thumbnail_url_original": ""
                    },
                    "sub_55": {
                        "id": 55,
                        "mode": "video",
                        "name_original": "Channel 55",
                        "name": "Juice TV",
                        "sub_name": "",
                        "stream_video_url": "https://juicex.nz/hls/mystream.m3u8",
                        "thumbnail_url": "https://i.imgur.com/WaaaW0w.png",
                        "thumbnail_url_original": "https://raw.githubusercontent.com/tvgram-inc/tvgram-inc.github.io/master/images/logo.png"
                    },
                    "sub_56": {
                        "id": 56,
                        "mode": "video",
                        "name_original": "Channel 56",
                        "name": "Kartoon Channel",
                        "sub_name": "",
                        "stream_video_url": "https://cdn-apse1-prod.tsv2.amagi.tv/linear/amg01076-lightningintern-kartoonchannel-samsungnz/playlist.m3u8",
                        "thumbnail_url": null,
                        "thumbnail_url_original": "https://raw.githubusercontent.com/tvgram-inc/tvgram-inc.github.io/master/images/logo.png"
                    },
                    "sub_57": {
                        "id": 57,
                        "mode": "website",
                        "name_original": "",
                        "name": "German Live Tv",
                        "sub_name": "Free Live TV Channels (Ad)",
                        "website_url": "https://play.google.com/store/apps/details?id=com.tvgram.germanlivetv",
                        "is_system_browser": true,
                        "thumbnail_url": "https://play-lh.googleusercontent.com/R56Rq08GnY1LDkWF-kK_ys4FkVokh5qXhBdnIwoO1xe4-b9VQlxlBhIEuygrLCzt5UU=w240-h480-rw",
                        "thumbnail_url_original": ""
                    },
                    "sub_58": {
                        "id": 58,
                        "mode": "video",
                        "name_original": "Channel 58",
                        "name": "KBS World",
                        "sub_name": "",
                        "stream_video_url": "https://kbsworld-ott.akamaized.net/hls/live/2002341/kbsworld/master.m3u8",
                        "thumbnail_url": "https://upload.wikimedia.org/wikipedia/commons/thumb/1/1b/KBS_World_%282009%29.svg/512px-KBS_World_%282009%29.svg.png",
                        "thumbnail_url_original": "https://raw.githubusercontent.com/tvgram-inc/tvgram-inc.github.io/master/images/logo.png"
                    },
                    "sub_59": {
                        "id": 59,
                        "mode": "video",
                        "name_original": "Channel 59",
                        "name": "Kordia TV",
                        "sub_name": "",
                        "stream_video_url": "https://ptvlive.kordia.net.nz/out/v1/3fc2254c865a457c8d7fbbce227a2aae/index.m3u8",
                        "thumbnail_url": "https://i.imgur.com/7FCjq7C.png",
                        "thumbnail_url_original": "https://raw.githubusercontent.com/tvgram-inc/tvgram-inc.github.io/master/images/logo.png"
                    },
                    "sub_60": {
                        "id": 60,
                        "mode": "website",
                        "name_original": "",
                        "name": "English IPTV LIST",
                        "sub_name": "English Free Channel Playlist (Ad)",
                        "website_url": "https://play.google.com/store/apps/details?id=com.bitlinks.english.iptv.m3ulist",
                        "is_system_browser": true,
                        "thumbnail_url": "https://play-lh.googleusercontent.com/xb5LxBYljW-fpj4QcmfpauEPrGIKFw1w8glR4sJYNnGF6KVfJZEw9IzRu9NzlUEVrh4=w240-h480-rw",
                        "thumbnail_url_original": ""
                    },
                    "sub_61": {
                        "id": 61,
                        "mode": "video",
                        "name_original": "Channel 61",
                        "name": "Love Stories TV",
                        "sub_name": "",
                        "stream_video_url": "https://lovestoriestv-lovestoriestv-1-nz.samsung.wurl.tv/playlist.m3u8",
                        "thumbnail_url": null,
                        "thumbnail_url_original": "https://raw.githubusercontent.com/tvgram-inc/tvgram-inc.github.io/master/images/logo.png"
                    },
                    "sub_62": {
                        "id": 62,
                        "mode": "video",
                        "name_original": "Channel 62",
                        "name": "Made in Hollywood",
                        "sub_name": "",
                        "stream_video_url": "https://connection3-ent-nz.samsung.wurl.tv/playlist.m3u8",
                        "thumbnail_url": null,
                        "thumbnail_url_original": "https://raw.githubusercontent.com/tvgram-inc/tvgram-inc.github.io/master/images/logo.png"
                    },
                    "sub_63": {
                        "id": 63,
                        "mode": "website",
                        "name_original": "",
                        "name": "belo Random Video calls",
                        "sub_name": "Portuguese Random Video calling app (Ad)",
                        "website_url": "https://play.google.com/store/apps/details?id=com.minichat.belo.chatde.video",
                        "is_system_browser": true,
                        "thumbnail_url": "https://play-lh.googleusercontent.com/AS5qW9nP6-CGtPNDA59DR6-fg3MhH924N45ScDNSmacthqzrbDb04C4ripDrxpq2Jw=w240-h480-rw",
                        "thumbnail_url_original": ""
                    },
                    "sub_64": {
                        "id": 64,
                        "mode": "video",
                        "name_original": "Channel 64",
                        "name": "Magellen TV",
                        "sub_name": "",
                        "stream_video_url": "https://magellantv-3-nz.samsung.wurl.tv/playlist.m3u8",
                        "thumbnail_url": null,
                        "thumbnail_url_original": "https://raw.githubusercontent.com/tvgram-inc/tvgram-inc.github.io/master/images/logo.png"
                    },
                    "sub_65": {
                        "id": 65,
                        "mode": "video",
                        "name_original": "Channel 65",
                        "name": "Mav TV Motorsports Network",
                        "sub_name": "",
                        "stream_video_url": "https://mavtv-mavtvglobal-1-nz.samsung.wurl.tv/playlist.m3u8",
                        "thumbnail_url": null,
                        "thumbnail_url_original": "https://raw.githubusercontent.com/tvgram-inc/tvgram-inc.github.io/master/images/logo.png"
                    },
                    "sub_66": {
                        "id": 66,
                        "mode": "website",
                        "name_original": "",
                        "name": "Status Savaer",
                        "sub_name": "Status Saver for Whatsapp (Ad)",
                        "website_url": "https://play.google.com/store/apps/details?id=com.appclub.whats.status.saver",
                        "is_system_browser": true,
                        "thumbnail_url": "https://play-lh.googleusercontent.com/K76-feE-GOTDz9SoEWVKtom1ngUVTIPEsQ_damw8lCyaoh77awQifmc4A5wXdSyx84M=w240-h480-rw",
                        "thumbnail_url_original": ""
                    },
                    "sub_67": {
                        "id": 67,
                        "mode": "video",
                        "name_original": "Channel 67",
                        "name": "Metro Globe Network",
                        "sub_name": "",
                        "stream_video_url": "https://edge.medcom.id/live-edge/smil:mgnch.smil/playlist.m3u8",
                        "thumbnail_url": "https://i.imgur.com/NTCI3lf.png",
                        "thumbnail_url_original": "https://raw.githubusercontent.com/tvgram-inc/tvgram-inc.github.io/master/images/logo.png"
                    },
                    "sub_68": {
                        "id": 68,
                        "mode": "video",
                        "name_original": "Channel 68",
                        "name": "MIS Televizija",
                        "sub_name": "",
                        "stream_video_url": "https://5afd52b55ff79.streamlock.net/MISTV/myStream/playlist.m3u8",
                        "thumbnail_url": "https://i.imgur.com/XaXRbxj.png",
                        "thumbnail_url_original": "https://raw.githubusercontent.com/tvgram-inc/tvgram-inc.github.io/master/images/logo.png"
                    },
                    "sub_69": {
                        "id": 69,
                        "mode": "website",
                        "name_original": "",
                        "name": "France IPTV LIST",
                        "sub_name": "France Free Channel Playlist (Ad)",
                        "website_url": "https://play.google.com/store/apps/details?id=com.bitlinks.france.iptv.m3ulist",
                        "is_system_browser": true,
                        "thumbnail_url": "https://play-lh.googleusercontent.com/3JLB6nhz-nLEmVec31uJO-s8dmAjQYRI7qcHM12471zQI9bHXbQR6ggmhGpdnNFIJg=w240-h480-rw",
                        "thumbnail_url_original": ""
                    },
                    "sub_70": {
                        "id": 70,
                        "mode": "video",
                        "name_original": "Channel 70",
                        "name": "MNB world",
                        "sub_name": "",
                        "stream_video_url": "https://live.mnb.mn/live/mnb_world.stream/playlist.m3u8",
                        "thumbnail_url": "https://www.lyngsat.com/logo/tv/mm/mnb-world-mn.png",
                        "thumbnail_url_original": "https://raw.githubusercontent.com/tvgram-inc/tvgram-inc.github.io/master/images/logo.png"
                    },
                    "sub_71": {
                        "id": 71,
                        "mode": "video",
                        "name_original": "Channel 71",
                        "name": "Motorvision.TV",
                        "sub_name": "",
                        "stream_video_url": "https://cdn-apse1-prod.tsv2.amagi.tv/linear/amg01329-otterainc-motorvisionnz-samsungnz/playlist.m3u8",
                        "thumbnail_url": null,
                        "thumbnail_url_original": "https://raw.githubusercontent.com/tvgram-inc/tvgram-inc.github.io/master/images/logo.png"
                    },
                    "sub_72": {
                        "id": 72,
                        "mode": "website",
                        "name_original": "",
                        "name": "bello Random Video calls",
                        "sub_name": "Italian  Random Video calling app (Ad)",
                        "website_url": "https://play.google.com/store/apps/details?id=com.minichat.bello.random.videochat",
                        "is_system_browser": true,
                        "thumbnail_url": "https://play-lh.googleusercontent.com/3bOkAvBhWTFLLuwMRriodrXyEk67Dp6NQibo4UZyPOyahMbI6iisNCqQX5OcmMl9VQ=w240-h480-rw",
                        "thumbnail_url_original": ""
                    },
                    "sub_73": {
                        "id": 73,
                        "mode": "video",
                        "name_original": "Channel 73",
                        "name": "Mtrspt 1",
                        "sub_name": "",
                        "stream_video_url": "https://kravemedia-mtrspt1-1-nz.samsung.wurl.tv/playlist.m3u8",
                        "thumbnail_url": null,
                        "thumbnail_url_original": "https://raw.githubusercontent.com/tvgram-inc/tvgram-inc.github.io/master/images/logo.png"
                    },
                    "sub_74": {
                        "id": 74,
                        "mode": "video",
                        "name_original": "Channel 74",
                        "name": "Myanmar International TV",
                        "sub_name": "",
                        "stream_video_url": "https://5a13fe32ef748.streamlock.net/mmplay/mitv/playlist.m3u8",
                        "thumbnail_url": "https://www.lyngsat.com/logo/tv/mm/myanmar-international-tv-mm.png",
                        "thumbnail_url_original": "https://raw.githubusercontent.com/tvgram-inc/tvgram-inc.github.io/master/images/logo.png"
                    },
                    "sub_75": {
                        "id": 75,
                        "mode": "website",
                        "name_original": "",
                        "name": "USA IPTV LIST",
                        "sub_name": "USA Free Channel Playlist (Ad)",
                        "website_url": "https://play.google.com/store/apps/details?id=com.bitlinks.usa.iptv.m3ulist",
                        "is_system_browser": true,
                        "thumbnail_url": "https://play-lh.googleusercontent.com/aLcopJQaN0OngNZvAnfUbpBB3RNhb-48sleyghMNXVSKePiGZqmhb375p_5VRz1uhxs=w240-h480-rw",
                        "thumbnail_url_original": ""
                    },
                    "sub_76": {
                        "id": 76,
                        "mode": "video",
                        "name_original": "Channel 76",
                        "name": "NASA TV",
                        "sub_name": "",
                        "stream_video_url": "https://uplynkcontent.sinclairstoryline.com/channel/ddd76fdc1c0a456ba537e4f48e827d3e.m3u8",
                        "thumbnail_url": "https://upload.wikimedia.org/wikipedia/commons/thumb/b/b4/NASA_TV.svg/512px-NASA_TV.svg.png",
                        "thumbnail_url_original": "https://raw.githubusercontent.com/tvgram-inc/tvgram-inc.github.io/master/images/logo.png"
                    },
                    "sub_77": {
                        "id": 77,
                        "mode": "video",
                        "name_original": "Channel 77",
                        "name": "NBT World",
                        "sub_name": "",
                        "stream_video_url": "https://thainews.prd.go.th/lv/live/ch1_L_L.sdp/playlist.m3u8",
                        "thumbnail_url": "https://i.imgur.com/GCcmL8E.png",
                        "thumbnail_url_original": "https://raw.githubusercontent.com/tvgram-inc/tvgram-inc.github.io/master/images/logo.png"
                    },
                    "sub_78": {
                        "id": 78,
                        "mode": "website",
                        "name_original": "",
                        "name": "Sound Prank",
                        "sub_name": "Funny Sound Pranks (Ad)",
                        "website_url": "https://play.google.com/store/apps/details?id=com.airhorn.sounds.pranks",
                        "is_system_browser": true,
                        "thumbnail_url": "https://play-lh.googleusercontent.com/CPgsxnjr_o73B1-GW-mCeFQ47BOaY_sKFSO85JYurcs68DYz0tYQ0HqHRKIv22EDmKab=w240-h480-rw",
                        "thumbnail_url_original": ""
                    },
                    "sub_79": {
                        "id": 79,
                        "mode": "video",
                        "name_original": "Channel 79",
                        "name": "NHK World Japan",
                        "sub_name": "",
                        "stream_video_url": "https://nhkwlive-ojp.akamaized.net/hls/live/2003459/nhkwlive-ojp-en/index.m3u8",
                        "thumbnail_url": "https://upload.wikimedia.org/wikipedia/commons/thumb/8/8d/NHK_World-Japan_TV.svg/512px-NHK_World-Japan_TV.svg.png",
                        "thumbnail_url_original": "https://raw.githubusercontent.com/tvgram-inc/tvgram-inc.github.io/master/images/logo.png"
                    },
                    "sub_80": {
                        "id": 80,
                        "mode": "video",
                        "name_original": "Channel 80",
                        "name": "Nickelodeon Australia",
                        "sub_name": "",
                        "stream_video_url": "http://c0.cdn.trinity-tv.net/stream/7tsewn83ddjifz69us9je7eftbm5nuausb4dsvz9g5aydin9672n734qbb9jgcfpiqtpwudvs9dpi2udjc3eh4h462eie5azjmfbfgfjeqfuhjmmgx9zuj736ijg7nffhf8rviq5svkgxbp639y9nfgc.m3u8",
                        "thumbnail_url": "https://upload.wikimedia.org/wikipedia/commons/thumb/7/7a/Nickelodeon_2009_logo.svg/512px-Nickelodeon_2009_logo.svg.png",
                        "thumbnail_url_original": "https://raw.githubusercontent.com/tvgram-inc/tvgram-inc.github.io/master/images/logo.png"
                    },
                    "sub_81": {
                        "id": 81,
                        "mode": "website",
                        "name_original": "",
                        "name": "Maxico IPTV LIST",
                        "sub_name": "Mexican Free Channel Playlist (Ad)",
                        "website_url": "https://play.google.com/store/apps/details?id=com.bitlinks.maxico.iptv.m3ulist",
                        "is_system_browser": true,
                        "thumbnail_url": "https://play-lh.googleusercontent.com/zppwv1My0OZGZBIJSWcgvxjDpJDNWYnPZlJTZKErpbraj9X1jUqfqfwDK_n5H8wDi_E=w240-h480-rw",
                        "thumbnail_url_original": ""
                    },
                    "sub_82": {
                        "id": 82,
                        "mode": "video",
                        "name_original": "Channel 82",
                        "name": "Nosey",
                        "sub_name": "",
                        "stream_video_url": "https://cdn-apse1-prod.tsv2.amagi.tv/linear/amg00514-noseybaxterllc-noseyintlnz-samsungnz/playlist.m3u8",
                        "thumbnail_url": null,
                        "thumbnail_url_original": "https://raw.githubusercontent.com/tvgram-inc/tvgram-inc.github.io/master/images/logo.png"
                    },
                    "sub_83": {
                        "id": 83,
                        "mode": "video",
                        "name_original": "Channel 83",
                        "name": "Now 70's",
                        "sub_name": "",
                        "stream_video_url": "https://lightning-now70s-samsungnz.amagi.tv/playlist.m3u8",
                        "thumbnail_url": null,
                        "thumbnail_url_original": "https://raw.githubusercontent.com/tvgram-inc/tvgram-inc.github.io/master/images/logo.png"
                    },
                    "sub_84": {
                        "id": 84,
                        "mode": "website",
                        "name_original": "",
                        "name": "prekrasnyy Random Video calls",
                        "sub_name": "Russian Random Video calling app (Ad)",
                        "website_url": "https://play.google.com/store/apps/details?id=com.minichat.prekrasnyy.videochat",
                        "is_system_browser": true,
                        "thumbnail_url": "https://play-lh.googleusercontent.com/m9zQM36OeQZ9bTgGAEf6MD9XXYnV0O8CpyToLKq0R3CoEwpYnosXJIahyWS3if8-8KE=w240-h480-rw",
                        "thumbnail_url_original": ""
                    },
                    "sub_85": {
                        "id": 85,
                        "mode": "video",
                        "name_original": "Channel 85",
                        "name": "Now 80's",
                        "sub_name": "",
                        "stream_video_url": "https://lightning-now80s-samsungnz.amagi.tv/playlist.m3u8",
                        "thumbnail_url": null,
                        "thumbnail_url_original": "https://raw.githubusercontent.com/tvgram-inc/tvgram-inc.github.io/master/images/logo.png"
                    },
                    "sub_86": {
                        "id": 86,
                        "mode": "video",
                        "name_original": "Channel 86",
                        "name": "Now 90's",
                        "sub_name": "",
                        "stream_video_url": "https://lightning-now90s-samsungnz.amagi.tv/playlist.m3u8",
                        "thumbnail_url": null,
                        "thumbnail_url_original": "https://raw.githubusercontent.com/tvgram-inc/tvgram-inc.github.io/master/images/logo.png"
                    },
                    "sub_87": {
                        "id": 87,
                        "mode": "website",
                        "name_original": "",
                        "name": "Australia Random Video chats",
                        "sub_name": "Australi Random Video calls (Ad)",
                        "website_url": "https://play.google.com/store/apps/details?id=com.live.videochats.australia",
                        "is_system_browser": true,
                        "thumbnail_url": "https://play-lh.googleusercontent.com/VFvH1S1yfHI_osKbalY-jUTZAYN_DZc9rBtiqubyM1FhxqCNARZNYegJHjqAAbsboFTN=w240-h480-rw",
                        "thumbnail_url_original": ""
                    },
                    "sub_88": {
                        "id": 88,
                        "mode": "video",
                        "name_original": "Channel 88",
                        "name": "Outdoor Channel",
                        "sub_name": "",
                        "stream_video_url": "https://cdn-apse1-prod.tsv2.amagi.tv/linear/amg00718-outdoorchannela-outdoortvnz-samsungnz/playlist.m3u8",
                        "thumbnail_url": null,
                        "thumbnail_url_original": "https://raw.githubusercontent.com/tvgram-inc/tvgram-inc.github.io/master/images/logo.png"
                    },
                    "sub_89": {
                        "id": 89,
                        "mode": "video",
                        "name_original": "Channel 89",
                        "name": "Parliament TV",
                        "sub_name": "",
                        "stream_video_url": "https://ptvlive.kordia.net.nz/out/v1/daf20b9a9ec5449dadd734e50ce52b74/index.m3u8",
                        "thumbnail_url": "https://i.imgur.com/BsHt9f2.png",
                        "thumbnail_url_original": "https://raw.githubusercontent.com/tvgram-inc/tvgram-inc.github.io/master/images/logo.png"
                    },
                    "sub_90": {
                        "id": 90,
                        "mode": "website",
                        "name_original": "",
                        "name": "lieblich Random Video calls",
                        "sub_name": "German Random Video calling app (Ad)",
                        "website_url": "https://play.google.com/store/apps/details?id=com.minichat.lieblich.live.videochat",
                        "is_system_browser": true,
                        "thumbnail_url": "https://play-lh.googleusercontent.com/hT_MT0HxTlmkJVKTn5CuOrJrlZaEsG6WWRx2iqXkoSlP0HTINXseOLDJ9UJO1wowUMQ=w240-h480-rw",
                        "thumbnail_url_original": ""
                    },
                    "sub_91": {
                        "id": 91,
                        "mode": "video",
                        "name_original": "Channel 91",
                        "name": "Pet Club TV",
                        "sub_name": "",
                        "stream_video_url": "https://cdn-apse1-prod.tsv2.amagi.tv/linear/amg01076-lightningintern-petclub-samsungnz/playlist.m3u8",
                        "thumbnail_url": null,
                        "thumbnail_url_original": "https://raw.githubusercontent.com/tvgram-inc/tvgram-inc.github.io/master/images/logo.png"
                    },
                    "sub_92": {
                        "id": 92,
                        "mode": "video",
                        "name_original": "Channel 92",
                        "name": "Pulse TV",
                        "sub_name": "",
                        "stream_video_url": "https://cdn-apse1-prod.tsv2.amagi.tv/linear/amg01076-lightningintern-pulse-samsungnz/playlist.m3u8",
                        "thumbnail_url": null,
                        "thumbnail_url_original": "https://raw.githubusercontent.com/tvgram-inc/tvgram-inc.github.io/master/images/logo.png"
                    },
                    "sub_93": {
                        "id": 93,
                        "mode": "website",
                        "name_original": "",
                        "name": "Netherlands IPTV LIST",
                        "sub_name": "Netherlands Free Channel Playlist (Ad)",
                        "website_url": "https://play.google.com/store/apps/details?id=com.bitlinks.netherland.iptv.m3ulist",
                        "is_system_browser": true,
                        "thumbnail_url": "https://play-lh.googleusercontent.com/sk7fZk8NtKudJs2k8g3I8Uf7Jp4AnNdaWK7jrzGj23xwrZZ6sN_URzbhncVclubMHyI=w240-h480-rw",
                        "thumbnail_url_original": ""
                    },
                    "sub_94": {
                        "id": 94,
                        "mode": "video",
                        "name_original": "Channel 94",
                        "name": "Real Crime",
                        "sub_name": "",
                        "stream_video_url": "https://cdn-apse1-prod.tsv2.amagi.tv/linear/amg00426-littledotstudio-realcrimebetanz-samsungnz/playlist.m3u8",
                        "thumbnail_url": null,
                        "thumbnail_url_original": "https://raw.githubusercontent.com/tvgram-inc/tvgram-inc.github.io/master/images/logo.png"
                    },
                    "sub_95": {
                        "id": 95,
                        "mode": "video",
                        "name_original": "Channel 95",
                        "name": "Real Life",
                        "sub_name": "",
                        "stream_video_url": "https://cdn-apse1-prod.tsv2.amagi.tv/linear/amg00426-littledotstudio-reallifenz-samsungnz/playlist.m3u8",
                        "thumbnail_url": null,
                        "thumbnail_url_original": "https://raw.githubusercontent.com/tvgram-inc/tvgram-inc.github.io/master/images/logo.png"
                    },
                    "sub_96": {
                        "id": 96,
                        "mode": "website",
                        "name_original": "",
                        "name": "mono Random Video calls",
                        "sub_name": "Mexican Random Video calling app (Ad)",
                        "website_url": "https://play.google.com/store/apps/details?id=com.minichat.mono.videochat.envivo",
                        "is_system_browser": true,
                        "thumbnail_url": "https://play-lh.googleusercontent.com/kMrY-EGCarpaXsI9FcM3Q8KeBnO3kBX_5pCJ2e09sfoRk3uJqGctq3D_A2wl2mW-WY8=w240-h480-rw",
                        "thumbnail_url_original": ""
                    },
                    "sub_97": {
                        "id": 97,
                        "mode": "video",
                        "name_original": "Channel 97",
                        "name": "Real Stories",
                        "sub_name": "",
                        "stream_video_url": "https://cdn-apse1-prod.tsv2.amagi.tv/linear/amg00426-littledotstudio-realstoriesnz-samsungnz/playlist.m3u8",
                        "thumbnail_url": null,
                        "thumbnail_url_original": "https://raw.githubusercontent.com/tvgram-inc/tvgram-inc.github.io/master/images/logo.png"
                    },
                    "sub_98": {
                        "id": 98,
                        "mode": "video",
                        "name_original": "Channel 98",
                        "name": "Real Wild",
                        "sub_name": "",
                        "stream_video_url": "https://cdn-apse1-prod.tsv2.amagi.tv/linear/amg00426-littledotstudio-realwildnz-samsungnz/playlist.m3u8",
                        "thumbnail_url": null,
                        "thumbnail_url_original": "https://raw.githubusercontent.com/tvgram-inc/tvgram-inc.github.io/master/images/logo.png"
                    },
                    "sub_99": {
                        "id": 99,
                        "mode": "website",
                        "name_original": "",
                        "name": "Spanish Live Tv",
                        "sub_name": "Free Live TV Channels (Ad)",
                        "website_url": "https://play.google.com/store/apps/details?id=com.tvgram.spanishlivetv",
                        "is_system_browser": true,
                        "thumbnail_url": "https://play-lh.googleusercontent.com/Z5TOSShWV4wJp-3ZX8nHV2wvjaltrAmsKsn2qNo0vgXDa-67qZlrQVtIdWzgBXYMcWQ=w240-h480-rw",
                        "thumbnail_url_original": ""
                    },
                    "sub_100": {
                        "id": 100,
                        "mode": "video",
                        "name_original": "Channel 100",
                        "name": "Red Bull TV",
                        "sub_name": "",
                        "stream_video_url": "https://rbmn-live.akamaized.net/hls/live/590964/BoRB-AT/master.m3u8",
                        "thumbnail_url": "https://i.imgur.com/7NeBmWX.jpg",
                        "thumbnail_url_original": "https://raw.githubusercontent.com/tvgram-inc/tvgram-inc.github.io/master/images/logo.png"
                    },
                    "sub_101": {
                        "id": 101,
                        "mode": "video",
                        "name_original": "Channel 101",
                        "name": "Revry",
                        "sub_name": "",
                        "stream_video_url": "https://revry-revry-3-nz.samsung.wurl.tv/playlist.m3u8",
                        "thumbnail_url": null,
                        "thumbnail_url_original": "https://raw.githubusercontent.com/tvgram-inc/tvgram-inc.github.io/master/images/logo.png"
                    },
                    "sub_102": {
                        "id": 102,
                        "mode": "website",
                        "name_original": "",
                        "name": "Italy IPTV LIST",
                        "sub_name": "Italian Free Channel Playlist (Ad)",
                        "website_url": "https://play.google.com/store/apps/details?id=com.bitlinks.italy.iptv.m3ulist",
                        "is_system_browser": true,
                        "thumbnail_url": "https://play-lh.googleusercontent.com/EgW4JwZzBvlYwIe88W90AcXGhCECBmEnvbu1CW7Fo0TOprNdcSrTY1-Yc6_NmpO_exA=w240-h480-rw",
                        "thumbnail_url_original": ""
                    },
                    "sub_103": {
                        "id": 103,
                        "mode": "video",
                        "name_original": "Channel 103",
                        "name": "Rialto",
                        "sub_name": "",
                        "stream_video_url": "https://rialto-rialto-samsungaustralia.amagi.tv/playlist.m3u8",
                        "thumbnail_url": "https://i.imgur.com/RnzWT9C.jpg",
                        "thumbnail_url_original": "https://raw.githubusercontent.com/tvgram-inc/tvgram-inc.github.io/master/images/logo.png"
                    },
                    "sub_104": {
                        "id": 104,
                        "mode": "video",
                        "name_original": "Channel 104",
                        "name": "RT Documentary Russian",
                        "sub_name": "",
                        "stream_video_url": "http://uiptv.do.am/1ufc/300663722/playlist.m3u8",
                        "thumbnail_url": "https://i.imgur.com/rli3c7T.png",
                        "thumbnail_url_original": "https://raw.githubusercontent.com/tvgram-inc/tvgram-inc.github.io/master/images/logo.png"
                    },
                    "sub_105": {
                        "id": 105,
                        "mode": "website",
                        "name_original": "",
                        "name": "lovely Random Video calls",
                        "sub_name": "English Random Video calling app (Ad)",
                        "website_url": "https://play.google.com/store/apps/details?id=com.minichat.lovely.random.videochat",
                        "is_system_browser": true,
                        "thumbnail_url": "https://play-lh.googleusercontent.com/nt_ofAKkDgRYPstT2-6tZxelhcUgZH5IRHh6i0pl4ixnwvT_fUsJdbC5io-W7pGtgw=w240-h480-rw",
                        "thumbnail_url_original": ""
                    },
                    "sub_106": {
                        "id": 106,
                        "mode": "video",
                        "name_original": "Channel 106",
                        "name": "Ryan and Friends",
                        "sub_name": "",
                        "stream_video_url": "https://cdn-apse1-prod.tsv2.amagi.tv/linear/amg00286-pocketwatch-ryanandfriends-samsungnz/playlist.m3u8",
                        "thumbnail_url": null,
                        "thumbnail_url_original": "https://raw.githubusercontent.com/tvgram-inc/tvgram-inc.github.io/master/images/logo.png"
                    },
                    "sub_107": {
                        "id": 107,
                        "mode": "video",
                        "name_original": "Channel 107",
                        "name": "Ski TV",
                        "sub_name": "",
                        "stream_video_url": "https://d2xeo83q8fcni6.cloudfront.net/v1/master/9d062541f2ff39b5c0f48b743c6411d25f62fc25/SkiTV-SynapseTV/193.m3u8",
                        "thumbnail_url": "https://i.imgur.com/idKogRi.png",
                        "thumbnail_url_original": "https://raw.githubusercontent.com/tvgram-inc/tvgram-inc.github.io/master/images/logo.png"
                    },
                    "sub_108": {
                        "id": 108,
                        "mode": "website",
                        "name_original": "",
                        "name": "Random Video calls",
                        "sub_name": "Free Random Video calling App (Ad)",
                        "website_url": "https://play.google.com/store/apps/details?id=com.booya.videochat",
                        "is_system_browser": true,
                        "thumbnail_url": "https://play-lh.googleusercontent.com/OwvRNTvvyUo8g9MQUdJJBGT_cL4S7ObS_xCyzwHYTS-rLrapbZzD1cQYowyHy-uVgw=w240-h480-rw",
                        "thumbnail_url_original": ""
                    },
                    "sub_109": {
                        "id": 109,
                        "mode": "video",
                        "name_original": "Channel 109",
                        "name": "Smithsonian Channel",
                        "sub_name": "",
                        "stream_video_url": "https://cdn-apse1-prod.tsv2.amagi.tv/linear/amg01553-blueantmediaasi-smithsoniannz-samsungnz/playlist.m3u8",
                        "thumbnail_url": null,
                        "thumbnail_url_original": "https://raw.githubusercontent.com/tvgram-inc/tvgram-inc.github.io/master/images/logo.png"
                    },
                    "sub_110": {
                        "id": 110,
                        "mode": "video",
                        "name_original": "Channel 110",
                        "name": "Sofy TV",
                        "sub_name": "",
                        "stream_video_url": "https://sofy-ger-samsung.amagi.tv/playlist.m3u8",
                        "thumbnail_url": "https://i.imgur.com/Srxa6cR.png",
                        "thumbnail_url_original": "https://raw.githubusercontent.com/tvgram-inc/tvgram-inc.github.io/master/images/logo.png"
                    },
                    "sub_111": {
                        "id": 111,
                        "mode": "website",
                        "name_original": "",
                        "name": "Ukraine IPTV LIST",
                        "sub_name": "Ukranian Free Channel Playlist (Ad)",
                        "website_url": "https://play.google.com/store/apps/details?id=com.bitlinks.ukrain.iptv.m3ulist",
                        "is_system_browser": true,
                        "thumbnail_url": "https://play-lh.googleusercontent.com/HNuGB9gHaaziSMWur3I-KDksb9jL5GWOtKfEDCzdX3TCdRXNUOVdxtxMr0pW5Q0Bpug=w240-h480-rw",
                        "thumbnail_url_original": ""
                    },
                    "sub_112": {
                        "id": 112,
                        "mode": "video",
                        "name_original": "Channel 112",
                        "name": "Tastemade International",
                        "sub_name": "",
                        "stream_video_url": "https://cdn-apse1-prod.tsv2.amagi.tv/linear/amg00047-tastemade-tmintlaus-samsungnz/playlist.m3u8",
                        "thumbnail_url": null,
                        "thumbnail_url_original": "https://raw.githubusercontent.com/tvgram-inc/tvgram-inc.github.io/master/images/logo.png"
                    },
                    "sub_113": {
                        "id": 113,
                        "mode": "video",
                        "name_original": "Channel 113",
                        "name": "The Design Network",
                        "sub_name": "",
                        "stream_video_url": "https://thedesignnetwork-tdn-1-nz.samsung.wurl.tv/playlist.m3u8",
                        "thumbnail_url": null,
                        "thumbnail_url_original": "https://raw.githubusercontent.com/tvgram-inc/tvgram-inc.github.io/master/images/logo.png"
                    },
                    "sub_114": {
                        "id": 114,
                        "mode": "website",
                        "name_original": "",
                        "name": "Portuguese IPTV LIST",
                        "sub_name": "Portuguese Free Channel Playlist (Ad)",
                        "website_url": "https://play.google.com/store/apps/details?id=com.bitlinks.portuguese.iptv.m3ulist",
                        "is_system_browser": true,
                        "thumbnail_url": "https://play-lh.googleusercontent.com/2Hbp1bNX5Lk3Bx7mi0EGcWWA49PdwAWiT0-PcbVDDqSahwIxjpxk_AUbrsNiUDscLMw=w240-h480-rw",
                        "thumbnail_url_original": ""
                    },
                    "sub_115": {
                        "id": 115,
                        "mode": "video",
                        "name_original": "Channel 115",
                        "name": "The Edge",
                        "sub_name": "",
                        "stream_video_url": "https://livestreamdirect-edgetv.mediaworks.nz/edgetv.m3u8",
                        "thumbnail_url": "https://i.imgur.com/ZHJVvOj.png",
                        "thumbnail_url_original": "https://raw.githubusercontent.com/tvgram-inc/tvgram-inc.github.io/master/images/logo.png"
                    },
                    "sub_116": {
                        "id": 116,
                        "mode": "video",
                        "name_original": "Channel 116",
                        "name": "Three [Geo-blocked]",
                        "sub_name": "",
                        "stream_video_url": "https://livestreamdirect-three.mediaworks.nz/three.m3u8",
                        "thumbnail_url": "https://i.imgur.com/kc57D8T.png",
                        "thumbnail_url_original": "https://raw.githubusercontent.com/tvgram-inc/tvgram-inc.github.io/master/images/logo.png"
                    },
                    "sub_117": {
                        "id": 117,
                        "mode": "website",
                        "name_original": "",
                        "name": "sevimli Random Video calls",
                        "sub_name": "Turkish Random Video calling app (Ad)",
                        "website_url": "https://play.google.com/store/apps/details?id=com.minichat.sevimli.videochat",
                        "is_system_browser": true,
                        "thumbnail_url": "https://play-lh.googleusercontent.com/06BjKBVO7BiYq13YeMIjF0_DGkh_z4lXY3DLCwgV3yYWSm8pCdEn73a6b7P1IlYa-rpx=w240-h480-rw",
                        "thumbnail_url_original": ""
                    },
                    "sub_118": {
                        "id": 118,
                        "mode": "video",
                        "name_original": "Channel 118",
                        "name": "Three Angels Broadcasting Network International",
                        "sub_name": "",
                        "stream_video_url": "https://3abn-live.akamaized.net/hls/live/2010544/International/master.m3u8",
                        "thumbnail_url": "https://i.imgur.com/vhb8zvB.png",
                        "thumbnail_url_original": "https://raw.githubusercontent.com/tvgram-inc/tvgram-inc.github.io/master/images/logo.png"
                    },
                    "sub_119": {
                        "id": 119,
                        "mode": "video",
                        "name_original": "Channel 119",
                        "name": "Timeline",
                        "sub_name": "",
                        "stream_video_url": "https://cdn-apse1-prod.tsv2.amagi.tv/linear/amg00426-littledotstudio-timelinenz-samsungnz/playlist.m3u8",
                        "thumbnail_url": null,
                        "thumbnail_url_original": "https://raw.githubusercontent.com/tvgram-inc/tvgram-inc.github.io/master/images/logo.png"
                    },
                    "sub_120": {
                        "id": 120,
                        "mode": "website",
                        "name_original": "",
                        "name": "Brazil IPTV LIST",
                        "sub_name": "Brazil Free Channel Playlist (Ad)",
                        "website_url": "https://play.google.com/store/apps/details?id=com.bitlinks.brazil.iptv.m3ulist",
                        "is_system_browser": true,
                        "thumbnail_url": "https://play-lh.googleusercontent.com/ZsRfEtfkMaVulpSwvqtZHKYRY73UcW8QeN7Bs9kkC6MfgeS6UUo1Brz7YwtKiRbwWeQ=w240-h480-rw",
                        "thumbnail_url_original": ""
                    },
                    "sub_121": {
                        "id": 121,
                        "mode": "video",
                        "name_original": "Channel 121",
                        "name": "Trace Sports Stars",
                        "sub_name": "",
                        "stream_video_url": "https://trace-sportstars-samsungnz.amagi.tv/playlist.m3u8",
                        "thumbnail_url": null,
                        "thumbnail_url_original": "https://raw.githubusercontent.com/tvgram-inc/tvgram-inc.github.io/master/images/logo.png"
                    },
                    "sub_122": {
                        "id": 122,
                        "mode": "video",
                        "name_original": "Channel 122",
                        "name": "Trace Urban",
                        "sub_name": "",
                        "stream_video_url": "https://cdn-apse1-prod.tsv2.amagi.tv/linear/amg01076-lightningintern-traceurban-samsungnz/playlist.m3u8",
                        "thumbnail_url": null,
                        "thumbnail_url_original": "https://raw.githubusercontent.com/tvgram-inc/tvgram-inc.github.io/master/images/logo.png"
                    },
                    "sub_123": {
                        "id": 123,
                        "mode": "website",
                        "name_original": "",
                        "name": "Love Tester",
                        "sub_name": "Test your Love (Ad)",
                        "website_url": "https://play.google.com/store/apps/details?id=com.real.love.tester",
                        "is_system_browser": true,
                        "thumbnail_url": "https://play-lh.googleusercontent.com/BT81t7C4KUg0ushx9ueKsQ1RkLpOgzYcqcraMSvoRW5yPSmmyj6N9tngZIcNfIAcm08=w240-h480-rw",
                        "thumbnail_url_original": ""
                    },
                    "sub_124": {
                        "id": 124,
                        "mode": "video",
                        "name_original": "Channel 124",
                        "name": "Travel XP",
                        "sub_name": "",
                        "stream_video_url": "https://travelxp-travelxp-1-nz.samsung.wurl.tv/playlist.m3u8",
                        "thumbnail_url": null,
                        "thumbnail_url_original": "https://raw.githubusercontent.com/tvgram-inc/tvgram-inc.github.io/master/images/logo.png"
                    },
                    "sub_125": {
                        "id": 125,
                        "mode": "video",
                        "name_original": "Channel 125",
                        "name": "TRT World",
                        "sub_name": "",
                        "stream_video_url": "https://tv-trtworld.live.trt.com.tr/master.m3u8",
                        "thumbnail_url": "https://upload.wikimedia.org/wikipedia/commons/thumb/2/27/TRT_World.svg/512px-TRT_World.svg.png",
                        "thumbnail_url_original": "https://raw.githubusercontent.com/tvgram-inc/tvgram-inc.github.io/master/images/logo.png"
                    },
                    "sub_126": {
                        "id": 126,
                        "mode": "website",
                        "name_original": "",
                        "name": "German IPTV LIST",
                        "sub_name": "German Free Channel Playlist (Ad)",
                        "website_url": "https://play.google.com/store/apps/details?id=com.bitlinks.german.iptv.m3ulist",
                        "is_system_browser": true,
                        "thumbnail_url": "https://play-lh.googleusercontent.com/YzGo_5cnoKqi2joZMCaSSn-qwkzcfUGWzjwEIXAlHf5I6IRBAbdzZN8wZltfFi5Xaw=w240-h480-rw",
                        "thumbnail_url_original": ""
                    },
                    "sub_127": {
                        "id": 127,
                        "mode": "video",
                        "name_original": "Channel 127",
                        "name": "True Crime Now",
                        "sub_name": "",
                        "stream_video_url": "https://alliantcontent-truecrimenow-3-nz.samsung.wurl.tv/playlist.m3u8",
                        "thumbnail_url": null,
                        "thumbnail_url_original": "https://raw.githubusercontent.com/tvgram-inc/tvgram-inc.github.io/master/images/logo.png"
                    },
                    "sub_128": {
                        "id": 128,
                        "mode": "video",
                        "name_original": "Channel 128",
                        "name": "TVE Internacional Asia-Oceania",
                        "sub_name": "",
                        "stream_video_url": "http://210.210.155.37/uq2663/h/h158/index2.m3u8",
                        "thumbnail_url": "https://upload.wikimedia.org/wikipedia/commons/thumb/8/83/Logo_TVE-Internacional.svg/512px-Logo_TVE-Internacional.svg.png",
                        "thumbnail_url_original": "https://raw.githubusercontent.com/tvgram-inc/tvgram-inc.github.io/master/images/logo.png"
                    },
                    "sub_129": {
                        "id": 129,
                        "mode": "website",
                        "name_original": "",
                        "name": "loveme Random Video calls",
                        "sub_name": "USA Random Video calling app (Ad)",
                        "website_url": "https://play.google.com/store/apps/details?id=com.minichat.loveme.randome.videochat",
                        "is_system_browser": true,
                        "thumbnail_url": "https://play-lh.googleusercontent.com/TtbIIApy4sV1iyFKNEgoyNso6yjHo63XJIVqTuLQ2mIX3mohug1irZ6XHCDTa0ySjA=w240-h480-rw",
                        "thumbnail_url_original": ""
                    },
                    "sub_130": {
                        "id": 130,
                        "mode": "video",
                        "name_original": "Channel 130",
                        "name": "TVM Internacional",
                        "sub_name": "",
                        "stream_video_url": "http://online.tvm.co.mz:1935/live/smil:Channel2.smil/playlist.m3u8",
                        "thumbnail_url": "https://i.imgur.com/Ns3WrOQ.png",
                        "thumbnail_url_original": "https://raw.githubusercontent.com/tvgram-inc/tvgram-inc.github.io/master/images/logo.png"
                    },
                    "sub_131": {
                        "id": 131,
                        "mode": "video",
                        "name_original": "Channel 131",
                        "name": "TVNZ 1 [Geo-blocked]",
                        "sub_name": "",
                        "stream_video_url": "https://d2ce82tpc3p734.cloudfront.net/v1/master/b1f4432f8f95be9e629d97baabfed15b8cacd1f8/TVNZ_1/master.m3u8",
                        "thumbnail_url": "https://upload.wikimedia.org/wikipedia/en/thumb/a/a3/TVNZ_1_logo.svg/512px-TVNZ_1_logo.svg.png",
                        "thumbnail_url_original": "https://raw.githubusercontent.com/tvgram-inc/tvgram-inc.github.io/master/images/logo.png"
                    },
                    "sub_132": {
                        "id": 132,
                        "mode": "website",
                        "name_original": "",
                        "name": "jolie Random Video calls",
                        "sub_name": "French Random Video calling app (Ad)",
                        "website_url": "https://play.google.com/store/apps/details?id=com.minichat.jolie.videochat.direct",
                        "is_system_browser": true,
                        "thumbnail_url": "https://play-lh.googleusercontent.com/AdD4bXowl0-HxJqVjCV__GZjQoES22c3qUVVbNT3aY67sQywkPwgKv9jUK7FPnr5Qts=w240-h480-rw",
                        "thumbnail_url_original": ""
                    },
                    "sub_133": {
                        "id": 133,
                        "mode": "video",
                        "name_original": "Channel 133",
                        "name": "TVNZ 2 [Geo-blocked]",
                        "sub_name": "",
                        "stream_video_url": "https://duoak7vltfob0.cloudfront.net/v1/master/b1f4432f8f95be9e629d97baabfed15b8cacd1f8/TVNZ_2/master.m3u8",
                        "thumbnail_url": "https://upload.wikimedia.org/wikipedia/en/thumb/b/bb/TVNZ_2_logo.svg/512px-TVNZ_2_logo.svg.png",
                        "thumbnail_url_original": "https://raw.githubusercontent.com/tvgram-inc/tvgram-inc.github.io/master/images/logo.png"
                    },
                    "sub_134": {
                        "id": 134,
                        "mode": "video",
                        "name_original": "Channel 134",
                        "name": "TVNZ Duke [Geo-blocked]",
                        "sub_name": "",
                        "stream_video_url": "https://dayqb844napyo.cloudfront.net/v1/master/b1f4432f8f95be9e629d97baabfed15b8cacd1f8/TVNZ_Duke/master.m3u8",
                        "thumbnail_url": "https://upload.wikimedia.org/wikipedia/en/thumb/8/85/TVNZ_Duke_logo.svg/512px-TVNZ_Duke_logo.svg.png",
                        "thumbnail_url_original": "https://raw.githubusercontent.com/tvgram-inc/tvgram-inc.github.io/master/images/logo.png"
                    },
                    "sub_135": {
                        "id": 135,
                        "mode": "website",
                        "name_original": "",
                        "name": "Russia IPTV LIST",
                        "sub_name": "Russian Free Channel Playlist (Ad)",
                        "website_url": "https://play.google.com/store/apps/details?id=com.bitlinks.russia.iptv.m3ulist",
                        "is_system_browser": true,
                        "thumbnail_url": "https://play-lh.googleusercontent.com/RqKQ6F66BwQskDZMfaUFulbteZWuNQuM7ivSEDM30IIuxujnigTn7GEz1a-WP9mMVR5a=w240-h480-rw",
                        "thumbnail_url_original": ""
                    },
                    "sub_136": {
                        "id": 136,
                        "mode": "video",
                        "name_original": "Channel 136",
                        "name": "UN Web TV",
                        "sub_name": "",
                        "stream_video_url": "https://cdnapi.kaltura.com/p/2503451/sp/250345100/playManifest/entryId/1_gb6tjmle/protocol/https/format/applehttp/a.m3u8",
                        "thumbnail_url": "https://i.imgur.com/lPyJhBN.png",
                        "thumbnail_url_original": "https://raw.githubusercontent.com/tvgram-inc/tvgram-inc.github.io/master/images/logo.png"
                    },
                    "sub_137": {
                        "id": 137,
                        "mode": "video",
                        "name_original": "Channel 137",
                        "name": "Wairarapa TV",
                        "sub_name": "",
                        "stream_video_url": "https://stream.wairarapatv.co.nz/Broadband_High/playlist.m3u8",
                        "thumbnail_url": "https://upload.wikimedia.org/wikipedia/en/thumb/e/e7/WairarapaTVLogo.png/512px-WairarapaTVLogo.png",
                        "thumbnail_url_original": "https://raw.githubusercontent.com/tvgram-inc/tvgram-inc.github.io/master/images/logo.png"
                    },
                    "sub_138": {
                        "id": 138,
                        "mode": "website",
                        "name_original": "",
                        "name": "joli Random Video calls",
                        "sub_name": "Canada Random Video calling app (Ad)",
                        "website_url": "https://play.google.com/store/apps/details?id=com.minichat.joli.random.videochat",
                        "is_system_browser": true,
                        "thumbnail_url": "https://play-lh.googleusercontent.com/ODeJvN0w3lTWCQQrzndPvge2xjMVfrVewgWfi0zHeLYFi5397N4_c4-GlYStW77skQ=w240-h480-rw",
                        "thumbnail_url_original": ""
                    },
                    "sub_139": {
                        "id": 139,
                        "mode": "video",
                        "name_original": "Channel 139",
                        "name": "Wonder",
                        "sub_name": "",
                        "stream_video_url": "https://cdn-apse1-prod.tsv2.amagi.tv/linear/amg00426-littledotstudio-wondernz-samsungnz/playlist.m3u8",
                        "thumbnail_url": null,
                        "thumbnail_url_original": "https://raw.githubusercontent.com/tvgram-inc/tvgram-inc.github.io/master/images/logo.png"
                    },
                    "sub_140": {
                        "id": 140,
                        "mode": "video",
                        "name_original": "Channel 140",
                        "name": "World Fashion Channel International",
                        "sub_name": "",
                        "stream_video_url": "https://wfcint.mediacdn.ru/cdn/wfcintweb/playlist.m3u8",
                        "thumbnail_url": "https://i.imgur.com/D46u7eW.png",
                        "thumbnail_url_original": "https://raw.githubusercontent.com/tvgram-inc/tvgram-inc.github.io/master/images/logo.png"
                    },
                    "sub_141": {
                        "id": 141,
                        "mode": "website",
                        "name_original": "",
                        "name": "Love Calculator",
                        "sub_name": "Free Love Calculator for Your Love (Ad)",
                        "website_url": "https://play.google.com/store/apps/details?id=com.alfa.love.calculator",
                        "is_system_browser": true,
                        "thumbnail_url": "https://play-lh.googleusercontent.com/fLuKlgjXeSilLAgJ1P6CtAkAV2QcJangbITg0U4AtKSTxScpM_kXhqEGK4fmUxr4rV_C=w240-h480-rw",
                        "thumbnail_url_original": ""
                    },
                    "sub_142": {
                        "id": 142,
                        "mode": "video",
                        "name_original": "Channel 142",
                        "name": "World Poker Tour",
                        "sub_name": "",
                        "stream_video_url": "https://d3w4n3hhseniak.cloudfront.net/v1/master/9d062541f2ff39b5c0f48b743c6411d25f62fc25/WPT-DistroTV/150.m3u8",
                        "thumbnail_url": "https://images.pluto.tv/channels/5f8ecfb9db6c180007a6d1b0/colorLogoPNG.png",
                        "thumbnail_url_original": "https://raw.githubusercontent.com/tvgram-inc/tvgram-inc.github.io/master/images/logo.png"
                    },
                    "sub_143": {
                        "id": 143,
                        "mode": "video",
                        "name_original": "Channel 143",
                        "name": "Zoo Moo",
                        "sub_name": "",
                        "stream_video_url": "https://amg01553-blueantmediaasi-zoomoonz-samsungnz-rdufn.amagi.tv/playlist/amg01553-blueantmediaasi-zoomoonz-samsungnz/playlist.m3u8",
                        "thumbnail_url": "https://i.imgur.com/1wYnA2i.jpg",
                        "thumbnail_url_original": "https://raw.githubusercontent.com/tvgram-inc/tvgram-inc.github.io/master/images/logo.png"
                    }
                }
            }
        }
    }
}