{
    "TV_Data": {
        "Channel_List": {
            "is_channel_list": true,
            "is_override": true,
            "thumb_width": 150,
            "all_Channels_Tab_Name": "",
            "main": {
                "id": 1,
                "name": "Singapore Channels",
                "sub_name": "Channels",
                "thumbnail_url": "https://flagpedia.net//data/flags/h80/sg.png",
                "sub": {
                    "sub_1": {
                        "id": 1,
                        "mode": "video",
                        "name_original": "Channel 1",
                        "name": "Bahrain International",
                        "sub_name": "",
                        "stream_video_url": "https://5c7b683162943.streamlock.net/live/ngrp:bahraininternational_all/playlist.m3u8",
                        "thumbnail_url": "https://www.lyngsat.com/logo/tv/bb/bahrain_tv_international.png",
                        "thumbnail_url_original": "https://raw.githubusercontent.com/tvgram-inc/tvgram-inc.github.io/master/images/logo.png"
                    },
                    "sub_2": {
                        "id": 2,
                        "mode": "video",
                        "name_original": "Channel 2",
                        "name": "BBC News HD",
                        "sub_name": "",
                        "stream_video_url": "https://cdnuk001.broadcastcdn.net/KUK-BBCNEWSHD/index.m3u8",
                        "thumbnail_url": "https://i.imgur.com/rPzH88J.png",
                        "thumbnail_url_original": "https://raw.githubusercontent.com/tvgram-inc/tvgram-inc.github.io/master/images/logo.png"
                    },
                    "sub_3": {
                        "id": 3,
                        "mode": "website",
                        "name_original": "",
                        "name": "Adult Free IPTV",
                        "sub_name": "Free Hot X IPTV Playlist (Ad)",
                        "website_url": "https://play.google.com/store/apps/details?id=com.adult.iptv.hot.playlist",
                        "is_system_browser": true,
                        "thumbnail_url": "https://play-lh.googleusercontent.com/DFrL4OmwEWMQnRjs9tBcekNn6DYrlehENI0aAD5XphVvenROVKOon7sfLf84YhmyM08=w240-h480-rw",
                        "thumbnail_url_original": ""
                    },
                    "sub_4": {
                        "id": 4,
                        "mode": "video",
                        "name_original": "Channel 4",
                        "name": "BeritaSatu World",
                        "sub_name": "",
                        "stream_video_url": "https://b1world.beritasatumedia.com/Beritasatu/B1World_manifest.m3u8",
                        "thumbnail_url": "https://upload.wikimedia.org/wikipedia/commons/thumb/f/f1/BeritaSatuWorld.png/512px-BeritaSatuWorld.png",
                        "thumbnail_url_original": "https://raw.githubusercontent.com/tvgram-inc/tvgram-inc.github.io/master/images/logo.png"
                    },
                    "sub_5": {
                        "id": 5,
                        "mode": "video",
                        "name_original": "Channel 5",
                        "name": "Bloomberg TV Asia",
                        "sub_name": "",
                        "stream_video_url": "https://bloomberg.com/media-manifest/streams/asia.m3u8",
                        "thumbnail_url": "https://upload.wikimedia.org/wikipedia/commons/3/3b/Bloomberg_Television_2016.png",
                        "thumbnail_url_original": "https://raw.githubusercontent.com/tvgram-inc/tvgram-inc.github.io/master/images/logo.png"
                    },
                    "sub_6": {
                        "id": 6,
                        "mode": "website",
                        "name_original": "",
                        "name": "USA Live TV",
                        "sub_name": "Free Live TV Channels (Ad)",
                        "website_url": "https://play.google.com/store/apps/details?id=com.tvgram.usalivetv",
                        "is_system_browser": true,
                        "thumbnail_url": "https://play-lh.googleusercontent.com/6VtBPY8-Yq-DmTW_rEfKbxVC_6EY-bZx7QXTetHmqMM2tNvL7TXITbfjkGPMXIGaNbI=w240-h480-rw",
                        "thumbnail_url_original": ""
                    },
                    "sub_7": {
                        "id": 7,
                        "mode": "video",
                        "name_original": "Channel 7",
                        "name": "Bloomberg TV Asia Live Event",
                        "sub_name": "",
                        "stream_video_url": "https://bloomberg.com/media-manifest/streams/asia-event.m3u8",
                        "thumbnail_url": "https://upload.wikimedia.org/wikipedia/commons/3/3b/Bloomberg_Television_2016.png",
                        "thumbnail_url_original": "https://raw.githubusercontent.com/tvgram-inc/tvgram-inc.github.io/master/images/logo.png"
                    },
                    "sub_8": {
                        "id": 8,
                        "mode": "video",
                        "name_original": "Channel 8",
                        "name": "Cartoon Network Asia",
                        "sub_name": "",
                        "stream_video_url": "http://198.16.106.62:8278/streams/d/Cn/playlist.m3u8",
                        "thumbnail_url": "https://upload.wikimedia.org/wikipedia/commons/thumb/8/80/Cartoon_Network_2010_logo.svg/512px-Cartoon_Network_2010_logo.svg.png",
                        "thumbnail_url_original": "https://raw.githubusercontent.com/tvgram-inc/tvgram-inc.github.io/master/images/logo.png"
                    },
                    "sub_9": {
                        "id": 9,
                        "mode": "website",
                        "name_original": "",
                        "name": "World m3u List",
                        "sub_name": "World Free Live TV Channels (Ad)",
                        "website_url": "https://play.google.com/store/apps/details?id=com.iptv.m3u.playlists",
                        "is_system_browser": true,
                        "thumbnail_url": "https://play-lh.googleusercontent.com/8mPNKodK65zCjQHS8aqF4o0cX9YlKZYN-3qYCd9oMlcTkGaAf_3AxB0vnE9Kud6bPw=w240-h480-rw",
                        "thumbnail_url_original": ""
                    },
                    "sub_10": {
                        "id": 10,
                        "mode": "video",
                        "name_original": "Channel 10",
                        "name": "Celestial Movies",
                        "sub_name": "",
                        "stream_video_url": "http://210.210.155.37/dr9445/h/h14/index.m3u8",
                        "thumbnail_url": "https://i.imgur.com/KYP1xXZ.png",
                        "thumbnail_url_original": "https://raw.githubusercontent.com/tvgram-inc/tvgram-inc.github.io/master/images/logo.png"
                    },
                    "sub_11": {
                        "id": 11,
                        "mode": "video",
                        "name_original": "Channel 11",
                        "name": "CGTN",
                        "sub_name": "",
                        "stream_video_url": "https://news.cgtn.com/resource/live/english/cgtn-news.m3u8",
                        "thumbnail_url": "https://upload.wikimedia.org/wikipedia/commons/thumb/8/81/CGTN.svg/512px-CGTN.svg.png",
                        "thumbnail_url_original": "https://raw.githubusercontent.com/tvgram-inc/tvgram-inc.github.io/master/images/logo.png"
                    },
                    "sub_12": {
                        "id": 12,
                        "mode": "website",
                        "name_original": "",
                        "name": "YoYo Video calls",
                        "sub_name": "Free Live TV Channels (Ad)",
                        "website_url": "https://play.google.com/store/apps/details?id=com.yoyolive.llc",
                        "is_system_browser": true,
                        "thumbnail_url": "https://play-lh.googleusercontent.com/33_mPNzvE6WRV6czGRm8EhSrSh0G9wnRQRfMXfcqQLU8j3z4UYu7nrgw5SmaP9UFf0U=s48-rw",
                        "thumbnail_url_original": ""
                    },
                    "sub_13": {
                        "id": 13,
                        "mode": "video",
                        "name_original": "Channel 13",
                        "name": "CGTN Documentary",
                        "sub_name": "",
                        "stream_video_url": "http://39.135.138.59:18890/PLTV/88888910/224/3221225645/index.m3u8",
                        "thumbnail_url": "https://upload.wikimedia.org/wikipedia/commons/d/d6/CGTN_Documentary_logo.png",
                        "thumbnail_url_original": "https://raw.githubusercontent.com/tvgram-inc/tvgram-inc.github.io/master/images/logo.png"
                    },
                    "sub_14": {
                        "id": 14,
                        "mode": "video",
                        "name_original": "Channel 14",
                        "name": "Channel 5 [Geo-blocked]",
                        "sub_name": "",
                        "stream_video_url": "https://ddftztnzt6o79.cloudfront.net/hls/clr4ctv_okto/master.m3u8",
                        "thumbnail_url": "https://i.imgur.com/o9WqoGe.png",
                        "thumbnail_url_original": "https://raw.githubusercontent.com/tvgram-inc/tvgram-inc.github.io/master/images/logo.png"
                    },
                    "sub_15": {
                        "id": 15,
                        "mode": "website",
                        "name_original": "",
                        "name": "Pocket IPTV",
                        "sub_name": "Free Live TV Channels (Ad)",
                        "website_url": "https://play.google.com/store/apps/details?id=com.pocketiptv",
                        "is_system_browser": true,
                        "thumbnail_url": "https://play-lh.googleusercontent.com/DviEA28-3k_q7mb1mbF8ZMRdYNRmqEGYMzQ3SJnSdEo5hRkFmxgpr2uKb1z8wnsCpcU=w240-h480-rw",
                        "thumbnail_url_original": ""
                    },
                    "sub_16": {
                        "id": 16,
                        "mode": "video",
                        "name_original": "Channel 16",
                        "name": "Channel 8 [Geo-blocked]",
                        "sub_name": "",
                        "stream_video_url": "https://d34e90s3s13i7n.cloudfront.net/hls/clr4ctv_ch8/master.m3u8",
                        "thumbnail_url": "https://i.imgur.com/yLNUK1u.png",
                        "thumbnail_url_original": "https://raw.githubusercontent.com/tvgram-inc/tvgram-inc.github.io/master/images/logo.png"
                    },
                    "sub_17": {
                        "id": 17,
                        "mode": "video",
                        "name_original": "Channel 17",
                        "name": "Classic Arts Showcase",
                        "sub_name": "",
                        "stream_video_url": "https://classicarts.akamaized.net/hls/live/1024257/CAS/master.m3u8",
                        "thumbnail_url": "https://i.imgur.com/M6FFkc3.png",
                        "thumbnail_url_original": "https://raw.githubusercontent.com/tvgram-inc/tvgram-inc.github.io/master/images/logo.png"
                    },
                    "sub_18": {
                        "id": 18,
                        "mode": "website",
                        "name_original": "",
                        "name": "France Live Tv",
                        "sub_name": "Free Live TV Channels (Ad)",
                        "website_url": "https://play.google.com/store/apps/details?id=com.tvgram.francelivetv",
                        "is_system_browser": true,
                        "thumbnail_url": "https://play-lh.googleusercontent.com/WoPxNu1ZO7bHJvi32q-CNLVZyVXqqMBtTBqY8Dh71icnw6xJAG8ZYfwzli26KyjN5W9_=w240-h480-rw",
                        "thumbnail_url_original": ""
                    },
                    "sub_19": {
                        "id": 19,
                        "mode": "video",
                        "name_original": "Channel 19",
                        "name": "CNA [Geo-blocked]",
                        "sub_name": "",
                        "stream_video_url": "https://d2ko4czujk9652.cloudfront.net/hls/clr4ctv_cnas/master.m3u8",
                        "thumbnail_url": "https://upload.wikimedia.org/wikipedia/commons/thumb/8/83/CNA_new_logo.svg/512px-CNA_new_logo.svg.png",
                        "thumbnail_url_original": "https://raw.githubusercontent.com/tvgram-inc/tvgram-inc.github.io/master/images/logo.png"
                    },
                    "sub_20": {
                        "id": 20,
                        "mode": "video",
                        "name_original": "Channel 20",
                        "name": "CNA International",
                        "sub_name": "",
                        "stream_video_url": "https://d2e1asnsl7br7b.cloudfront.net/7782e205e72f43aeb4a48ec97f66ebbe/index.m3u8",
                        "thumbnail_url": "https://upload.wikimedia.org/wikipedia/commons/thumb/8/83/CNA_new_logo.svg/512px-CNA_new_logo.svg.png",
                        "thumbnail_url_original": "https://raw.githubusercontent.com/tvgram-inc/tvgram-inc.github.io/master/images/logo.png"
                    },
                    "sub_21": {
                        "id": 21,
                        "mode": "website",
                        "name_original": "",
                        "name": "India Live TV",
                        "sub_name": "Free Live TV Channels (Ad)",
                        "website_url": "https://play.google.com/store/apps/details?id=com.tvgram.brazillivetv",
                        "is_system_browser": true,
                        "thumbnail_url": "https://play-lh.googleusercontent.com/bDQlYcVEfFfB5uDSRYWYeLiXpb68C5xJ_bko-Fhdvmu7Ooet80_J6yCfntLE8uVMMQ=w240-h480-rw",
                        "thumbnail_url_original": ""
                    },
                    "sub_22": {
                        "id": 22,
                        "mode": "video",
                        "name_original": "Channel 22",
                        "name": "DreamWorks",
                        "sub_name": "",
                        "stream_video_url": "https://allanf181.github.io/adaptive-streams/streams/us/DreamWorksChannelAsia.m3u8",
                        "thumbnail_url": "https://upload.wikimedia.org/wikipedia/commons/thumb/8/84/DreamWorks_Channel_Logo.svg/512px-DreamWorks_Channel_Logo.svg.png",
                        "thumbnail_url_original": "https://raw.githubusercontent.com/tvgram-inc/tvgram-inc.github.io/master/images/logo.png"
                    },
                    "sub_23": {
                        "id": 23,
                        "mode": "video",
                        "name_original": "Channel 23",
                        "name": "DW English",
                        "sub_name": "",
                        "stream_video_url": "https://dwamdstream102.akamaized.net/hls/live/2015525/dwstream102/index.m3u8",
                        "thumbnail_url": "https://i.imgur.com/A1xzjOI.png",
                        "thumbnail_url_original": "https://raw.githubusercontent.com/tvgram-inc/tvgram-inc.github.io/master/images/logo.png"
                    },
                    "sub_24": {
                        "id": 24,
                        "mode": "website",
                        "name_original": "",
                        "name": "Canada IPTV LIST",
                        "sub_name": "Canada Free Channel Playlist (Ad)",
                        "website_url": "https://play.google.com/store/apps/details?id=com.bitlinks.canada.iptv.m3ulist",
                        "is_system_browser": true,
                        "thumbnail_url": "https://play-lh.googleusercontent.com/kwcO0pT77BLdDvudr9SJnWi5TCAcPnbKrCnCH3dp6mHpGtlChWZVOxfvFEp1zA_DW90=w240-h480-rw",
                        "thumbnail_url_original": ""
                    },
                    "sub_25": {
                        "id": 25,
                        "mode": "video",
                        "name_original": "Channel 25",
                        "name": "ERT World",
                        "sub_name": "",
                        "stream_video_url": "http://wpso.com:1936/hls/wzra.m3u8",
                        "thumbnail_url": "https://upload.wikimedia.org/wikipedia/commons/thumb/b/bc/ChannelLogo-ERTWORLD1.png/512px-ChannelLogo-ERTWORLD1.png",
                        "thumbnail_url_original": "https://raw.githubusercontent.com/tvgram-inc/tvgram-inc.github.io/master/images/logo.png"
                    },
                    "sub_26": {
                        "id": 26,
                        "mode": "video",
                        "name_original": "Channel 26",
                        "name": "ETB Basque",
                        "sub_name": "",
                        "stream_video_url": "https://multimedia.eitb.eus/live-content/eitbbasque-hls/master.m3u8",
                        "thumbnail_url": "https://upload.wikimedia.org/wikipedia/commons/thumb/c/ca/ETB_Basque_2022_logo.svg/512px-ETB_Basque_2022_logo.svg.png",
                        "thumbnail_url_original": "https://raw.githubusercontent.com/tvgram-inc/tvgram-inc.github.io/master/images/logo.png"
                    },
                    "sub_27": {
                        "id": 27,
                        "mode": "website",
                        "name_original": "",
                        "name": "India IPTV LIST",
                        "sub_name": "Indian Free Channel Playlist (Ad)",
                        "website_url": "https://play.google.com/store/apps/details?id=com.bitlinks.india.iptv.m3ulist",
                        "is_system_browser": true,
                        "thumbnail_url": "https://play-lh.googleusercontent.com/l3rJ2qzJtRFzqUzr55ano_WEhcDx5YznwIpd7uRVxooEbOW5444QY8HeeZbiZhd4Ayc=w240-h480-rw",
                        "thumbnail_url_original": ""
                    },
                    "sub_28": {
                        "id": 28,
                        "mode": "video",
                        "name_original": "Channel 28",
                        "name": "Euro Indie Music Chart TV",
                        "sub_name": "",
                        "stream_video_url": "http://178.33.224.197:1935/euroindiemusic/euroindiemusic/playlist.m3u8",
                        "thumbnail_url": "https://i.imgur.com/UDFBYpN.png",
                        "thumbnail_url_original": "https://raw.githubusercontent.com/tvgram-inc/tvgram-inc.github.io/master/images/logo.png"
                    },
                    "sub_29": {
                        "id": 29,
                        "mode": "video",
                        "name_original": "Channel 29",
                        "name": "Euronews German",
                        "sub_name": "",
                        "stream_video_url": "https://euronews.alteox.app/hls/de_stream.m3u8",
                        "thumbnail_url": "https://i.imgur.com/8t9mdg9.png",
                        "thumbnail_url_original": "https://raw.githubusercontent.com/tvgram-inc/tvgram-inc.github.io/master/images/logo.png"
                    },
                    "sub_30": {
                        "id": 30,
                        "mode": "website",
                        "name_original": "",
                        "name": "Cash Counter",
                        "sub_name": "Easy Money Count (Ad)",
                        "website_url": "https://play.google.com/store/apps/details?id=com.money_count_save",
                        "is_system_browser": true,
                        "thumbnail_url": "https://play-lh.googleusercontent.com/kB7MXSAbO8vKrfbnM8QrzIcNbNm2tWH8rImp5xsIZY1lwKqK3FkNkEFRQpyskJliEbQ=w240-h480-rw",
                        "thumbnail_url_original": ""
                    },
                    "sub_31": {
                        "id": 31,
                        "mode": "video",
                        "name_original": "Channel 31",
                        "name": "Euronews Italian",
                        "sub_name": "",
                        "stream_video_url": "https://euronews.alteox.app/hls/it_stream.m3u8",
                        "thumbnail_url": "https://i.imgur.com/8t9mdg9.png",
                        "thumbnail_url_original": "https://raw.githubusercontent.com/tvgram-inc/tvgram-inc.github.io/master/images/logo.png"
                    },
                    "sub_32": {
                        "id": 32,
                        "mode": "video",
                        "name_original": "Channel 32",
                        "name": "Euronews Portuguese",
                        "sub_name": "",
                        "stream_video_url": "https://euronews.alteox.app/hls/pt_stream.m3u8",
                        "thumbnail_url": "https://i.imgur.com/8t9mdg9.png",
                        "thumbnail_url_original": "https://raw.githubusercontent.com/tvgram-inc/tvgram-inc.github.io/master/images/logo.png"
                    },
                    "sub_33": {
                        "id": 33,
                        "mode": "website",
                        "name_original": "",
                        "name": "mirende Random Video calls",
                        "sub_name": "Chinese Random Video calling app (Ad)",
                        "website_url": "https://play.google.com/store/apps/details?id=com.minichat.mirende.shipin",
                        "is_system_browser": true,
                        "thumbnail_url": "https://play-lh.googleusercontent.com/pE3eAvKn9TiXM_3-2YTKAmDStyipNhXAwNMrx1D9S6rAXT6PT5y8JxRZnKOaJhHy9Uc=w240-h480-rw",
                        "thumbnail_url_original": ""
                    },
                    "sub_34": {
                        "id": 34,
                        "mode": "video",
                        "name_original": "Channel 34",
                        "name": "HITS",
                        "sub_name": "",
                        "stream_video_url": "http://210.210.155.37/dr9445/h/h37/index.m3u8",
                        "thumbnail_url": "https://i.imgur.com/YeqyD9W.png",
                        "thumbnail_url_original": "https://raw.githubusercontent.com/tvgram-inc/tvgram-inc.github.io/master/images/logo.png"
                    },
                    "sub_35": {
                        "id": 35,
                        "mode": "video",
                        "name_original": "Channel 35",
                        "name": "Insight TV",
                        "sub_name": "",
                        "stream_video_url": "https://insighttv-vizio.amagi.tv/playlist.m3u8",
                        "thumbnail_url": "https://i.imgur.com/7xmaoL0.png",
                        "thumbnail_url_original": "https://raw.githubusercontent.com/tvgram-inc/tvgram-inc.github.io/master/images/logo.png"
                    },
                    "sub_36": {
                        "id": 36,
                        "mode": "website",
                        "name_original": "",
                        "name": "Free Adult Vids",
                        "sub_name": "Adult  FREE IPTV Playlist (Ad)",
                        "website_url": "https://play.google.com/store/apps/details?id=com.x.iptv.hot.playlist",
                        "is_system_browser": true,
                        "thumbnail_url": "https://play-lh.googleusercontent.com/C13Fw3kBZ6jU-AX6PFlyGMdDZFT9VnmPVUJZrJqqm71Rg9ky5sg5bsifgZvuEefFUw=w240-h480-rw",
                        "thumbnail_url_original": ""
                    },
                    "sub_37": {
                        "id": 37,
                        "mode": "video",
                        "name_original": "Channel 37",
                        "name": "Kanal 10 Asia",
                        "sub_name": "",
                        "stream_video_url": "http://cdn-kanal10.crossnet.net:1935/kanal10/kanal10asia/playlist.m3u8",
                        "thumbnail_url": "https://i.imgur.com/RQXBwlz.png",
                        "thumbnail_url_original": "https://raw.githubusercontent.com/tvgram-inc/tvgram-inc.github.io/master/images/logo.png"
                    },
                    "sub_38": {
                        "id": 38,
                        "mode": "video",
                        "name_original": "Channel 38",
                        "name": "KBS World",
                        "sub_name": "",
                        "stream_video_url": "https://kbsworld-ott.akamaized.net/hls/live/2002341/kbsworld/master.m3u8",
                        "thumbnail_url": "https://upload.wikimedia.org/wikipedia/commons/thumb/1/1b/KBS_World_%282009%29.svg/512px-KBS_World_%282009%29.svg.png",
                        "thumbnail_url_original": "https://raw.githubusercontent.com/tvgram-inc/tvgram-inc.github.io/master/images/logo.png"
                    },
                    "sub_39": {
                        "id": 39,
                        "mode": "website",
                        "name_original": "",
                        "name": "Turkish IPTV LIST",
                        "sub_name": "Turkish Free Channel Playlist (Ad)",
                        "website_url": "https://play.google.com/store/apps/details?id=com.bitlinks.turkish.iptv.m3ulist",
                        "is_system_browser": true,
                        "thumbnail_url": "https://play-lh.googleusercontent.com/VKeeYL7nYUv-5qnVweTU2onTurMhO6XZj-w2wjfkVd4trGgD6IWpM__Ta2YlSyxgsPQ=w240-h480-rw",
                        "thumbnail_url_original": ""
                    },
                    "sub_40": {
                        "id": 40,
                        "mode": "video",
                        "name_original": "Channel 40",
                        "name": "Metro Globe Network",
                        "sub_name": "",
                        "stream_video_url": "https://edge.medcom.id/live-edge/smil:mgnch.smil/playlist.m3u8",
                        "thumbnail_url": "https://i.imgur.com/NTCI3lf.png",
                        "thumbnail_url_original": "https://raw.githubusercontent.com/tvgram-inc/tvgram-inc.github.io/master/images/logo.png"
                    },
                    "sub_41": {
                        "id": 41,
                        "mode": "video",
                        "name_original": "Channel 41",
                        "name": "MNB world",
                        "sub_name": "",
                        "stream_video_url": "https://live.mnb.mn/live/mnb_world.stream/playlist.m3u8",
                        "thumbnail_url": "https://www.lyngsat.com/logo/tv/mm/mnb-world-mn.png",
                        "thumbnail_url_original": "https://raw.githubusercontent.com/tvgram-inc/tvgram-inc.github.io/master/images/logo.png"
                    },
                    "sub_42": {
                        "id": 42,
                        "mode": "website",
                        "name_original": "",
                        "name": "lyubimiy Random Video calls",
                        "sub_name": "Ukraine Random Video calling app (Ad)",
                        "website_url": "https://play.google.com/store/apps/details?id=com.minichat.lyubimiy.videochat",
                        "is_system_browser": true,
                        "thumbnail_url": "https://play-lh.googleusercontent.com/R93sG4-ovSRJaDNIVx6PaMkfZGATne9MN0S8Ihp7uSgKxaC2qmdXYpYP3GAslVtP5_5f=w240-h480-rw",
                        "thumbnail_url_original": ""
                    },
                    "sub_43": {
                        "id": 43,
                        "mode": "video",
                        "name_original": "Channel 43",
                        "name": "Myanmar International TV",
                        "sub_name": "",
                        "stream_video_url": "https://5a13fe32ef748.streamlock.net/mmplay/mitv/playlist.m3u8",
                        "thumbnail_url": "https://www.lyngsat.com/logo/tv/mm/myanmar-international-tv-mm.png",
                        "thumbnail_url_original": "https://raw.githubusercontent.com/tvgram-inc/tvgram-inc.github.io/master/images/logo.png"
                    },
                    "sub_44": {
                        "id": 44,
                        "mode": "video",
                        "name_original": "Channel 44",
                        "name": "NASA TV",
                        "sub_name": "",
                        "stream_video_url": "https://uplynkcontent.sinclairstoryline.com/channel/ddd76fdc1c0a456ba537e4f48e827d3e.m3u8",
                        "thumbnail_url": "https://upload.wikimedia.org/wikipedia/commons/thumb/b/b4/NASA_TV.svg/512px-NASA_TV.svg.png",
                        "thumbnail_url_original": "https://raw.githubusercontent.com/tvgram-inc/tvgram-inc.github.io/master/images/logo.png"
                    },
                    "sub_45": {
                        "id": 45,
                        "mode": "website",
                        "name_original": "",
                        "name": "Arabic IPTV LIST",
                        "sub_name": "Arabian Free Channel Playlists (Ad)",
                        "website_url": "https://play.google.com/store/apps/details?id=com.bitlinks.arebic.iptv.m3ulist",
                        "is_system_browser": true,
                        "thumbnail_url": "https://play-lh.googleusercontent.com/sGSMoSuytTPbNuMjKFU0omN7y814nhnqYxEHDtwSPNkrAiqCLuH_asc06xb52U5tAoo=w240-h480-rw",
                        "thumbnail_url_original": ""
                    },
                    "sub_46": {
                        "id": 46,
                        "mode": "video",
                        "name_original": "Channel 46",
                        "name": "NBT World",
                        "sub_name": "",
                        "stream_video_url": "https://thainews.prd.go.th/lv/live/ch1_L_L.sdp/playlist.m3u8",
                        "thumbnail_url": "https://i.imgur.com/GCcmL8E.png",
                        "thumbnail_url_original": "https://raw.githubusercontent.com/tvgram-inc/tvgram-inc.github.io/master/images/logo.png"
                    },
                    "sub_47": {
                        "id": 47,
                        "mode": "video",
                        "name_original": "Channel 47",
                        "name": "NHK World Japan",
                        "sub_name": "",
                        "stream_video_url": "https://nhkwlive-ojp.akamaized.net/hls/live/2003459/nhkwlive-ojp-en/index.m3u8",
                        "thumbnail_url": "https://upload.wikimedia.org/wikipedia/commons/thumb/8/8d/NHK_World-Japan_TV.svg/512px-NHK_World-Japan_TV.svg.png",
                        "thumbnail_url_original": "https://raw.githubusercontent.com/tvgram-inc/tvgram-inc.github.io/master/images/logo.png"
                    },
                    "sub_48": {
                        "id": 48,
                        "mode": "website",
                        "name_original": "",
                        "name": "Line Video Player",
                        "sub_name": "Best Video Player (Ad)",
                        "website_url": "https://play.google.com/store/apps/details?id=com.line.hdplayer",
                        "is_system_browser": true,
                        "thumbnail_url": "https://play-lh.googleusercontent.com/IPqZNMTj7o1agUs1LkuQ0OJU4Ue_udMnOwxENKdKTaTEL_6GyH1YjS4lfq8hUGCVxGA=w240-h480-rw",
                        "thumbnail_url_original": ""
                    },
                    "sub_49": {
                        "id": 49,
                        "mode": "video",
                        "name_original": "Channel 49",
                        "name": "One TV Asia",
                        "sub_name": "",
                        "stream_video_url": "http://210.210.155.37/uq2663/h/h143/index.m3u8",
                        "thumbnail_url": "https://upload.wikimedia.org/wikipedia/en/thumb/c/cc/One_TV_Asia_logo_%282020%29.png/512px-One_TV_Asia_logo_%282020%29.png",
                        "thumbnail_url_original": "https://raw.githubusercontent.com/tvgram-inc/tvgram-inc.github.io/master/images/logo.png"
                    },
                    "sub_50": {
                        "id": 50,
                        "mode": "video",
                        "name_original": "Channel 50",
                        "name": "RAI Italia Asia",
                        "sub_name": "",
                        "stream_video_url": "http://210.210.155.37/x6bnqe/s/s63/index2.m3u8",
                        "thumbnail_url": "https://upload.wikimedia.org/wikipedia/commons/thumb/8/8a/Rai_Italia_-_Logo_2017.svg/512px-Rai_Italia_-_Logo_2017.svg.png",
                        "thumbnail_url_original": "https://raw.githubusercontent.com/tvgram-inc/tvgram-inc.github.io/master/images/logo.png"
                    },
                    "sub_51": {
                        "id": 51,
                        "mode": "website",
                        "name_original": "",
                        "name": "Love Shayari App",
                        "sub_name": "Shayari app for your love ones (Ad)",
                        "website_url": "https://play.google.com/store/apps/details?id=com.real.love.shayari",
                        "is_system_browser": true,
                        "thumbnail_url": "https://play-lh.googleusercontent.com/rs3Xfx9cvLwS1cuq5Hac-Y8c9QACQDDxEKXGBaG5W05EO1c9j8BFkj6GBRwe7u3-PYg=w240-h480-rw",
                        "thumbnail_url_original": ""
                    },
                    "sub_52": {
                        "id": 52,
                        "mode": "video",
                        "name_original": "Channel 52",
                        "name": "Red Bull TV",
                        "sub_name": "",
                        "stream_video_url": "https://rbmn-live.akamaized.net/hls/live/590964/BoRB-AT/master.m3u8",
                        "thumbnail_url": "https://i.imgur.com/7NeBmWX.jpg",
                        "thumbnail_url_original": "https://raw.githubusercontent.com/tvgram-inc/tvgram-inc.github.io/master/images/logo.png"
                    },
                    "sub_53": {
                        "id": 53,
                        "mode": "video",
                        "name_original": "Channel 53",
                        "name": "Rock Entertainment",
                        "sub_name": "",
                        "stream_video_url": "http://210.210.155.37/dr9445/h/h16/index.m3u8",
                        "thumbnail_url": "https://i.imgur.com/iINudF3.png",
                        "thumbnail_url_original": "https://raw.githubusercontent.com/tvgram-inc/tvgram-inc.github.io/master/images/logo.png"
                    },
                    "sub_54": {
                        "id": 54,
                        "mode": "website",
                        "name_original": "",
                        "name": "Live Cricket",
                        "sub_name": "Watch Live Cricket Score (Ad)",
                        "website_url": "https://play.google.com/store/apps/details?id=com.bitmedia.ipl2k22",
                        "is_system_browser": true,
                        "thumbnail_url": "https://play-lh.googleusercontent.com/yAiVkEdk1YbKEvZf6SLujni0dQgA9U2_B86aqt0_k-b2_ASEWjnqdeL-UyNq-GWx1Jc=w240-h480-rw",
                        "thumbnail_url_original": ""
                    },
                    "sub_55": {
                        "id": 55,
                        "mode": "video",
                        "name_original": "Channel 55",
                        "name": "RT Documentary Russian",
                        "sub_name": "",
                        "stream_video_url": "http://uiptv.do.am/1ufc/300663722/playlist.m3u8",
                        "thumbnail_url": "https://i.imgur.com/rli3c7T.png",
                        "thumbnail_url_original": "https://raw.githubusercontent.com/tvgram-inc/tvgram-inc.github.io/master/images/logo.png"
                    },
                    "sub_56": {
                        "id": 56,
                        "mode": "video",
                        "name_original": "Channel 56",
                        "name": "RTP Internacional Asia",
                        "sub_name": "",
                        "stream_video_url": "http://210.210.155.37/qwr9ew/s/s38/index.m3u8",
                        "thumbnail_url": "https://upload.wikimedia.org/wikipedia/commons/thumb/f/f7/RTP_Internacional_2016_%28Reduced_Version%29.svg/512px-RTP_Internacional_2016_%28Reduced_Version%29.svg.png",
                        "thumbnail_url_original": "https://raw.githubusercontent.com/tvgram-inc/tvgram-inc.github.io/master/images/logo.png"
                    },
                    "sub_57": {
                        "id": 57,
                        "mode": "website",
                        "name_original": "",
                        "name": "German Live Tv",
                        "sub_name": "Free Live TV Channels (Ad)",
                        "website_url": "https://play.google.com/store/apps/details?id=com.tvgram.germanlivetv",
                        "is_system_browser": true,
                        "thumbnail_url": "https://play-lh.googleusercontent.com/R56Rq08GnY1LDkWF-kK_ys4FkVokh5qXhBdnIwoO1xe4-b9VQlxlBhIEuygrLCzt5UU=w240-h480-rw",
                        "thumbnail_url_original": ""
                    },
                    "sub_58": {
                        "id": 58,
                        "mode": "video",
                        "name_original": "Channel 58",
                        "name": "Ski TV",
                        "sub_name": "",
                        "stream_video_url": "https://d2xeo83q8fcni6.cloudfront.net/v1/master/9d062541f2ff39b5c0f48b743c6411d25f62fc25/SkiTV-SynapseTV/193.m3u8",
                        "thumbnail_url": "https://i.imgur.com/idKogRi.png",
                        "thumbnail_url_original": "https://raw.githubusercontent.com/tvgram-inc/tvgram-inc.github.io/master/images/logo.png"
                    },
                    "sub_59": {
                        "id": 59,
                        "mode": "video",
                        "name_original": "Channel 59",
                        "name": "Sofy TV",
                        "sub_name": "",
                        "stream_video_url": "https://sofy-ger-samsung.amagi.tv/playlist.m3u8",
                        "thumbnail_url": "https://i.imgur.com/Srxa6cR.png",
                        "thumbnail_url_original": "https://raw.githubusercontent.com/tvgram-inc/tvgram-inc.github.io/master/images/logo.png"
                    },
                    "sub_60": {
                        "id": 60,
                        "mode": "website",
                        "name_original": "",
                        "name": "English IPTV LIST",
                        "sub_name": "English Free Channel Playlist (Ad)",
                        "website_url": "https://play.google.com/store/apps/details?id=com.bitlinks.english.iptv.m3ulist",
                        "is_system_browser": true,
                        "thumbnail_url": "https://play-lh.googleusercontent.com/xb5LxBYljW-fpj4QcmfpauEPrGIKFw1w8glR4sJYNnGF6KVfJZEw9IzRu9NzlUEVrh4=w240-h480-rw",
                        "thumbnail_url_original": ""
                    },
                    "sub_61": {
                        "id": 61,
                        "mode": "video",
                        "name_original": "Channel 61",
                        "name": "Suria [Geo-blocked]",
                        "sub_name": "",
                        "stream_video_url": "https://d11h6a6nhl9kj9.cloudfront.net/hls/clr4ctv_suria/master.m3u8",
                        "thumbnail_url": "https://i.imgur.com/uZwCfcn.png",
                        "thumbnail_url_original": "https://raw.githubusercontent.com/tvgram-inc/tvgram-inc.github.io/master/images/logo.png"
                    },
                    "sub_62": {
                        "id": 62,
                        "mode": "video",
                        "name_original": "Channel 62",
                        "name": "Tech Storm",
                        "sub_name": "",
                        "stream_video_url": "https://cdn-telkomsel-01.akamaized.net/Content/HLS/Live/channel(abe4ead2-1a88-4330-9f41-382fcf94bba2)/index.m3u8",
                        "thumbnail_url": "https://i.imgur.com/kvKMnJR.png",
                        "thumbnail_url_original": "https://raw.githubusercontent.com/tvgram-inc/tvgram-inc.github.io/master/images/logo.png"
                    },
                    "sub_63": {
                        "id": 63,
                        "mode": "website",
                        "name_original": "",
                        "name": "belo Random Video calls",
                        "sub_name": "Portuguese Random Video calling app (Ad)",
                        "website_url": "https://play.google.com/store/apps/details?id=com.minichat.belo.chatde.video",
                        "is_system_browser": true,
                        "thumbnail_url": "https://play-lh.googleusercontent.com/AS5qW9nP6-CGtPNDA59DR6-fg3MhH924N45ScDNSmacthqzrbDb04C4ripDrxpq2Jw=w240-h480-rw",
                        "thumbnail_url_original": ""
                    },
                    "sub_64": {
                        "id": 64,
                        "mode": "video",
                        "name_original": "Channel 64",
                        "name": "Three Angels Broadcasting Network International",
                        "sub_name": "",
                        "stream_video_url": "https://3abn-live.akamaized.net/hls/live/2010544/International/master.m3u8",
                        "thumbnail_url": "https://i.imgur.com/vhb8zvB.png",
                        "thumbnail_url_original": "https://raw.githubusercontent.com/tvgram-inc/tvgram-inc.github.io/master/images/logo.png"
                    },
                    "sub_65": {
                        "id": 65,
                        "mode": "video",
                        "name_original": "Channel 65",
                        "name": "TRT World",
                        "sub_name": "",
                        "stream_video_url": "https://tv-trtworld.live.trt.com.tr/master.m3u8",
                        "thumbnail_url": "https://upload.wikimedia.org/wikipedia/commons/thumb/2/27/TRT_World.svg/512px-TRT_World.svg.png",
                        "thumbnail_url_original": "https://raw.githubusercontent.com/tvgram-inc/tvgram-inc.github.io/master/images/logo.png"
                    },
                    "sub_66": {
                        "id": 66,
                        "mode": "website",
                        "name_original": "",
                        "name": "Status Savaer",
                        "sub_name": "Status Saver for Whatsapp (Ad)",
                        "website_url": "https://play.google.com/store/apps/details?id=com.appclub.whats.status.saver",
                        "is_system_browser": true,
                        "thumbnail_url": "https://play-lh.googleusercontent.com/K76-feE-GOTDz9SoEWVKtom1ngUVTIPEsQ_damw8lCyaoh77awQifmc4A5wXdSyx84M=w240-h480-rw",
                        "thumbnail_url_original": ""
                    },
                    "sub_67": {
                        "id": 67,
                        "mode": "video",
                        "name_original": "Channel 67",
                        "name": "TV5 Monde Asie",
                        "sub_name": "",
                        "stream_video_url": "http://210.210.155.37/dr9445/s/s24/index.m3u8",
                        "thumbnail_url": "https://cms.dmpcdn.com/livetv/2022/01/18/ca2f0180-7814-11ec-8fd5-c549a9b471b9_webp_original.png",
                        "thumbnail_url_original": "https://raw.githubusercontent.com/tvgram-inc/tvgram-inc.github.io/master/images/logo.png"
                    },
                    "sub_68": {
                        "id": 68,
                        "mode": "video",
                        "name_original": "Channel 68",
                        "name": "TVE Internacional Asia-Oceania",
                        "sub_name": "",
                        "stream_video_url": "http://210.210.155.37/uq2663/h/h158/index2.m3u8",
                        "thumbnail_url": "https://upload.wikimedia.org/wikipedia/commons/thumb/8/83/Logo_TVE-Internacional.svg/512px-Logo_TVE-Internacional.svg.png",
                        "thumbnail_url_original": "https://raw.githubusercontent.com/tvgram-inc/tvgram-inc.github.io/master/images/logo.png"
                    },
                    "sub_69": {
                        "id": 69,
                        "mode": "website",
                        "name_original": "",
                        "name": "France IPTV LIST",
                        "sub_name": "France Free Channel Playlist (Ad)",
                        "website_url": "https://play.google.com/store/apps/details?id=com.bitlinks.france.iptv.m3ulist",
                        "is_system_browser": true,
                        "thumbnail_url": "https://play-lh.googleusercontent.com/3JLB6nhz-nLEmVec31uJO-s8dmAjQYRI7qcHM12471zQI9bHXbQR6ggmhGpdnNFIJg=w240-h480-rw",
                        "thumbnail_url_original": ""
                    },
                    "sub_70": {
                        "id": 70,
                        "mode": "video",
                        "name_original": "Channel 70",
                        "name": "TVM Internacional",
                        "sub_name": "",
                        "stream_video_url": "http://online.tvm.co.mz:1935/live/smil:Channel2.smil/playlist.m3u8",
                        "thumbnail_url": "https://i.imgur.com/Ns3WrOQ.png",
                        "thumbnail_url_original": "https://raw.githubusercontent.com/tvgram-inc/tvgram-inc.github.io/master/images/logo.png"
                    },
                    "sub_71": {
                        "id": 71,
                        "mode": "video",
                        "name_original": "Channel 71",
                        "name": "tvN Asia",
                        "sub_name": "",
                        "stream_video_url": "http://210.210.155.37/dr9445/h/h20/index.m3u8",
                        "thumbnail_url": "https://upload.wikimedia.org/wikipedia/commons/thumb/6/67/Logo_tvN.svg/512px-Logo_tvN.svg.png",
                        "thumbnail_url_original": "https://raw.githubusercontent.com/tvgram-inc/tvgram-inc.github.io/master/images/logo.png"
                    },
                    "sub_72": {
                        "id": 72,
                        "mode": "website",
                        "name_original": "",
                        "name": "bello Random Video calls",
                        "sub_name": "Italian  Random Video calling app (Ad)",
                        "website_url": "https://play.google.com/store/apps/details?id=com.minichat.bello.random.videochat",
                        "is_system_browser": true,
                        "thumbnail_url": "https://play-lh.googleusercontent.com/3bOkAvBhWTFLLuwMRriodrXyEk67Dp6NQibo4UZyPOyahMbI6iisNCqQX5OcmMl9VQ=w240-h480-rw",
                        "thumbnail_url_original": ""
                    },
                    "sub_73": {
                        "id": 73,
                        "mode": "video",
                        "name_original": "Channel 73",
                        "name": "UN Web TV",
                        "sub_name": "",
                        "stream_video_url": "https://cdnapi.kaltura.com/p/2503451/sp/250345100/playManifest/entryId/1_gb6tjmle/protocol/https/format/applehttp/a.m3u8",
                        "thumbnail_url": "https://i.imgur.com/lPyJhBN.png",
                        "thumbnail_url_original": "https://raw.githubusercontent.com/tvgram-inc/tvgram-inc.github.io/master/images/logo.png"
                    },
                    "sub_74": {
                        "id": 74,
                        "mode": "video",
                        "name_original": "Channel 74",
                        "name": "Vasantham [Geo-blocked]",
                        "sub_name": "",
                        "stream_video_url": "https://d39v9xz8f7n8tk.cloudfront.net/hls/clr4ctv_vsnthm/master.m3u8",
                        "thumbnail_url": "https://i.imgur.com/vqVEcuT.png",
                        "thumbnail_url_original": "https://raw.githubusercontent.com/tvgram-inc/tvgram-inc.github.io/master/images/logo.png"
                    },
                    "sub_75": {
                        "id": 75,
                        "mode": "website",
                        "name_original": "",
                        "name": "USA IPTV LIST",
                        "sub_name": "USA Free Channel Playlist (Ad)",
                        "website_url": "https://play.google.com/store/apps/details?id=com.bitlinks.usa.iptv.m3ulist",
                        "is_system_browser": true,
                        "thumbnail_url": "https://play-lh.googleusercontent.com/aLcopJQaN0OngNZvAnfUbpBB3RNhb-48sleyghMNXVSKePiGZqmhb375p_5VRz1uhxs=w240-h480-rw",
                        "thumbnail_url_original": ""
                    },
                    "sub_76": {
                        "id": 76,
                        "mode": "video",
                        "name_original": "Channel 76",
                        "name": "World Fashion Channel International",
                        "sub_name": "",
                        "stream_video_url": "https://wfcint.mediacdn.ru/cdn/wfcintweb/playlist.m3u8",
                        "thumbnail_url": "https://i.imgur.com/D46u7eW.png",
                        "thumbnail_url_original": "https://raw.githubusercontent.com/tvgram-inc/tvgram-inc.github.io/master/images/logo.png"
                    },
                    "sub_77": {
                        "id": 77,
                        "mode": "video",
                        "name_original": "Channel 77",
                        "name": "World Poker Tour",
                        "sub_name": "",
                        "stream_video_url": "https://d3w4n3hhseniak.cloudfront.net/v1/master/9d062541f2ff39b5c0f48b743c6411d25f62fc25/WPT-DistroTV/150.m3u8",
                        "thumbnail_url": "https://images.pluto.tv/channels/5f8ecfb9db6c180007a6d1b0/colorLogoPNG.png",
                        "thumbnail_url_original": "https://raw.githubusercontent.com/tvgram-inc/tvgram-inc.github.io/master/images/logo.png"
                    }
                }
            }
        }
    }
}